170498	3
218374	1
170501	4
160778	2
148490	1
250892	2
195602	9
178195	2
172051	2
196631	1
213275	6
228125	3
189213	1
172061	1
213025	3
148007	1
163621	1
157477	2
338989	2
160558	1
160300	1
177712	1
506675	1
263472	9
151092	1
213557	1
195898	1
153145	5
294968	1
156479	2
181314	1
158787	1
163136	1
181312	3
164417	1
219206	1
190020	1
179786	1
151882	1
183886	52
270152	1
152910	2
213069	3
148049	2
153681	4
152917	1
265555	7
155227	1
192344	3
235096	3
153694	15
173148	1
155228	1
200285	1
232290	19
170598	9
146535	1
149093	11
157290	2
171119	3
162934	1
165492	2
167035	7
151934	3
204159	1
165250	5
157312	1
153222	1
304512	1
188295	4
150919	1
190087	6
177540	1
169605	3
155530	14
246152	1
433557	1
167057	3
163991	1
195735	1
157336	1
154008	1
173727	1
151967	1
206502	1
191140	1
197802	1
203946	1
326830	1
168872	1
189870	1
192173	1
153010	1
201394	1
326837	1
188592	6
217777	1
189873	1
207792	2
147892	1
203960	4
145849	3
153278	1
196031	1
147647	1
153788	1
175042	1
222658	1
261834	1
230857	1
177864	1
208847	2
158158	2
146893	1
149713	1
147419	1
159192	3
190175	4
179676	1
180963	1
146912	1
148449	1
201952	1
174310	1
205030	1
168677	1
188138	2
164592	1
180468	2
152568	1
154110	2
193020	1
226301	1
155645	2
