179205	516104	0	0
1	a6b6e3cf36a4:0
179205	516104	1	0
1	a6b6e3cf36a4:0
179205	516104	2	0
1	a6b6e3cf36a4:0
179205	516104	3	0
1	a6b6e3cf36a4:0
179205	516104	4	0
2	a6b6e3cf36a4:1	6cd3cdf49d80:0
179205	516104	5	0
12	6d9e8574bd02:16	89bb91a205f8:79	a1200d20a6c2:7	3fa8268540a1:41	a3c8c4da87d6:0	88dbed0f347e:42	95878f101e96:6	e9f795d50115:34	e9680fd4a875:30	042259d03e60:43	ebc5ed9278e2:19	d1a1c7dcc669:3
179205	516104	6	0
1	a1200d20a6c2:0
179205	516104	7	0
2	89bb91a205f8:2	a1200d20a6c2:0
179205	516104	8	0
3	da95a1b91da7:0	1801b4eb4bb3:41	301519a63d0a:43
179205	516104	9	0
5	3296fc6624df:1	9c3328176a7a:11	e109df9be1af:0	c06fe6e89701:8	a452fab284a5:7
179205	516104	10	0
1	e109df9be1af:0
179205	516104	11	0
2	e109df9be1af:14	ebd3b0ceb37a:0
179205	516104	12	0
1	e109df9be1af:0
179205	516104	14	0
2	da95a1b91da7:0	89bb91a205f8:14
179205	516104	15	0
4	da95a1b91da7:0	46679b74d88b:12	9072b53e794c:8	d9893b077f8f:7
179205	516104	16	0
2	46679b74d88b:0	c2f0cbafe419:2
179205	516104	17	0
1	da95a1b91da7:0
179205	516104	22	0
3	e362b7085285:1	313ca82fe335:0	89cc8dfb1b14:4
171461	517621	2	0
2	499f688cc11a:0	944995cf3646:4
171461	517621	3	0
1	499f688cc11a:0
171461	517621	4	0
2	b2982a88f41f:2	4b361b475588:0
171461	517621	5	0
4	157b3680f06d:2	8bf899308b10:1	8434ada9d206:3	4b361b475588:0
171461	517621	6	0
1	03112f82b9e4:0
171461	517621	7	0
7	030f1ee28e08:5	b7d468d849f3:4	36e3d320abde:43	99483a77658b:21	7a1b3683b834:14	03112f82b9e4:0	5767c4e94002:41
171461	517621	8	0
1	99483a77658b:0
171461	517621	9	0
10	163a7bedfc33:11	030f1ee28e08:2	83b00d564f7c:2	99483a77658b:0	7a1b3683b834:43	03112f82b9e4:4	1edb54b5ee04:40	ef856b0e7ef1:52	a95ee2ef402c:42	15ff2e7bbfe0:3
171461	517621	10	0
4	74f0ffa558a8:8	030f1ee28e08:1	b7d468d849f3:20	03112f82b9e4:0
171461	517621	12	0
6	a6b6e3cf36a4:3	b4085d2e2003:0	8c82958ed72c:1	788967d7f08c:2	e482f2c5d40e:7	5d7d33143ebd:6
171461	517621	13	0
2	a6b6e3cf36a4:1	b4085d2e2003:0
171461	517621	14	0
9	23a32c3576cd:56	33fb4550f8fc:59	e51b7dfa0f83:26	72c230829c7f:35	f7e9ce28320e:39	afa073274618:0	479e8e84888c:54	85aeef9e43eb:1	d5ffd3552fdc:58
171461	517621	45	0
3	e362b7085285:1	313ca82fe335:0	89cc8dfb1b14:4
171461	517621	53	0
2	3f40a1f5c949:1	afa073274618:0
171461	517621	54	0
1	afa073274618:0
171461	517621	55	0
2	a2f859f65852:1	afa073274618:0
171461	517621	57	0
4	38e5ee5223ce:13	a6b6e3cf36a4:0	d31f25ca302d:4	b516dee066b2:12
171461	517621	58	0
3	a6b6e3cf36a4:0	7012373d248c:3	f15277be8b1c:2
171461	517621	59	0
1	afa073274618:0
171461	517621	64	0
6	eaf43055f658:2	d0bc44447e65:58	493703d05279:1	85a3e43952a0:0	b3dcb286377d:1	b13c3c93d6ed:14
171461	517621	65	0
2	d0bc44447e65:2	493703d05279:0
171461	517621	66	0
17	1ef73d2bef94:24	8283fb8f9371:71	61a028247a37:46	c93e4113b2e0:74	7a6fa0f8e860:19	713c95e8d8e4:14	2006fd7dc0fa:60	185434522b7f:64	622b14c530f6:18	0ddb6cc8cd64:55	fc2f87a798bb:63	dc3751f2a9bd:73	801601ae75cc:0	85a3e43952a0:44	d0fe7f117db0:78	dbf9595a813a:1	162f03d3cdac:61
171461	517621	75	0
3	e362b7085285:1	313ca82fe335:0	89cc8dfb1b14:4
171461	518929	2	0
2	499f688cc11a:0	944995cf3646:4
171461	518929	3	0
1	499f688cc11a:0
171461	518929	4	0
2	b2982a88f41f:2	4b361b475588:0
171461	518929	5	0
4	157b3680f06d:2	8bf899308b10:1	8434ada9d206:3	4b361b475588:0
171461	518929	6	0
3	157b3680f06d:0	d83f17cfc533:1	f3c31ad3f132:1
171461	518929	7	0
13	157b3680f06d:13	24aa5016f019:24	c6bac0dafb19:2	2196b0b99744:63	f6d25d29fc2b:2	a75f2a45660a:66	5767c4e94002:35	f52771c37c5c:1	dd1d0aec0638:26	36e3d320abde:37	7a1b3683b834:14	d7d94a7af738:24	d83f17cfc533:0
171461	518929	8	0
6	dd1d0aec0638:0	4c2898b78af5:3	24aa5016f019:1	6346862a21a8:7	dc4b9333f202:2	15ff2e7bbfe0:1
171461	518929	9	0
5	a4352177a723:7	b5f286bdebec:1	d45bee7247ab:5	195251261c65:3	dc4b9333f202:0
171461	518929	10	0
2	01c927aaf8b2:2	2b25de3ee40c:0
171461	518929	11	0
6	2cef8857d873:7	332c539581e1:0	8001beb426ce:12	7ab00d2ec62b:3	55358d9f848d:5	abdd15a33101:13
171461	518929	13	0
1	7ab00d2ec62b:0
171461	518929	16	0
1	7ab00d2ec62b:0
171461	518929	17	0
1	7ab00d2ec62b:0
171461	518929	18	0
2	01c927aaf8b2:2	7ab00d2ec62b:0
171461	518929	21	0
1	a6b6e3cf36a4:0
171461	518929	22	0
1	a6b6e3cf36a4:0
171461	518929	23	0
3	38e5ee5223ce:9	a6b6e3cf36a4:0	7012373d248c:4
171461	518929	24	0
2	a6b6e3cf36a4:0	fa6e1c5e2ec9:2
171461	518929	25	0
2	9eca54b3d126:2	9506818a964f:0
171461	518929	26	0
7	c6f3b6a7a339:6	8ccc842a4d51:18	a6b6e3cf36a4:1	dbfceea3e7ee:48	f8f783416d40:45	9eca54b3d126:0	9506818a964f:10
171461	518929	27	0
3	8ccc842a4d51:9	a6b6e3cf36a4:0	9eca54b3d126:8
171461	518929	28	0
3	38e5ee5223ce:8	a6b6e3cf36a4:0	7012373d248c:6
171461	518929	29	0
2	38e5ee5223ce:10	7012373d248c:0
171461	518929	30	0
2	38e5ee5223ce:7	7012373d248c:0
171461	518929	31	0
3	38e5ee5223ce:3	a6b6e3cf36a4:3	7012373d248c:0
171461	518929	32	0
3	8ccc842a4d51:16	a6b6e3cf36a4:0	9eca54b3d126:1
171461	518929	33	0
2	a6b6e3cf36a4:0	10de2eb0ab7f:2
171461	518929	34	0
1	a6b6e3cf36a4:0
171461	518929	35	0
4	8cc54be85825:4	a6b6e3cf36a4:1	f084174cf4ce:0	565be3214153:6
171461	518929	36	0
1	7012373d248c:0
171461	518929	37	0
2	ce650300429b:1	dabaacb8e0c2:0
171461	518929	38	0
3	38e5ee5223ce:10	a6b6e3cf36a4:4	7012373d248c:0
171461	518929	39	0
3	38e5ee5223ce:27	a6b6e3cf36a4:3	7012373d248c:0
171461	518929	40	0
2	a6b6e3cf36a4:1	7012373d248c:0
171461	518929	41	0
1	a6b6e3cf36a4:0
171461	518929	77	0
3	e362b7085285:1	313ca82fe335:0	89cc8dfb1b14:4
171461	517615	4	0
1	a6b6e3cf36a4:0
171461	517615	36	0
3	e362b7085285:1	313ca82fe335:0	89cc8dfb1b14:4
171461	517615	44	0
2	3f40a1f5c949:1	afa073274618:0
171461	517615	45	0
1	afa073274618:0
171461	517615	46	0
2	a2f859f65852:1	afa073274618:0
171461	517615	48	0
4	38e5ee5223ce:13	a6b6e3cf36a4:0	d31f25ca302d:4	b516dee066b2:12
171461	517615	49	0
3	a6b6e3cf36a4:0	7012373d248c:3	f15277be8b1c:2
171461	517615	50	0
1	afa073274618:0
171461	517615	55	0
6	eaf43055f658:2	d0bc44447e65:58	493703d05279:1	85a3e43952a0:0	b3dcb286377d:1	b13c3c93d6ed:14
171461	517615	56	0
2	d0bc44447e65:2	493703d05279:0
171461	517615	57	0
17	1ef73d2bef94:24	8283fb8f9371:71	61a028247a37:46	c93e4113b2e0:74	7a6fa0f8e860:19	713c95e8d8e4:14	2006fd7dc0fa:60	185434522b7f:64	622b14c530f6:18	0ddb6cc8cd64:55	fc2f87a798bb:63	dc3751f2a9bd:73	801601ae75cc:0	85a3e43952a0:44	d0fe7f117db0:78	dbf9595a813a:1	162f03d3cdac:61
171461	517615	66	0
3	e362b7085285:1	313ca82fe335:0	89cc8dfb1b14:4
171461	517615	31	0
3	e362b7085285:1	313ca82fe335:0	89cc8dfb1b14:4
171461	517615	39	0
2	3f40a1f5c949:1	afa073274618:0
171461	517615	40	0
1	afa073274618:0
171461	517615	41	0
2	a2f859f65852:1	afa073274618:0
171461	517615	43	0
4	38e5ee5223ce:13	a6b6e3cf36a4:0	d31f25ca302d:4	b516dee066b2:12
171461	517615	44	0
3	a6b6e3cf36a4:0	7012373d248c:3	f15277be8b1c:2
171461	517615	45	0
1	afa073274618:0
171461	517615	50	0
6	eaf43055f658:2	d0bc44447e65:58	493703d05279:1	85a3e43952a0:0	b3dcb286377d:1	b13c3c93d6ed:14
171461	517615	51	0
2	d0bc44447e65:2	493703d05279:0
171461	517615	52	0
17	1ef73d2bef94:24	8283fb8f9371:71	61a028247a37:46	c93e4113b2e0:74	7a6fa0f8e860:19	713c95e8d8e4:14	2006fd7dc0fa:60	185434522b7f:64	622b14c530f6:18	0ddb6cc8cd64:55	fc2f87a798bb:63	dc3751f2a9bd:73	801601ae75cc:0	85a3e43952a0:44	d0fe7f117db0:78	dbf9595a813a:1	162f03d3cdac:61
171461	517615	61	0
3	e362b7085285:1	313ca82fe335:0	89cc8dfb1b14:4
171461	517615	2	0
2	499f688cc11a:0	944995cf3646:4
171461	517615	3	0
1	499f688cc11a:0
171461	517615	4	0
2	b2982a88f41f:2	4b361b475588:0
171461	517615	5	0
4	157b3680f06d:2	8bf899308b10:1	8434ada9d206:3	4b361b475588:0
171461	517615	6	0
1	03112f82b9e4:0
171461	517615	7	0
7	030f1ee28e08:5	b7d468d849f3:4	36e3d320abde:43	99483a77658b:21	7a1b3683b834:14	03112f82b9e4:0	5767c4e94002:41
171461	517615	8	0
1	99483a77658b:0
171461	517615	9	0
10	163a7bedfc33:11	030f1ee28e08:2	83b00d564f7c:2	99483a77658b:0	7a1b3683b834:43	03112f82b9e4:4	1edb54b5ee04:40	ef856b0e7ef1:52	a95ee2ef402c:42	15ff2e7bbfe0:3
171461	517615	10	0
9	163a7bedfc33:8	39d44102a83a:23	030f1ee28e08:2	99483a77658b:3	2f8be79c7016:13	7a1b3683b834:22	03112f82b9e4:0	17b598dd527f:20	1ac2425635fb:33
171461	517615	12	0
8	cda6af679d60:7	bb276c9cffeb:11	e92edc1d7133:9	a6b6e3cf36a4:1	b4085d2e2003:0	0da9e77846b8:12	9b5a9026b384:4	a77871517756:46
171461	517615	13	0
2	a6b6e3cf36a4:2	0da9e77846b8:0
171461	517615	14	0
2	70361f1cb799:1	493703d05279:0
171461	517615	15	0
1	548bd1c1de7b:0
171461	517615	16	0
1	a6b6e3cf36a4:0
171461	517615	18	0
3	eaf43055f658:1	f1871c539a47:0	c68289aa2a47:4
171461	517615	19	0
12	2ccd83e5265e:46	cda6af679d60:5	d2ac505725f8:34	66cb4688e5d5:26	a6b6e3cf36a4:14	27c5384bea49:30	b4085d2e2003:22	f1871c539a47:0	c68289aa2a47:20	b8c63a046f4e:7	0da9e77846b8:36	8870deb3cd89:1
171461	517615	21	0
15	3915a9571923:45	a6b6e3cf36a4:1	eaf43055f658:3	b4085d2e2003:38	bbac3d3dec30:89	b8c63a046f4e:15	18c67f102f36:24	8870deb3cd89:13	bb276c9cffeb:19	66cb4688e5d5:36	f1871c539a47:0	c68289aa2a47:12	0da9e77846b8:14	e482f2c5d40e:33	c31b1a730e25:65
171461	517615	26	0
1	a6b6e3cf36a4:0
171461	517615	58	0
3	e362b7085285:1	313ca82fe335:0	89cc8dfb1b14:4
171461	517615	66	0
2	3f40a1f5c949:1	afa073274618:0
171461	517615	67	0
1	afa073274618:0
171461	517615	68	0
2	a2f859f65852:1	afa073274618:0
171461	517615	70	0
4	38e5ee5223ce:13	a6b6e3cf36a4:0	d31f25ca302d:4	b516dee066b2:12
171461	517615	71	0
3	a6b6e3cf36a4:0	7012373d248c:3	f15277be8b1c:2
171461	517615	72	0
1	afa073274618:0
171461	517615	77	0
6	eaf43055f658:2	d0bc44447e65:58	493703d05279:1	85a3e43952a0:0	b3dcb286377d:1	b13c3c93d6ed:14
171461	517615	78	0
2	d0bc44447e65:2	493703d05279:0
171461	517615	79	0
17	1ef73d2bef94:24	8283fb8f9371:71	61a028247a37:46	c93e4113b2e0:74	7a6fa0f8e860:19	713c95e8d8e4:14	2006fd7dc0fa:60	185434522b7f:64	622b14c530f6:18	0ddb6cc8cd64:55	fc2f87a798bb:63	dc3751f2a9bd:73	801601ae75cc:0	85a3e43952a0:44	d0fe7f117db0:78	dbf9595a813a:1	162f03d3cdac:61
171461	517615	88	0
3	e362b7085285:1	313ca82fe335:0	89cc8dfb1b14:4
147528	521384	0	0
13	8ce0d6255b77:20	87c475ec04d2:1	e9ef23c1fdcb:17	18df6fd7caa4:38	91c97e1ad654:10	08d9b257a9a7:39	4f0a34c170f2:4	afb30d8941c1:1	1557fb4dbd96:15	58aba1254249:8	7bcada1eac48:32	342c8dc0fb10:0	3d4cfe5940f5:26
147528	521384	1	0
3	a6b6e3cf36a4:13	870bdb7ff9c8:0	95da06f756f9:2
147528	521384	2	0
7	a6b6e3cf36a4:0	4d36a0faa1b4:19	bbac3d3dec30:8	2bc794b05dce:1	f2258c95c059:22	4e3f11acd75b:9	8870deb3cd89:11
179784	518059	0	0
1	eac3045b4fdd:0
179784	518059	1	0
5	0bf225a10fc1:12	8bc8d1cd23df:2	bb5436a892c1:3	03100a8bb339:14	071a35429c2c:0
179784	518059	2	0
6	2011122f1e63:23	8bc8d1cd23df:1	27e8fab2144e:4	bb5436a892c1:2	2ddbcd35497d:0	a704756df2a0:5
179784	518059	3	0
3	a6b6e3cf36a4:13	870bdb7ff9c8:0	95da06f756f9:2
179784	518059	4	0
7	a6b6e3cf36a4:0	4d36a0faa1b4:19	bbac3d3dec30:8	2bc794b05dce:1	f2258c95c059:22	4e3f11acd75b:9	8870deb3cd89:11
179785	518060	0	0
3	9d898b0f9741:8	67771a33f47c:17	cf78fe647c19:0
179785	518060	1	0
1	f98e92e0624e:0
179785	518060	10	0
3	e362b7085285:1	313ca82fe335:0	89cc8dfb1b14:4
162705	517285	0	0
4	fd6fa9a3ede7:2	a805b6aeb667:3	5300d23b7bea:0	5938d826b292:2
162705	517285	1	0
22	d0ea49889625:34	9daf949d30d1:13	6473db3bcb13:3	dfd884378fc8:26	28cd9c7a5fae:20	6cea063fb6a3:22	cdaabc6064f9:16	05402600636e:18	973950846d6a:17	a8429e8af33b:14	93690409b747:1	bfa8f8e40960:10	2b464bbf9f9e:9	824194a010bc:28	3b2a735848bb:27	a8450048278f:21	06445b80d189:9	e1df49afab12:1	7a1b3683b834:23	14773fd1a5bb:0	0b6520765cf5:2	a6b285db0902:5
162705	517285	2	0
1	8c31110375c5:0
162705	517285	3	0
8	0c30b6632f78:2	ead0217f1e03:14	1f74053488c5:2	e04b56dad3ce:0	313ca82fe335:3	8c31110375c5:13	60d57bf5df89:5	8e0f33f0ae33:3
162705	517285	4	0
11	92eb61725564:1	1f74053488c5:21	334514863909:3	324ace413314:2	a50cdaf71385:0	abafffb7abb6:11	2f9556adf482:9	e79e3029b1e8:16	60d57bf5df89:12	57637df59335:25	2160fbaa2114:4
162705	517285	5	0
17	1a2675ebc8be:32	efe0d828766c:0	05bbc6538b65:7	59539dbe627a:30	7a6fa0f8e860:6	2160fbaa2114:8	180776201731:77	cd1c20933a2c:34	334514863909:1	efad8bd05876:31	bc857e7522a0:45	8c31110375c5:20	0085a5c5f382:29	07de5a904de1:28	57637df59335:33	acef0e51c611:22	a436501eca32:48
162705	517285	7	0
5	fc2f87a798bb:1	334514863909:1	07de5a904de1:0	c8196ea006dc:9	315136e13a9f:7
162705	517285	8	0
3	a6b6e3cf36a4:13	870bdb7ff9c8:0	95da06f756f9:2
162705	517285	9	0
7	a6b6e3cf36a4:0	4d36a0faa1b4:19	bbac3d3dec30:8	2bc794b05dce:1	f2258c95c059:22	4e3f11acd75b:9	8870deb3cd89:11
162705	517285	1	0
4	fd6fa9a3ede7:2	a805b6aeb667:3	5300d23b7bea:0	5938d826b292:2
162705	517285	2	0
22	d0ea49889625:34	9daf949d30d1:13	6473db3bcb13:3	dfd884378fc8:26	28cd9c7a5fae:20	6cea063fb6a3:22	cdaabc6064f9:16	05402600636e:18	973950846d6a:17	a8429e8af33b:14	93690409b747:1	bfa8f8e40960:10	2b464bbf9f9e:9	824194a010bc:28	3b2a735848bb:27	a8450048278f:21	06445b80d189:9	e1df49afab12:1	7a1b3683b834:23	14773fd1a5bb:0	0b6520765cf5:2	a6b285db0902:5
162705	517285	3	0
1	8c31110375c5:0
162705	517285	4	0
8	0c30b6632f78:2	ead0217f1e03:14	1f74053488c5:2	e04b56dad3ce:0	313ca82fe335:3	8c31110375c5:13	60d57bf5df89:5	8e0f33f0ae33:3
162705	517285	5	0
11	92eb61725564:1	1f74053488c5:21	334514863909:3	324ace413314:2	a50cdaf71385:0	abafffb7abb6:11	2f9556adf482:9	e79e3029b1e8:16	60d57bf5df89:12	57637df59335:25	2160fbaa2114:4
162705	517285	6	0
17	1a2675ebc8be:32	efe0d828766c:0	05bbc6538b65:7	59539dbe627a:30	7a6fa0f8e860:6	2160fbaa2114:8	180776201731:77	cd1c20933a2c:34	334514863909:1	efad8bd05876:31	bc857e7522a0:45	8c31110375c5:20	0085a5c5f382:29	07de5a904de1:28	57637df59335:33	acef0e51c611:22	a436501eca32:48
162705	517285	8	0
5	fc2f87a798bb:1	334514863909:1	07de5a904de1:0	c8196ea006dc:9	315136e13a9f:7
162705	517285	9	0
3	a6b6e3cf36a4:13	870bdb7ff9c8:0	95da06f756f9:2
162705	517285	10	0
7	a6b6e3cf36a4:0	4d36a0faa1b4:19	bbac3d3dec30:8	2bc794b05dce:1	f2258c95c059:22	4e3f11acd75b:9	8870deb3cd89:11
162705	530151	1	0
4	fd6fa9a3ede7:2	a805b6aeb667:3	5300d23b7bea:0	5938d826b292:2
162705	530151	2	0
22	d0ea49889625:34	9daf949d30d1:13	6473db3bcb13:3	dfd884378fc8:26	28cd9c7a5fae:20	6cea063fb6a3:22	cdaabc6064f9:16	05402600636e:18	973950846d6a:17	a8429e8af33b:14	93690409b747:1	bfa8f8e40960:10	2b464bbf9f9e:9	824194a010bc:28	3b2a735848bb:27	a8450048278f:21	06445b80d189:9	e1df49afab12:1	7a1b3683b834:23	14773fd1a5bb:0	0b6520765cf5:2	a6b285db0902:5
162705	530151	3	0
1	8c31110375c5:0
162705	530151	4	0
8	0c30b6632f78:2	ead0217f1e03:18	1f74053488c5:6	e04b56dad3ce:3	313ca82fe335:0	8c31110375c5:17	60d57bf5df89:9	8e0f33f0ae33:7
162705	530151	5	0
11	92eb61725564:5	1f74053488c5:17	334514863909:1	324ace413314:2	a50cdaf71385:3	abafffb7abb6:7	2f9556adf482:5	e79e3029b1e8:12	60d57bf5df89:8	57637df59335:21	2160fbaa2114:0
162705	530151	6	0
17	1a2675ebc8be:40	efe0d828766c:3	05bbc6538b65:1	59539dbe627a:38	7a6fa0f8e860:2	2160fbaa2114:0	180776201731:69	cd1c20933a2c:26	334514863909:6	efad8bd05876:39	bc857e7522a0:53	8c31110375c5:28	0085a5c5f382:37	07de5a904de1:20	57637df59335:25	acef0e51c611:30	a436501eca32:40
162705	530151	8	0
9	fc2f87a798bb:9	75e1557189bb:14	efe0d828766c:25	334514863909:0	313ca82fe335:39	a50cdaf71385:5	07de5a904de1:8	c8196ea006dc:17	315136e13a9f:15
162705	530151	9	0
3	a6b6e3cf36a4:13	870bdb7ff9c8:0	95da06f756f9:2
162705	530151	10	0
7	a6b6e3cf36a4:0	4d36a0faa1b4:19	bbac3d3dec30:8	2bc794b05dce:1	f2258c95c059:22	4e3f11acd75b:9	8870deb3cd89:11
162705	530151	0	0
4	fd6fa9a3ede7:2	a805b6aeb667:3	5300d23b7bea:0	5938d826b292:2
162705	530151	1	0
22	d0ea49889625:34	9daf949d30d1:13	6473db3bcb13:3	dfd884378fc8:26	28cd9c7a5fae:20	6cea063fb6a3:22	cdaabc6064f9:16	05402600636e:18	973950846d6a:17	a8429e8af33b:14	93690409b747:1	bfa8f8e40960:10	2b464bbf9f9e:9	824194a010bc:28	3b2a735848bb:27	a8450048278f:21	06445b80d189:9	e1df49afab12:1	7a1b3683b834:23	14773fd1a5bb:0	0b6520765cf5:2	a6b285db0902:5
162705	530151	2	0
1	8c31110375c5:0
162705	530151	3	0
8	0c30b6632f78:2	ead0217f1e03:18	1f74053488c5:6	e04b56dad3ce:3	313ca82fe335:0	8c31110375c5:17	60d57bf5df89:9	8e0f33f0ae33:7
162705	530151	4	0
11	92eb61725564:5	1f74053488c5:17	334514863909:1	324ace413314:2	a50cdaf71385:3	abafffb7abb6:7	2f9556adf482:5	e79e3029b1e8:12	60d57bf5df89:8	57637df59335:21	2160fbaa2114:0
162705	530151	5	0
17	1a2675ebc8be:40	efe0d828766c:3	05bbc6538b65:1	59539dbe627a:38	7a6fa0f8e860:2	2160fbaa2114:0	180776201731:69	cd1c20933a2c:26	334514863909:6	efad8bd05876:39	bc857e7522a0:53	8c31110375c5:28	0085a5c5f382:37	07de5a904de1:20	57637df59335:25	acef0e51c611:30	a436501eca32:40
162705	530151	7	0
9	fc2f87a798bb:9	75e1557189bb:14	efe0d828766c:25	334514863909:0	313ca82fe335:39	a50cdaf71385:5	07de5a904de1:8	c8196ea006dc:17	315136e13a9f:15
162705	530151	8	0
3	a6b6e3cf36a4:13	870bdb7ff9c8:0	95da06f756f9:2
162705	530151	9	0
7	a6b6e3cf36a4:0	4d36a0faa1b4:19	bbac3d3dec30:8	2bc794b05dce:1	f2258c95c059:22	4e3f11acd75b:9	8870deb3cd89:11
183185	512512	1	0
6	c327743ea64b:1	8559551465d2:13	fbffc579e53e:0	d13076aa5736:12	f7182cff6816:10	7d3394a9d5a9:8
183185	512512	2	0
7	c327743ea64b:1	8559551465d2:3	fbffc579e53e:11	d13076aa5736:0	f7182cff6816:23	7d3394a9d5a9:21	653632d7b1fe:38
183185	512512	3	0
3	a6b6e3cf36a4:0	7012373d248c:6	d31f25ca302d:12
183185	512512	4	0
7	c327743ea64b:1	8559551465d2:3	fbffc579e53e:11	d13076aa5736:0	f7182cff6816:23	7d3394a9d5a9:21	653632d7b1fe:38
183185	512512	5	0
1	c327743ea64b:0
183185	512512	6	0
1	34cf1bc19870:0
183185	512512	7	0
3	a6b6e3cf36a4:13	870bdb7ff9c8:0	95da06f756f9:2
183185	512512	8	0
7	a6b6e3cf36a4:0	4d36a0faa1b4:19	bbac3d3dec30:8	2bc794b05dce:1	f2258c95c059:22	4e3f11acd75b:9	8870deb3cd89:11
178582	514981	0	0
1	284ea5c5c999:0
178582	514981	1	0
2	5792fb6998d6:0	e5416424aa33:4
178582	514981	2	0
3	a6b6e3cf36a4:13	870bdb7ff9c8:0	95da06f756f9:2
178582	514981	3	0
7	a6b6e3cf36a4:0	4d36a0faa1b4:19	bbac3d3dec30:8	2bc794b05dce:1	f2258c95c059:22	4e3f11acd75b:9	8870deb3cd89:11
175322	518229	3	0
1	8559551465d2:0
175322	518229	4	0
1	8559551465d2:0
175322	518229	5	0
1	8559551465d2:0
175322	518229	6	0
4	8559551465d2:0	cc5cb7204210:5	74877d4e1c6f:4	fa73b32c4215:6
175322	518229	7	0
1	8559551465d2:0
175322	518229	8	0
1	8559551465d2:0
175322	518229	9	0
1	8559551465d2:0
175322	518229	10	0
3	d8c49dd383ec:1	8559551465d2:0	5d3509cbd634:2
175322	518229	11	0
1	a6b6e3cf36a4:0
175322	518229	12	0
1	a6b6e3cf36a4:0
175322	518229	13	0
3	d8c49dd383ec:27	8559551465d2:0	5d3509cbd634:1
175322	518229	14	0
1	5d3509cbd634:0
175322	518229	15	0
3	8559551465d2:1	544ed09870b0:2	8bc4b51b13ee:0
175322	518229	16	0
1	c371edaef3bc:0
175322	518229	17	0
1	a6b6e3cf36a4:0
175322	518229	18	0
1	a6b6e3cf36a4:0
175322	518229	19	0
3	c371edaef3bc:0	d010676c0380:3	8184ca645deb:2
175322	518229	28	0
3	e362b7085285:1	313ca82fe335:0	89cc8dfb1b14:4
175322	518229	40	0
3	417fbcaf20e4:0	ac501262f4a1:46	7ab00d2ec62b:53
175322	518229	71	0
3	e362b7085285:1	313ca82fe335:0	89cc8dfb1b14:4
175322	518229	79	0
2	3f40a1f5c949:1	afa073274618:0
175322	518229	80	0
1	afa073274618:0
175322	518229	81	0
2	a2f859f65852:1	afa073274618:0
175322	518229	83	0
4	38e5ee5223ce:13	a6b6e3cf36a4:0	d31f25ca302d:4	b516dee066b2:12
175322	518229	84	0
3	a6b6e3cf36a4:0	7012373d248c:3	f15277be8b1c:2
175322	518229	85	0
1	afa073274618:0
175322	518229	90	0
6	a43605f9f123:2	8559551465d2:0	ca35534e4f25:1	64701d9ec026:12	13ae5b397c61:13	8184ca645deb:7
175322	518229	91	0
1	8559551465d2:0
175322	518229	92	0
1	8559551465d2:0
175322	518229	93	0
5	622b14c530f6:0	8ee726b771ea:2	7678cdb12f38:1	843687183d39:27	5bafad827a5e:48
175322	518229	94	0
4	4f5bd7469d77:2	acb14eef2d73:1	dfd114b082c8:28	5bafad827a5e:0
175322	518229	128	0
3	e362b7085285:1	313ca82fe335:0	89cc8dfb1b14:4
175259	510258	0	0
1	a6b6e3cf36a4:0
175259	510258	1	0
2	3e1e0257399e:0	a6b6e3cf36a4:1
175259	510258	2	0
1	a6b6e3cf36a4:0
175259	510258	3	0
2	a6b6e3cf36a4:0	68113cf4a290:2
175259	510258	25	0
3	e362b7085285:1	313ca82fe335:0	89cc8dfb1b14:4
175259	510258	0	0
8	646e73936c90:78	b9251d57bd73:24	da2116aed37b:3	ae2e68254ecd:1	93c0daf86b89:73	7216190d5436:0	2683baca2630:34	5508d4ab4f82:77
175259	510258	1	0
3	a6b6e3cf36a4:0	bfaef9e6fa46:6	59311d25b7aa:5
175259	510258	2	0
3	a6b6e3cf36a4:0	9189b6bb62b3:2	17e9dcddf9d2:12
175259	510258	3	0
3	a6b6e3cf36a4:0	9189b6bb62b3:2	17e9dcddf9d2:12
175259	510258	4	0
1	a6b6e3cf36a4:0
175259	510258	5	0
4	a6b6e3cf36a4:7	bfaef9e6fa46:0	9bfca09c3c53:19	6835d3663e14:2
175259	510258	6	0
1	a6b6e3cf36a4:0
175259	510258	7	0
4	5be5523c8c96:5	a6b6e3cf36a4:0	9e464ec455df:3	ef4c23fd35a9:8
175259	510258	8	0
2	a6b6e3cf36a4:0	59311d25b7aa:14
175259	510258	9	0
1	a6b6e3cf36a4:0
175259	510258	10	0
1	a6b6e3cf36a4:0
175259	510258	11	0
1	493703d05279:0
175259	510258	12	0
6	719b3121a19c:2	e220064bd3b2:1	493703d05279:2	32c29f21acfb:0	e45756bc40c9:10	b8470e9b3bac:4
175259	510258	13	0
4	493703d05279:0	9f0e2a81c5a9:11	c88a5727a766:4	8870deb3cd89:3
175259	510258	14	0
1	493703d05279:0
175259	510258	15	0
2	790e43fe9d91:2	3ae59f888cd5:0
175259	510258	16	0
1	a6b6e3cf36a4:0
175259	510258	17	0
1	a6b6e3cf36a4:0
175259	510258	18	0
3	ea523606754e:3	790e43fe9d91:14	3ae59f888cd5:0
175259	510258	19	0
3	84a1d576b4ec:0	ea523606754e:1	778b318bf89a:6
175259	510258	20	0
3	84a1d576b4ec:4	c22944c3f643:0	493703d05279:1
175259	510258	21	0
2	493703d05279:0	e0a6f6c8e82e:1
175259	510258	22	0
4	c8d249986627:2	e4265464f96c:0	03cfb29b6375:1	8870deb3cd89:3
175259	510258	23	0
4	516d55e8b29f:0	eaf43055f658:13	493703d05279:2	084b98fe4a3c:2
175259	510258	24	0
3	a6b6e3cf36a4:0	eaf43055f658:11	68113cf4a290:2
175259	510258	25	0
2	0d16742315f5:0	d0fe1cca56aa:3
175259	510258	26	0
2	a6b6e3cf36a4:0	68113cf4a290:1
175259	510258	27	0
3	a6b6e3cf36a4:13	870bdb7ff9c8:0	95da06f756f9:2
175259	510258	28	0
7	a6b6e3cf36a4:0	4d36a0faa1b4:19	bbac3d3dec30:8	2bc794b05dce:1	f2258c95c059:22	4e3f11acd75b:9	8870deb3cd89:11
175259	507954	0	0
8	646e73936c90:78	b9251d57bd73:24	da2116aed37b:3	ae2e68254ecd:1	93c0daf86b89:73	7216190d5436:0	2683baca2630:34	5508d4ab4f82:77
175259	507954	1	0
3	a6b6e3cf36a4:0	bfaef9e6fa46:6	59311d25b7aa:5
175259	507954	2	0
1	a6b6e3cf36a4:0
175259	507954	3	0
2	a6b6e3cf36a4:0	9bfca09c3c53:4
175259	507954	4	0
1	a6b6e3cf36a4:0
175259	507954	5	0
3	a6b6e3cf36a4:0	7893ff771dee:26	59311d25b7aa:14
175259	507954	6	0
1	9f45d976f58f:0
175259	507954	7	0
3	9f45d976f58f:0	fe004192588a:24	a5f5d5f8fd97:8
175259	507954	8	0
5	0bf225a10fc1:13	8bc8d1cd23df:4	bb5436a892c1:0	03100a8bb339:1	071a35429c2c:11
175259	507954	9	0
6	2011122f1e63:23	8bc8d1cd23df:1	27e8fab2144e:4	bb5436a892c1:2	2ddbcd35497d:0	a704756df2a0:5
175259	507954	10	0
3	a6b6e3cf36a4:13	870bdb7ff9c8:0	95da06f756f9:2
175259	507954	11	0
7	a6b6e3cf36a4:0	4d36a0faa1b4:19	bbac3d3dec30:8	2bc794b05dce:1	f2258c95c059:22	4e3f11acd75b:9	8870deb3cd89:11
178393	504421	1	0
2	2de93fde6975:2	dc7862524137:0
178393	504421	5	0
6	8ce0d6255b77:0	93cdfa82d55e:2	2de93fde6975:3	dc7862524137:1	6888ba6198f1:8	ba4b1fcc88c8:2
178393	504421	6	0
1	b64ed0b91d7e:0
178393	504421	7	0
2	c93e959d04e2:6	b64ed0b91d7e:0
178393	504421	8	0
4	8559551465d2:1	f67af6661015:2	8de1c33cb253:1	c93e959d04e2:0
178393	504421	9	0
2	2752cebc89d6:1	ad12fa8b3011:0
178393	504421	10	0
3	2752cebc89d6:10	8559551465d2:0	18329536a967:15
178393	504421	11	0
2	8559551465d2:0	22c31058ea9b:1
178393	504421	12	0
3	8559551465d2:1	ad12fa8b3011:0	22c31058ea9b:1
178393	504421	13	0
3	a6b6e3cf36a4:13	870bdb7ff9c8:0	95da06f756f9:2
178393	504421	14	0
7	a6b6e3cf36a4:0	4d36a0faa1b4:19	bbac3d3dec30:8	2bc794b05dce:1	f2258c95c059:22	4e3f11acd75b:9	8870deb3cd89:11
178393	513818	1	0
2	2de93fde6975:2	dc7862524137:0
178393	513818	5	0
6	8ce0d6255b77:0	93cdfa82d55e:2	2de93fde6975:3	dc7862524137:1	6888ba6198f1:8	ba4b1fcc88c8:2
178393	513818	6	0
13	8ce0d6255b77:0	87c475ec04d2:1	e9ef23c1fdcb:9	18df6fd7caa4:10	91c97e1ad654:38	08d9b257a9a7:11	4f0a34c170f2:1	afb30d8941c1:3	1557fb4dbd96:13	58aba1254249:5	7bcada1eac48:4	342c8dc0fb10:4	3d4cfe5940f5:54
178393	513818	7	0
3	a6b6e3cf36a4:13	870bdb7ff9c8:0	95da06f756f9:2
178393	513818	8	0
7	a6b6e3cf36a4:0	4d36a0faa1b4:19	bbac3d3dec30:8	2bc794b05dce:1	f2258c95c059:22	4e3f11acd75b:9	8870deb3cd89:11
192478	510577	0	0
4	ba502b52fbfd:43	5cf2b9c71921:10	a6b6e3cf36a4:1	eaf43055f658:0
192478	510577	1	0
3	ba502b52fbfd:0	a6b6e3cf36a4:5	a8c1ae3cd394:2
192478	510577	2	0
2	a6b6e3cf36a4:0	c069957da7d0:1
192478	510577	3	0
3	a6b6e3cf36a4:0	7012373d248c:3	d31f25ca302d:9
192478	510577	4	0
9	0c32760951f5:37	a4f1b8f9b5a3:22	f30dd140c551:32	cdd84d647c31:4	8c31110375c5:1	69a54bef1d54:2	57157b6e2100:0	622a772c8f47:14	dbba4c07441e:13
192478	510577	5	0
2	30580395cd29:5	e1dc9716e5c3:0
192478	510577	6	0
3	b24896172a9b:5	30580395cd29:6	9bf9ea30f520:0
192478	510577	7	0
2	30580395cd29:1	c2acfc81ca00:0
192478	510577	8	0
1	b24896172a9b:0
192478	510577	9	0
4	6bc1d6a24f5a:1	77eb4a376b4e:1	699d16592612:0	207c90b59860:5
192478	510577	10	0
1	77eb4a376b4e:0
192478	510577	11	0
2	77eb4a376b4e:0	2f67696be3ea:2
192478	510577	12	0
2	e6b3c494955b:1	8fcd37001b8b:0
192478	510577	13	0
2	1fd2956891c1:1	8fcd37001b8b:0
192478	510577	14	0
1	e6b3c494955b:0
192478	510577	17	0
1	8ed8451a1ce5:0
192478	510577	18	0
2	4bcceb38adf6:1	146fc2bcd9d1:0
192478	510577	19	0
1	8ed8451a1ce5:0
192478	510577	20	0
1	a6b6e3cf36a4:0
192478	510577	22	0
3	178fa6c7734d:24	77d364292802:43	c287e495f29f:0
192478	510577	23	0
1	a6b6e3cf36a4:0
192478	510577	24	0
2	2813f1091c45:2	58783ba01bdf:0
192478	510577	25	0
1	2813f1091c45:0
192478	510577	26	0
3	44a4cf43ec91:0	57157b6e2100:1	613e74a06a11:1
192478	510577	27	0
4	44a4cf43ec91:2	be1f70b531e4:1	57157b6e2100:0	613e74a06a11:3
192478	510577	28	0
3	a6b6e3cf36a4:0	7012373d248c:6	f15277be8b1c:15
192478	510577	29	0
1	613e74a06a11:0
192478	510577	30	0
3	a6b6e3cf36a4:13	870bdb7ff9c8:0	95da06f756f9:2
192478	510577	31	0
7	a6b6e3cf36a4:0	4d36a0faa1b4:19	bbac3d3dec30:8	2bc794b05dce:1	f2258c95c059:22	4e3f11acd75b:9	8870deb3cd89:11
193374	506127	0	0
2	c5ee47761780:5	72a65fdda80d:0
193374	506127	1	0
5	c5ee47761780:4	df63ce0e8f78:9	2a6a30cf4780:5	72a65fdda80d:10	2ac97bdd46db:0
193374	506127	2	0
2	df63ce0e8f78:0	2ac97bdd46db:1
193374	506127	3	0
1	ab273df755dd:0
193374	506127	4	0
5	057a8a65ce0e:4	9e8471cd2292:10	4c6dfd082e65:0	bb5436a892c1:2	82d0fd8fa772:8
193374	506127	5	0
2	9e8471cd2292:0	bb5436a892c1:3
193374	506127	6	0
5	0bf225a10fc1:0	a49c0bf29d29:5	bb5436a892c1:2	225f159e9860:12	82d0fd8fa772:3
193374	506127	7	0
4	67aa6e8fa086:18	2011122f1e63:0	bb5436a892c1:1	0f7a77e57938:7
193374	506127	8	0
3	a6b6e3cf36a4:13	870bdb7ff9c8:0	95da06f756f9:2
193374	506127	9	0
7	a6b6e3cf36a4:0	4d36a0faa1b4:19	bbac3d3dec30:8	2bc794b05dce:1	f2258c95c059:22	4e3f11acd75b:9	8870deb3cd89:11
178466	517337	1	0
4	8559551465d2:1	2555b04a0d15:2	4d86d84e03d6:0	dee293e4ee5d:13
178466	517337	2	0
4	8559551465d2:0	dab74895e41f:25	35150053c310:10	2555b04a0d15:3
178466	517337	3	0
2	8559551465d2:1	f781f1c83214:0
178466	517337	4	0
8	5367b9b5f16e:26	8559551465d2:0	4781d928e047:8	6cf4ee58ea02:28	1cae752ae9e0:15	faa1f9e9bb4a:25	8adcb69831ae:18	412e7b28addc:24
178466	517337	5	0
1	8c31110375c5:0
178466	517337	6	0
2	a8bcd0e69be4:0	284f2aed804c:4
178466	517337	7	0
1	8c31110375c5:0
178466	517337	8	0
8	0c30b6632f78:2	ead0217f1e03:14	1f74053488c5:2	e04b56dad3ce:0	313ca82fe335:3	8c31110375c5:13	60d57bf5df89:5	8e0f33f0ae33:3
178466	517337	9	0
11	92eb61725564:1	1f74053488c5:21	334514863909:3	324ace413314:2	a50cdaf71385:0	abafffb7abb6:11	2f9556adf482:9	e79e3029b1e8:16	60d57bf5df89:12	57637df59335:25	2160fbaa2114:4
178466	517337	10	0
17	1a2675ebc8be:32	efe0d828766c:0	05bbc6538b65:7	59539dbe627a:30	7a6fa0f8e860:6	2160fbaa2114:8	180776201731:77	cd1c20933a2c:34	334514863909:1	efad8bd05876:31	bc857e7522a0:45	8c31110375c5:20	0085a5c5f382:29	07de5a904de1:28	57637df59335:33	acef0e51c611:22	a436501eca32:48
178466	517337	12	0
5	fc2f87a798bb:1	334514863909:1	07de5a904de1:0	c8196ea006dc:9	315136e13a9f:7
178466	517337	13	0
3	a6b6e3cf36a4:13	870bdb7ff9c8:0	95da06f756f9:2
178466	517337	14	0
7	a6b6e3cf36a4:0	4d36a0faa1b4:19	bbac3d3dec30:8	2bc794b05dce:1	f2258c95c059:22	4e3f11acd75b:9	8870deb3cd89:11
178466	517337	4	0
4	8559551465d2:1	2555b04a0d15:2	4d86d84e03d6:0	dee293e4ee5d:13
178466	517337	5	0
4	8559551465d2:0	dab74895e41f:25	35150053c310:10	2555b04a0d15:3
178466	517337	6	0
2	8559551465d2:1	f781f1c83214:0
178466	517337	7	0
8	5367b9b5f16e:26	8559551465d2:0	4781d928e047:8	6cf4ee58ea02:28	1cae752ae9e0:15	faa1f9e9bb4a:25	8adcb69831ae:18	412e7b28addc:24
178466	517337	8	0
1	8c31110375c5:0
178466	517337	9	0
2	a8bcd0e69be4:0	284f2aed804c:4
178466	517337	10	0
1	8c31110375c5:0
178466	517337	11	0
8	0c30b6632f78:2	ead0217f1e03:14	1f74053488c5:2	e04b56dad3ce:0	313ca82fe335:3	8c31110375c5:13	60d57bf5df89:5	8e0f33f0ae33:3
178466	517337	12	0
11	92eb61725564:1	1f74053488c5:21	334514863909:3	324ace413314:2	a50cdaf71385:0	abafffb7abb6:11	2f9556adf482:9	e79e3029b1e8:16	60d57bf5df89:12	57637df59335:25	2160fbaa2114:4
178466	517337	13	0
17	1a2675ebc8be:32	efe0d828766c:0	05bbc6538b65:7	59539dbe627a:30	7a6fa0f8e860:6	2160fbaa2114:8	180776201731:77	cd1c20933a2c:34	334514863909:1	efad8bd05876:31	bc857e7522a0:45	8c31110375c5:20	0085a5c5f382:29	07de5a904de1:28	57637df59335:33	acef0e51c611:22	a436501eca32:48
178466	517337	15	0
5	fc2f87a798bb:1	334514863909:1	07de5a904de1:0	c8196ea006dc:9	315136e13a9f:7
178466	517337	16	0
3	a6b6e3cf36a4:13	870bdb7ff9c8:0	95da06f756f9:2
178466	517337	17	0
7	a6b6e3cf36a4:0	4d36a0faa1b4:19	bbac3d3dec30:8	2bc794b05dce:1	f2258c95c059:22	4e3f11acd75b:9	8870deb3cd89:11
178466	517337	8	0
4	8559551465d2:1	2555b04a0d15:2	4d86d84e03d6:0	dee293e4ee5d:13
178466	517337	9	0
4	8559551465d2:0	dab74895e41f:25	35150053c310:10	2555b04a0d15:3
178466	517337	10	0
2	8559551465d2:1	f781f1c83214:0
178466	517337	11	0
8	5367b9b5f16e:26	8559551465d2:0	4781d928e047:8	6cf4ee58ea02:28	1cae752ae9e0:15	faa1f9e9bb4a:25	8adcb69831ae:18	412e7b28addc:24
178466	517337	12	0
1	8c31110375c5:0
178466	517337	13	0
2	a8bcd0e69be4:0	284f2aed804c:4
178466	517337	14	0
1	8c31110375c5:0
178466	517337	15	0
8	0c30b6632f78:2	ead0217f1e03:14	1f74053488c5:2	e04b56dad3ce:0	313ca82fe335:3	8c31110375c5:13	60d57bf5df89:5	8e0f33f0ae33:3
178466	517337	16	0
11	92eb61725564:1	1f74053488c5:21	334514863909:3	324ace413314:2	a50cdaf71385:0	abafffb7abb6:11	2f9556adf482:9	e79e3029b1e8:16	60d57bf5df89:12	57637df59335:25	2160fbaa2114:4
178466	517337	17	0
17	1a2675ebc8be:32	efe0d828766c:0	05bbc6538b65:7	59539dbe627a:30	7a6fa0f8e860:6	2160fbaa2114:8	180776201731:77	cd1c20933a2c:34	334514863909:1	efad8bd05876:31	bc857e7522a0:45	8c31110375c5:20	0085a5c5f382:29	07de5a904de1:28	57637df59335:33	acef0e51c611:22	a436501eca32:48
178466	517337	19	0
5	fc2f87a798bb:1	334514863909:1	07de5a904de1:0	c8196ea006dc:9	315136e13a9f:7
178466	517337	20	0
3	a6b6e3cf36a4:13	870bdb7ff9c8:0	95da06f756f9:2
178466	517337	21	0
7	a6b6e3cf36a4:0	4d36a0faa1b4:19	bbac3d3dec30:8	2bc794b05dce:1	f2258c95c059:22	4e3f11acd75b:9	8870deb3cd89:11
177122	508382	4	0
1	11138d1eca43:0
177122	508382	6	0
4	6aa2ecd324b5:0	28e6811d4a1f:7	2bc9e09b0bdd:10	1bb66b88e8bb:9
177122	508382	7	0
8	6aa2ecd324b5:0	2e49a6efe818:32	2c1b22f16acc:14	97a427ed56b0:1	341d671100bb:13	11138d1eca43:1	f25dc7fd4c10:3	03f71332b6c9:4
177122	508382	8	0
8	a01c95d4d757:2	f59b7c5e5c56:8	aa0c1eeef613:7	f72ee0e991b4:2	576b8164fc07:4	6f18e53dfbf3:5	11138d1eca43:0	9b044b8331e5:23
177122	508382	13	0
6	6aa2ecd324b5:2	ae55113e7b05:3	fc278f3fd3ca:0	2c1b22f16acc:4	eb3a4c52c966:1	8147e07a4e5d:3
145505	512297	0	0
5	bdd743ffee4b:5	f9a99696d84a:13	bff2c106def1:19	0305de87b24b:0	75d78a90d621:1
145505	512297	1	0
2	78199517f170:0	d0fd193b04a6:1
145505	512297	2	0
6	fd445a451bf8:14	93a01020bf5a:3	992c804d18c6:5	28e7b99fe2fc:7	f09a57440fd7:0	039f629a06a2:9
145505	512297	3	0
1	7012373d248c:0
145505	512297	4	0
2	ce650300429b:1	dabaacb8e0c2:0
145505	512297	5	0
3	38e5ee5223ce:10	a6b6e3cf36a4:4	7012373d248c:0
145505	512297	6	0
3	38e5ee5223ce:27	a6b6e3cf36a4:3	7012373d248c:0
145505	512297	7	0
2	a6b6e3cf36a4:1	7012373d248c:0
145505	512297	8	0
6	fd445a451bf8:4	93a01020bf5a:7	992c804d18c6:0	28e7b99fe2fc:1	f09a57440fd7:16	039f629a06a2:27
145505	512297	9	0
3	a6b6e3cf36a4:13	870bdb7ff9c8:0	95da06f756f9:2
145505	512297	10	0
7	a6b6e3cf36a4:0	4d36a0faa1b4:19	bbac3d3dec30:8	2bc794b05dce:1	f2258c95c059:22	4e3f11acd75b:9	8870deb3cd89:11
171622	507495	0	0
1	a6b6e3cf36a4:0
171622	507495	1	0
3	fedb8654e286:0	458a5c870c23:1	86fd70be02a5:3
171622	507495	34	0
3	e362b7085285:1	313ca82fe335:0	89cc8dfb1b14:4
171622	508957	2	0
1	7ca019a7e8e1:0
171622	508957	3	0
4	fedb8654e286:0	b0be637aefcc:5	ea19d529cada:4	d208fe7728d5:2
171622	508957	4	0
1	d208fe7728d5:0
171622	508957	5	0
2	fedb8654e286:0	86fd70be02a5:1
171622	508957	6	0
3	a6b6e3cf36a4:13	870bdb7ff9c8:0	95da06f756f9:2
171622	508957	7	0
7	a6b6e3cf36a4:0	4d36a0faa1b4:19	bbac3d3dec30:8	2bc794b05dce:1	f2258c95c059:22	4e3f11acd75b:9	8870deb3cd89:11
175142	508132	0	0
2	3ca62d75a91b:0	816c5dc4678b:2
175142	508132	1	0
1	0ba632e1fa3c:0
175142	508132	3	0
2	0ba632e1fa3c:0	82b1bf580a49:8
175142	508132	4	0
1	0e36336f74a9:0
175142	508132	5	0
2	0ba632e1fa3c:0	82b1bf580a49:89
175142	508132	6	0
11	39b1be32af9a:24	b10dc54b7c2e:4	4e7f6df10678:14	7e803ef7c42f:3	44a86a1cffb1:6	9cd2476c33e0:8	039dbab0105c:7	b314f8c18106:35	5f26d9639e6f:0	79a900d67b0b:10	5bafad827a5e:4
175142	508132	7	0
4	4f5bd7469d77:2	acb14eef2d73:1	dfd114b082c8:28	5bafad827a5e:0
175142	508132	40	0
3	e362b7085285:1	313ca82fe335:0	89cc8dfb1b14:4
175142	512448	0	0
2	3ca62d75a91b:0	816c5dc4678b:2
175142	512448	1	0
1	0ba632e1fa3c:0
175142	512448	3	0
2	0ba632e1fa3c:0	82b1bf580a49:8
175142	512448	4	0
1	0e36336f74a9:0
175142	512448	5	0
2	0ba632e1fa3c:0	82b1bf580a49:89
175142	512448	6	0
11	39b1be32af9a:24	b10dc54b7c2e:4	4e7f6df10678:14	7e803ef7c42f:3	44a86a1cffb1:6	9cd2476c33e0:8	039dbab0105c:7	b314f8c18106:35	5f26d9639e6f:0	79a900d67b0b:10	5bafad827a5e:4
175142	512448	7	0
4	4f5bd7469d77:2	acb14eef2d73:1	dfd114b082c8:28	5bafad827a5e:0
175142	512448	29	0
3	e362b7085285:1	313ca82fe335:0	89cc8dfb1b14:4
179047	511595	0	0
7	8559551465d2:0	f540ee67ef43:2	bd1613532bf2:22	78e10891a932:6	80957ae35993:19	7a654e9b127e:1	aef11db1c50b:37
179047	511595	1	0
2	344d52939b39:3	530d90fe9489:0
179047	511595	2	0
4	f8558605dddb:7	70b00b618bf4:29	fd412d15d125:12	da9f032a4037:0
179047	511595	3	0
8	f8558605dddb:0	65f966007b3a:15	fdd8889b219f:35	138bfa21f3a6:2	493703d05279:7	93de7d3d0ec5:3	e45756bc40c9:36	da9f032a4037:1
179047	511595	4	0
2	b95b1cd23e9c:2	493703d05279:0
179047	511595	5	0
2	dbe505926331:2	da9f032a4037:0
179047	511595	6	0
2	790e43fe9d91:2	3ae59f888cd5:0
179047	511595	7	0
1	a6b6e3cf36a4:0
179047	511595	8	0
1	a6b6e3cf36a4:0
179047	511595	9	0
3	ea523606754e:3	790e43fe9d91:14	3ae59f888cd5:0
179047	511595	10	0
3	84a1d576b4ec:0	ea523606754e:1	778b318bf89a:6
179047	511595	11	0
2	493703d05279:1	da9f032a4037:0
179047	511595	12	0
2	493703d05279:1	da9f032a4037:0
179047	511595	13	0
5	84692965982b:11	0484e62fcbd7:14	e687fd7f2d0f:3	07a64b9a650b:0	26f7bccc6c6d:6
179047	511595	14	0
10	1e631be686a4:5	bb276c9cffeb:0	2cf8af195faf:3	4d8a4a572925:19	d0bc44447e65:7	fa691fec980b:6	4eb20f0e3a98:11	6b904670d0c2:13	032c630a740d:2	85a3e43952a0:12
179047	511595	15	0
2	d0bc44447e65:1	493703d05279:0
179047	511595	16	0
2	bb276c9cffeb:11	b3dcb286377d:0
179047	511595	17	0
2	bb276c9cffeb:0	b3dcb286377d:1
179047	511595	18	0
1	bb276c9cffeb:0
179047	511595	19	0
6	bb276c9cffeb:0	a6b6e3cf36a4:3	b4085d2e2003:14	26b76d6dd17e:2	b8c63a046f4e:8	0da9e77846b8:7
179047	511595	20	0
2	a6b6e3cf36a4:1	b4085d2e2003:0
179047	511595	22	0
8	3915a9571923:17	a6b6e3cf36a4:6	b8c63a046f4e:0	18c67f102f36:1	0da9e77846b8:3	e482f2c5d40e:5	8870deb3cd89:5	c31b1a730e25:37
179047	511595	23	0
3	a6b6e3cf36a4:13	870bdb7ff9c8:0	95da06f756f9:2
179047	511595	24	0
7	a6b6e3cf36a4:0	4d36a0faa1b4:19	bbac3d3dec30:8	2bc794b05dce:1	f2258c95c059:22	4e3f11acd75b:9	8870deb3cd89:11
151652	514037	0	0
2	f5fa14d020be:2	9bc576f9f83f:0
151652	514037	1	0
5	a6b6e3cf36a4:0	e109df9be1af:8	31ca27b6a1de:2	2eb7bd029ea5:5	a75df41ce0b6:9
151652	514037	2	0
1	a6b6e3cf36a4:0
151652	514037	3	0
2	a6b6e3cf36a4:4	324afef9e5bd:0
151652	514037	4	0
2	a6b6e3cf36a4:0	324afef9e5bd:13
151652	514037	5	0
1	a6b6e3cf36a4:0
151652	514037	6	0
1	a6b6e3cf36a4:0
151652	514037	24	0
3	e362b7085285:1	313ca82fe335:0	89cc8dfb1b14:4
174501	516014	3	0
2	a6b6e3cf36a4:1	d0bc44447e65:0
174501	516014	4	0
4	461391b66c92:14	a6b6e3cf36a4:4	d0bc44447e65:9	f7e9a6739560:0
174501	516014	6	0
1	13f4e42c7a6a:0
174501	516014	7	0
3	a6b6e3cf36a4:13	870bdb7ff9c8:0	95da06f756f9:2
174501	516014	8	0
7	a6b6e3cf36a4:0	4d36a0faa1b4:19	bbac3d3dec30:8	2bc794b05dce:1	f2258c95c059:22	4e3f11acd75b:9	8870deb3cd89:11
179690	517290	0	0
1	a6b6e3cf36a4:0
179690	517290	1	0
15	4ea5061945dc:35	aa1547c1d2f6:78	a4b855101d23:120	9e9a6cd17821:15	3c1c991448f6:121	70ef60782af8:123	4b181e90ae86:125	1002bda6bb47:0	d209fa094722:118	26847aebc78f:3	b87d49dec094:132	9bf6e7c757b6:50	5d03c3b744b8:122	7a47f85d41ce:63	4e06f2f75959:127
179690	517290	2	0
4	622b14c530f6:2	9224404ce904:0	c699035f92b4:1	925e1deec0a8:1
179690	517290	3	0
4	4f5bd7469d77:2	acb14eef2d73:1	dfd114b082c8:28	5bafad827a5e:0
179690	517290	4	0
8	3b2a90971455:34	a6b6e3cf36a4:0	0e5dc4730276:2	2151e90ff0bd:5	fc91be1bcde8:24	9cd5be3f5adc:23	ecd08bf6c822:6	7ac2745d4c90:19
179690	517290	22	0
3	e362b7085285:1	313ca82fe335:0	89cc8dfb1b14:4
178794	508570	0	0
1	a8b1c623a2cf:0
178794	508570	1	0
7	bb9ee3e801ac:11	57075ba05b26:21	32316edf389f:1	56dd8866d868:2	41cd4c9d07d1:4	988dfbf21934:1	a8b1c623a2cf:0
178794	508570	2	0
3	9f87891a8a6f:0	4458f58107e8:3	7ed8226f354d:2
178794	508570	4	0
4	244baae7bf74:5	1f22a7f232fb:3	a8b1c623a2cf:2	14e0bc830a00:0
178794	508570	5	0
6	244baae7bf74:0	9f87891a8a6f:1	1f22a7f232fb:3	988dfbf21934:17	a8b1c623a2cf:4	14e0bc830a00:2
178794	508570	6	0
3	a6b6e3cf36a4:0	7012373d248c:6	d31f25ca302d:12
178794	508570	7	0
6	244baae7bf74:0	9f87891a8a6f:1	1f22a7f232fb:3	988dfbf21934:17	a8b1c623a2cf:4	14e0bc830a00:2
178794	508570	8	0
2	0a76d1857ab0:1	8edaf2547b47:0
178794	508570	41	0
3	e362b7085285:1	313ca82fe335:0	89cc8dfb1b14:4
150955	507334	0	0
3	a6b6e3cf36a4:0	7012373d248c:10	d31f25ca302d:16
150955	507334	1	0
5	c327743ea64b:1	8559551465d2:3	d13076aa5736:0	7d3394a9d5a9:5	f9e3344730c7:12
150955	507334	2	0
2	8559551465d2:0	f7d99f0862c4:3
150955	507334	3	0
9	6e67e17fa6b2:11	52d24ad4cfb1:22	43b81c0163c2:5	9f9e4cc0921f:4	0662b197dc45:8	618575a86d91:0	bb2d0b852b48:5	98c1439ca7ad:3	7af8983b1521:43
150955	507334	4	0
8	bd7abd41c366:33	463572b0a8ef:31	b91e01b7efdc:9	09e4b2c32858:15	3dfb067533e2:0	c1f9f8c1e64d:16	858a928f399e:4	35d450816622:36
150955	507334	5	0
2	c1f9f8c1e64d:1	2116299eb6e2:0
150955	507334	7	0
1	2a97b0212229:0
150955	507334	8	0
3	a6b6e3cf36a4:13	870bdb7ff9c8:0	95da06f756f9:2
150955	507334	9	0
7	a6b6e3cf36a4:0	4d36a0faa1b4:19	bbac3d3dec30:8	2bc794b05dce:1	f2258c95c059:22	4e3f11acd75b:9	8870deb3cd89:11
150955	507334	0	0
7	e95f032a8c3e:12	619593988f95:9	274bd76483dd:12	6783fd5071a4:1	70f7dcf9a492:16	aca11be07422:21	752707986b09:0
150955	507334	1	0
6	3d629d16d225:3	5db2da7795e2:22	32b5d65082d6:9	aca11be07422:2	4af259124310:0	6fcd92af54ca:1
150955	507334	2	0
2	aca11be07422:13	4af259124310:0
150955	507334	3	0
16	c9090e8d7a3f:4	465943a20f7f:17	46da7bd4e261:3	7c8cd4b4cf4c:20	f7182cff6816:21	bc43787578a7:3	b02d3a7b51b8:23	c8e8e2b9782c:18	1f60c82d5629:1	c327743ea64b:50	8559551465d2:0	ad271e92a665:14	4d2563f2a6f1:1	10051d843ffb:15	d981cdce09a3:13	5ee7975247f3:29
150955	507334	5	0
3	c327743ea64b:0	d13076aa5736:1	7d3394a9d5a9:3
150955	507334	6	0
5	c327743ea64b:1	8559551465d2:3	d13076aa5736:0	7d3394a9d5a9:5	f9e3344730c7:12
150955	507334	7	0
3	a6b6e3cf36a4:0	7012373d248c:6	d31f25ca302d:12
150955	507334	8	0
5	c327743ea64b:1	8559551465d2:3	d13076aa5736:0	7d3394a9d5a9:5	f9e3344730c7:12
150955	507334	9	0
2	8559551465d2:0	f7d99f0862c4:3
150955	507334	10	0
9	6e67e17fa6b2:11	52d24ad4cfb1:22	43b81c0163c2:5	9f9e4cc0921f:4	0662b197dc45:8	618575a86d91:0	bb2d0b852b48:5	98c1439ca7ad:3	7af8983b1521:43
150955	507334	11	0
8	bd7abd41c366:33	463572b0a8ef:31	b91e01b7efdc:9	09e4b2c32858:15	3dfb067533e2:0	c1f9f8c1e64d:16	858a928f399e:4	35d450816622:36
150955	507334	12	0
2	c1f9f8c1e64d:1	2116299eb6e2:0
150955	507334	14	0
1	2a97b0212229:0
150955	507334	15	0
3	a6b6e3cf36a4:13	870bdb7ff9c8:0	95da06f756f9:2
150955	507334	16	0
7	a6b6e3cf36a4:0	4d36a0faa1b4:19	bbac3d3dec30:8	2bc794b05dce:1	f2258c95c059:22	4e3f11acd75b:9	8870deb3cd89:11
150955	508183	0	0
3	a6b6e3cf36a4:0	7012373d248c:10	d31f25ca302d:16
150955	508183	1	0
3	c327743ea64b:1	8559551465d2:3	d13076aa5736:0
150955	508183	2	0
2	8559551465d2:0	f7d99f0862c4:3
150955	508183	3	0
2	c4566fac2214:1	16273585440c:0
150955	508183	4	0
3	a6b6e3cf36a4:13	870bdb7ff9c8:0	95da06f756f9:2
150955	508183	5	0
7	a6b6e3cf36a4:0	4d36a0faa1b4:19	bbac3d3dec30:8	2bc794b05dce:1	f2258c95c059:22	4e3f11acd75b:9	8870deb3cd89:11
150955	508183	0	0
7	e95f032a8c3e:12	619593988f95:9	274bd76483dd:12	6783fd5071a4:1	70f7dcf9a492:16	aca11be07422:21	752707986b09:0
150955	508183	1	0
6	3d629d16d225:3	5db2da7795e2:22	32b5d65082d6:9	aca11be07422:2	4af259124310:0	6fcd92af54ca:1
150955	508183	2	0
2	aca11be07422:13	4af259124310:0
150955	508183	3	0
16	c9090e8d7a3f:4	465943a20f7f:17	46da7bd4e261:3	7c8cd4b4cf4c:20	f7182cff6816:21	bc43787578a7:3	b02d3a7b51b8:23	c8e8e2b9782c:18	1f60c82d5629:1	c327743ea64b:50	8559551465d2:0	ad271e92a665:14	4d2563f2a6f1:1	10051d843ffb:15	d981cdce09a3:13	5ee7975247f3:29
150955	508183	5	0
2	c327743ea64b:0	d13076aa5736:1
150955	508183	6	0
3	c327743ea64b:1	8559551465d2:3	d13076aa5736:0
150955	508183	7	0
3	a6b6e3cf36a4:0	7012373d248c:6	d31f25ca302d:12
150955	508183	8	0
3	c327743ea64b:1	8559551465d2:3	d13076aa5736:0
150955	508183	9	0
2	8559551465d2:0	f7d99f0862c4:3
150955	508183	10	0
2	c4566fac2214:1	16273585440c:0
150955	508183	11	0
3	a6b6e3cf36a4:13	870bdb7ff9c8:0	95da06f756f9:2
150955	508183	12	0
7	a6b6e3cf36a4:0	4d36a0faa1b4:19	bbac3d3dec30:8	2bc794b05dce:1	f2258c95c059:22	4e3f11acd75b:9	8870deb3cd89:11
150955	507094	0	0
3	a6b6e3cf36a4:0	7012373d248c:10	d31f25ca302d:16
150955	507094	1	0
7	0acb30ca8554:1	8559551465d2:2	d13076aa5736:0	170ff50942a9:2	4f5433c85e8c:3	f7182cff6816:9	bc43787578a7:3
150955	507094	2	0
1	8559551465d2:0
150955	507094	3	0
1	1cae752ae9e0:0
150955	507094	4	0
3	a6b6e3cf36a4:13	870bdb7ff9c8:0	95da06f756f9:2
150955	507094	5	0
7	a6b6e3cf36a4:0	4d36a0faa1b4:19	bbac3d3dec30:8	2bc794b05dce:1	f2258c95c059:22	4e3f11acd75b:9	8870deb3cd89:11
150955	507094	0	0
7	e95f032a8c3e:12	619593988f95:9	274bd76483dd:12	6783fd5071a4:1	70f7dcf9a492:16	aca11be07422:21	752707986b09:0
150955	507094	1	0
6	3d629d16d225:3	5db2da7795e2:22	32b5d65082d6:9	aca11be07422:2	4af259124310:0	6fcd92af54ca:1
150955	507094	2	0
2	aca11be07422:13	4af259124310:0
150955	507094	3	0
16	c9090e8d7a3f:4	465943a20f7f:17	46da7bd4e261:3	7c8cd4b4cf4c:20	f7182cff6816:21	bc43787578a7:3	b02d3a7b51b8:23	c8e8e2b9782c:18	1f60c82d5629:1	c327743ea64b:50	8559551465d2:0	ad271e92a665:14	4d2563f2a6f1:1	10051d843ffb:15	d981cdce09a3:13	5ee7975247f3:29
150955	507094	5	0
5	8559551465d2:0	d13076aa5736:7	170ff50942a9:6	4f5433c85e8c:1	f7182cff6816:1
150955	507094	6	0
7	0acb30ca8554:1	8559551465d2:2	d13076aa5736:0	170ff50942a9:2	4f5433c85e8c:3	f7182cff6816:9	bc43787578a7:3
150955	507094	7	0
3	a6b6e3cf36a4:0	7012373d248c:6	d31f25ca302d:12
150955	507094	8	0
7	0acb30ca8554:1	8559551465d2:2	d13076aa5736:0	170ff50942a9:2	4f5433c85e8c:3	f7182cff6816:9	bc43787578a7:3
150955	507094	9	0
1	8559551465d2:0
150955	507094	10	0
1	1cae752ae9e0:0
150955	507094	11	0
3	a6b6e3cf36a4:13	870bdb7ff9c8:0	95da06f756f9:2
150955	507094	12	0
7	a6b6e3cf36a4:0	4d36a0faa1b4:19	bbac3d3dec30:8	2bc794b05dce:1	f2258c95c059:22	4e3f11acd75b:9	8870deb3cd89:11
150955	507552	0	0
7	e95f032a8c3e:12	619593988f95:9	274bd76483dd:12	6783fd5071a4:1	70f7dcf9a492:16	aca11be07422:21	752707986b09:0
150955	507552	1	0
6	3d629d16d225:3	5db2da7795e2:22	32b5d65082d6:9	aca11be07422:2	4af259124310:0	6fcd92af54ca:1
150955	507552	2	0
2	aca11be07422:13	4af259124310:0
150955	507552	3	0
16	c9090e8d7a3f:4	465943a20f7f:17	46da7bd4e261:3	7c8cd4b4cf4c:20	f7182cff6816:21	bc43787578a7:3	b02d3a7b51b8:23	c8e8e2b9782c:18	1f60c82d5629:1	c327743ea64b:50	8559551465d2:0	ad271e92a665:14	4d2563f2a6f1:1	10051d843ffb:15	d981cdce09a3:13	5ee7975247f3:29
150955	507552	5	0
3	c327743ea64b:0	d13076aa5736:1	7d3394a9d5a9:3
150955	507552	6	0
5	c327743ea64b:1	8559551465d2:3	d13076aa5736:0	7d3394a9d5a9:5	f9e3344730c7:12
150955	507552	7	0
3	a6b6e3cf36a4:0	7012373d248c:6	d31f25ca302d:12
150955	507552	8	0
5	c327743ea64b:1	8559551465d2:3	d13076aa5736:0	7d3394a9d5a9:5	f9e3344730c7:12
150955	507552	9	0
2	8559551465d2:0	f7d99f0862c4:3
150955	507552	10	0
2	43b81c0163c2:1	de73a94b46a4:0
150955	507552	11	0
3	a6b6e3cf36a4:13	870bdb7ff9c8:0	95da06f756f9:2
150955	507552	12	0
1	de73a94b46a4:0
150955	507552	13	0
5	8559551465d2:1	f99c4705a853:22	63276465dcaf:109	550570d7115d:1	de73a94b46a4:0
150955	507552	14	0
2	8559551465d2:1	550570d7115d:0
150955	507552	15	0
2	95570837bc1f:0	b78c0d165aa1:2
150955	507552	16	0
16	c5129a8d8ff2:0	26d32b6613b3:16	b18dcbf17740:10	bc70deefb906:34	88f84d447192:12	add7f886a6bc:103	5222d59855fc:18	847d789e19f1:17	013dbf209af0:44	06dcd459c97a:19	b78c0d165aa1:6	0c416c4ac366:10	ab5718296bd9:29	e34ca63668bd:47	fce8ee1cb191:100	a7de860c8c01:9
150955	507552	17	0
5	b18dcbf17740:3	6cca6ac3632e:1	8a2cad31d871:2	b78c0d165aa1:0	bfbf7761bc24:6
150955	507552	18	0
1	93ecb234ad40:0
150955	507552	19	0
3	a6b6e3cf36a4:13	870bdb7ff9c8:0	95da06f756f9:2
150955	507552	20	0
7	a6b6e3cf36a4:0	4d36a0faa1b4:19	bbac3d3dec30:8	2bc794b05dce:1	f2258c95c059:22	4e3f11acd75b:9	8870deb3cd89:11
150955	507552	0	0
3	a6b6e3cf36a4:0	7012373d248c:10	d31f25ca302d:16
150955	507552	1	0
5	c327743ea64b:1	8559551465d2:3	d13076aa5736:0	7d3394a9d5a9:5	f9e3344730c7:12
150955	507552	2	0
2	8559551465d2:0	f7d99f0862c4:3
150955	507552	3	0
2	43b81c0163c2:1	de73a94b46a4:0
150955	507552	4	0
3	a6b6e3cf36a4:13	870bdb7ff9c8:0	95da06f756f9:2
150955	507552	5	0
1	de73a94b46a4:0
150955	507552	6	0
5	8559551465d2:1	f99c4705a853:22	63276465dcaf:109	550570d7115d:1	de73a94b46a4:0
150955	507552	7	0
2	8559551465d2:1	550570d7115d:0
150955	507552	8	0
2	95570837bc1f:0	b78c0d165aa1:2
150955	507552	9	0
16	c5129a8d8ff2:0	26d32b6613b3:16	b18dcbf17740:10	bc70deefb906:34	88f84d447192:12	add7f886a6bc:103	5222d59855fc:18	847d789e19f1:17	013dbf209af0:44	06dcd459c97a:19	b78c0d165aa1:6	0c416c4ac366:10	ab5718296bd9:29	e34ca63668bd:47	fce8ee1cb191:100	a7de860c8c01:9
150955	507552	10	0
5	b18dcbf17740:3	6cca6ac3632e:1	8a2cad31d871:2	b78c0d165aa1:0	bfbf7761bc24:6
150955	507552	11	0
1	93ecb234ad40:0
150955	507552	12	0
3	a6b6e3cf36a4:13	870bdb7ff9c8:0	95da06f756f9:2
150955	507552	13	0
7	a6b6e3cf36a4:0	4d36a0faa1b4:19	bbac3d3dec30:8	2bc794b05dce:1	f2258c95c059:22	4e3f11acd75b:9	8870deb3cd89:11
150955	508073	0	0
3	a6b6e3cf36a4:0	7012373d248c:10	d31f25ca302d:16
150955	508073	1	0
6	c327743ea64b:1	8559551465d2:3	fbffc579e53e:4	d13076aa5736:0	f9e3344730c7:14	653632d7b1fe:19
150955	508073	2	0
2	7c64607b8faf:0	1da40f3757c4:1
150955	508073	3	0
4	8559551465d2:18	3622bc21acf4:2	ee5cd5612a9e:0	9d87a6a8d9bf:5
150955	508073	4	0
3	a6b6e3cf36a4:13	870bdb7ff9c8:0	95da06f756f9:2
150955	508073	5	0
7	a6b6e3cf36a4:0	4d36a0faa1b4:19	bbac3d3dec30:8	2bc794b05dce:1	f2258c95c059:22	4e3f11acd75b:9	8870deb3cd89:11
150955	508073	0	0
7	e95f032a8c3e:12	619593988f95:9	274bd76483dd:12	6783fd5071a4:1	70f7dcf9a492:16	aca11be07422:21	752707986b09:0
150955	508073	1	0
6	3d629d16d225:3	5db2da7795e2:22	32b5d65082d6:9	aca11be07422:2	4af259124310:0	6fcd92af54ca:1
150955	508073	2	0
2	aca11be07422:13	4af259124310:0
150955	508073	3	0
16	c9090e8d7a3f:4	465943a20f7f:17	46da7bd4e261:3	7c8cd4b4cf4c:20	f7182cff6816:21	bc43787578a7:3	b02d3a7b51b8:23	c8e8e2b9782c:18	1f60c82d5629:1	c327743ea64b:50	8559551465d2:0	ad271e92a665:14	4d2563f2a6f1:1	10051d843ffb:15	d981cdce09a3:13	5ee7975247f3:29
150955	508073	5	0
3	c327743ea64b:0	fbffc579e53e:2	d13076aa5736:1
150955	508073	6	0
6	c327743ea64b:1	8559551465d2:3	fbffc579e53e:4	d13076aa5736:0	f9e3344730c7:14	653632d7b1fe:19
150955	508073	7	0
3	a6b6e3cf36a4:0	7012373d248c:6	d31f25ca302d:12
150955	508073	8	0
6	c327743ea64b:1	8559551465d2:3	fbffc579e53e:4	d13076aa5736:0	f9e3344730c7:14	653632d7b1fe:19
150955	508073	9	0
2	7c64607b8faf:0	1da40f3757c4:1
150955	508073	10	0
4	8559551465d2:18	3622bc21acf4:2	ee5cd5612a9e:0	9d87a6a8d9bf:5
150955	508073	11	0
3	a6b6e3cf36a4:13	870bdb7ff9c8:0	95da06f756f9:2
150955	508073	12	0
7	a6b6e3cf36a4:0	4d36a0faa1b4:19	bbac3d3dec30:8	2bc794b05dce:1	f2258c95c059:22	4e3f11acd75b:9	8870deb3cd89:11
150955	517623	0	0
3	a6b6e3cf36a4:0	7012373d248c:10	d31f25ca302d:16
150955	517623	1	0
5	8559551465d2:1	d13076aa5736:0	f7182cff6816:3	4f5433c85e8c:6	bc43787578a7:2
150955	517623	2	0
1	8559551465d2:0
150955	517623	3	0
3	8559551465d2:11	a1df45a038cc:1	4f5433c85e8c:0
150955	517623	4	0
2	1a25fe4b5f00:13	a6b6e3cf36a4:0
150955	517623	5	0
1	beb1d07a19d6:0
150955	517623	6	0
5	2da115040bbc:13	beb1d07a19d6:0	d82d1f4e494d:4	d56187a67c2b:3	ee609bc2180e:33
150955	517623	0	0
7	e95f032a8c3e:12	619593988f95:9	274bd76483dd:12	6783fd5071a4:1	70f7dcf9a492:16	aca11be07422:21	752707986b09:0
150955	517623	1	0
6	3d629d16d225:3	5db2da7795e2:22	32b5d65082d6:9	aca11be07422:2	4af259124310:0	6fcd92af54ca:1
150955	517623	2	0
2	aca11be07422:13	4af259124310:0
150955	517623	3	0
16	c9090e8d7a3f:4	465943a20f7f:17	46da7bd4e261:3	7c8cd4b4cf4c:20	f7182cff6816:21	bc43787578a7:3	b02d3a7b51b8:23	c8e8e2b9782c:18	1f60c82d5629:1	c327743ea64b:50	8559551465d2:0	ad271e92a665:14	4d2563f2a6f1:1	10051d843ffb:15	d981cdce09a3:13	5ee7975247f3:29
150955	517623	5	0
5	8559551465d2:26	d13076aa5736:1	f7182cff6816:1	4f5433c85e8c:4	bc43787578a7:0
150955	517623	6	0
5	8559551465d2:1	d13076aa5736:0	f7182cff6816:3	4f5433c85e8c:6	bc43787578a7:2
150955	517623	7	0
3	a6b6e3cf36a4:0	7012373d248c:6	d31f25ca302d:12
150955	517623	8	0
5	8559551465d2:1	d13076aa5736:0	f7182cff6816:3	4f5433c85e8c:6	bc43787578a7:2
150955	517623	9	0
1	8559551465d2:0
150955	517623	10	0
3	8559551465d2:11	a1df45a038cc:1	4f5433c85e8c:0
150955	517623	11	0
2	1a25fe4b5f00:13	a6b6e3cf36a4:0
150955	517623	12	0
1	beb1d07a19d6:0
150955	517623	13	0
5	2da115040bbc:13	beb1d07a19d6:0	d82d1f4e494d:4	d56187a67c2b:3	ee609bc2180e:33
150955	509617	0	0
3	a6b6e3cf36a4:0	7012373d248c:10	d31f25ca302d:16
150955	509617	1	0
5	c327743ea64b:1	8559551465d2:3	d13076aa5736:0	7d3394a9d5a9:5	f9e3344730c7:12
150955	509617	2	0
2	8559551465d2:0	f7d99f0862c4:3
150955	509617	3	0
2	8559551465d2:0	2eb7a2a33473:7
150955	509617	5	0
1	5e345b24de13:0
150955	509617	6	0
3	a6b6e3cf36a4:13	870bdb7ff9c8:0	95da06f756f9:2
150955	509617	7	0
7	a6b6e3cf36a4:0	4d36a0faa1b4:19	bbac3d3dec30:8	2bc794b05dce:1	f2258c95c059:22	4e3f11acd75b:9	8870deb3cd89:11
150955	509617	0	0
7	e95f032a8c3e:12	619593988f95:9	274bd76483dd:12	6783fd5071a4:1	70f7dcf9a492:16	aca11be07422:21	752707986b09:0
150955	509617	1	0
6	3d629d16d225:3	5db2da7795e2:22	32b5d65082d6:9	aca11be07422:2	4af259124310:0	6fcd92af54ca:1
150955	509617	2	0
2	aca11be07422:13	4af259124310:0
150955	509617	3	0
16	c9090e8d7a3f:4	465943a20f7f:17	46da7bd4e261:3	7c8cd4b4cf4c:20	f7182cff6816:21	bc43787578a7:3	b02d3a7b51b8:23	c8e8e2b9782c:18	1f60c82d5629:1	c327743ea64b:50	8559551465d2:0	ad271e92a665:14	4d2563f2a6f1:1	10051d843ffb:15	d981cdce09a3:13	5ee7975247f3:29
150955	509617	5	0
3	c327743ea64b:0	d13076aa5736:1	7d3394a9d5a9:3
150955	509617	6	0
5	c327743ea64b:1	8559551465d2:3	d13076aa5736:0	7d3394a9d5a9:5	f9e3344730c7:12
150955	509617	7	0
3	a6b6e3cf36a4:0	7012373d248c:6	d31f25ca302d:12
150955	509617	8	0
5	c327743ea64b:1	8559551465d2:3	d13076aa5736:0	7d3394a9d5a9:5	f9e3344730c7:12
150955	509617	9	0
2	8559551465d2:0	f7d99f0862c4:3
150955	509617	10	0
2	8559551465d2:0	2eb7a2a33473:7
150955	509617	12	0
1	5e345b24de13:0
150955	509617	13	0
3	a6b6e3cf36a4:13	870bdb7ff9c8:0	95da06f756f9:2
150955	509617	14	0
7	a6b6e3cf36a4:0	4d36a0faa1b4:19	bbac3d3dec30:8	2bc794b05dce:1	f2258c95c059:22	4e3f11acd75b:9	8870deb3cd89:11
180712	523066	5	0
1	e8f93be3c8c6:0
180712	523066	6	0
2	4217d329541e:6	e8f93be3c8c6:0
180712	523066	8	0
1	e8f93be3c8c6:0
180712	523066	9	0
1	e8f93be3c8c6:0
180712	523066	10	0
1	e8f93be3c8c6:0
180712	523066	11	0
1	894fe07157c0:0
180712	523066	12	0
1	894fe07157c0:0
180712	523066	13	0
1	e8f93be3c8c6:0
180712	523066	14	0
1	e8f93be3c8c6:0
180712	523066	15	0
2	93737b83cf1e:0	41d873540c22:1
180712	523066	16	0
2	93737b83cf1e:0	e89e396f1de5:1
180712	523066	17	0
4	a5a94b3395d6:2	581677ca1da9:5	e89e396f1de5:0	4f78de51f641:2
180712	523066	18	0
5	6307aa8ff816:0	aed2605512e5:17	2e0dcf5f412d:11	8c7bf23b9f1e:3	4f78de51f641:7
180712	523066	19	0
6	6307aa8ff816:7	aed2605512e5:34	2e0dcf5f412d:1	e8f93be3c8c6:0	8c7bf23b9f1e:20	4f78de51f641:24
180712	523066	20	0
6	644622e0a926:0	20e4670c08e5:6	bd6b2c35cf80:1	cc69d8d6d435:5	e8f93be3c8c6:10	b8ab3f2a1640:2
180712	523066	21	0
6	6307aa8ff816:7	aed2605512e5:34	2e0dcf5f412d:1	e8f93be3c8c6:0	8c7bf23b9f1e:20	4f78de51f641:24
180712	523066	22	0
1	36896b42e8d8:0
180712	523066	23	0
2	16603c975e4a:0	68aa1ab9bed8:7
180712	523066	24	0
2	81b36e9b2544:1	36896b42e8d8:0
180712	523066	25	0
11	ecc86dabcc73:9	93c83d46d8b7:39	6307aa8ff816:22	5be867a1d8a2:40	81927cb796d8:3	133f43f39712:2	e89e396f1de5:0	7904a4a873b7:42	79409187b5a9:1	bcd6d3236deb:25	7b41ec0bc730:29
180712	523066	26	0
5	81b36e9b2544:8	654a2b2bc59b:9	073fc12604b7:10	7b41ec0bc730:0	4f7bdc504f50:15
180712	523066	29	0
4	b1a16d1468e8:0	ba7ca0da2fb3:1	654a2b2bc59b:6	63187e3a759a:22
180712	523066	30	0
4	68aa1ab9bed8:3	654a2b2bc59b:4	a440c5cbbd19:0	279ac679e44d:1
180712	523066	31	0
19	5ab756c2fe76:126	e84b4b9c4e32:6	5d4df555973f:101	d6415e5a4bbf:103	5b4a78cade87:169	3bd528b8e6da:86	3941e68ff26d:28	355e1f63f5f7:13	7c5ab0d66ed8:3	219a0ffbcdf1:1	44d678fbb97d:138	9da102f75bcb:67	ff195c275de6:2	b5ba4cc6b65f:104	dc83f1e94703:63	0f355f91abee:0	834f7dce22ba:27	d93ebab1bd5e:15	e0c1835422e4:9
163048	505866	0	0
19	711aaf7b9fb1:23	13d4ea2e1e24:11	ec7faf4f24b0:8	14198c139d1b:1	9e8233853cc4:13	5c88eb3a6e0b:15	d0319c333791:30	0d89c4273338:29	fef09fd34e1c:27	438de8ee8a53:34	5f81d736a6c5:24	ea96c0412ee2:12	cbb2af304b26:31	b8944f27d752:41	8f221e9db4df:4	41701e6a48c6:29	1c3bf15ee8c9:28	1b4a7852abcb:40	48daf0ed07bb:0
163048	505866	1	0
2	12162b35b254:0	91b847915784:1
163048	505866	2	0
4	444d4d2ad459:1	12162b35b254:0	b5337f74c057:2	423080123a29:1
163048	505866	3	0
5	444d4d2ad459:3	12162b35b254:1	b5337f74c057:4	423080123a29:0	91b847915784:2
163048	505866	4	0
3	a6b6e3cf36a4:0	7012373d248c:6	d31f25ca302d:12
163048	505866	5	0
5	444d4d2ad459:3	12162b35b254:1	b5337f74c057:4	423080123a29:0	91b847915784:2
163048	505866	6	0
1	12162b35b254:0
163048	505866	7	0
1	ac501262f4a1:0
163048	505866	8	0
4	a6b6e3cf36a4:0	7012373d248c:6	f15277be8b1c:15	d31f25ca302d:20
163048	505866	9	0
3	417fbcaf20e4:3	ac501262f4a1:0	7ab00d2ec62b:1
163048	505866	40	0
3	e362b7085285:1	313ca82fe335:0	89cc8dfb1b14:4
180073	520204	1	0
3	8559551465d2:0	c0fcccad02d1:12	4a1642c30e63:1
180073	520204	2	0
2	8559551465d2:0	c0fcccad02d1:1
180073	520204	3	0
2	8559551465d2:1	c0fcccad02d1:0
180073	520204	4	0
2	01c927aaf8b2:2	2b25de3ee40c:0
180073	520204	5	0
6	2cef8857d873:7	332c539581e1:0	8001beb426ce:12	7ab00d2ec62b:3	55358d9f848d:5	abdd15a33101:13
180073	520204	6	0
6	6b08cdf00d00:9	2a1a1fa8a8e5:19	8001beb426ce:2	aec97357ab4d:22	7ab00d2ec62b:0	abdd15a33101:1
180073	520204	7	0
5	6b08cdf00d00:3	55c780004473:4	c8b454bbb942:5	7ab00d2ec62b:1	9e8f9444e0f7:0
180073	520204	8	0
3	417fbcaf20e4:1	7ab00d2ec62b:2	9e8f9444e0f7:0
180073	520204	9	0
4	417fbcaf20e4:12	eee397a7bf7e:0	78e10891a932:11	2b25de3ee40c:1
180073	520204	10	0
6	a43605f9f123:11	8559551465d2:0	ca35534e4f25:8	64701d9ec026:3	13ae5b397c61:4	8184ca645deb:2
180073	520204	11	0
1	8559551465d2:0
180073	520204	12	0
1	8559551465d2:0
180073	520204	13	0
5	622b14c530f6:0	8ee726b771ea:2	7678cdb12f38:1	843687183d39:27	5bafad827a5e:48
180073	520204	14	0
4	4f5bd7469d77:2	acb14eef2d73:1	dfd114b082c8:28	5bafad827a5e:0
180073	520204	47	0
3	e362b7085285:1	313ca82fe335:0	89cc8dfb1b14:4
180073	520204	8	0
3	8559551465d2:0	c0fcccad02d1:12	4a1642c30e63:1
180073	520204	9	0
2	8559551465d2:0	c0fcccad02d1:1
180073	520204	10	0
2	8559551465d2:1	c0fcccad02d1:0
180073	520204	11	0
2	01c927aaf8b2:2	2b25de3ee40c:0
180073	520204	12	0
6	2cef8857d873:7	332c539581e1:0	8001beb426ce:12	7ab00d2ec62b:3	55358d9f848d:5	abdd15a33101:13
180073	520204	13	0
6	6b08cdf00d00:9	2a1a1fa8a8e5:19	8001beb426ce:2	aec97357ab4d:22	7ab00d2ec62b:0	abdd15a33101:1
180073	520204	14	0
5	6b08cdf00d00:3	55c780004473:4	c8b454bbb942:5	7ab00d2ec62b:1	9e8f9444e0f7:0
180073	520204	15	0
3	417fbcaf20e4:1	7ab00d2ec62b:2	9e8f9444e0f7:0
180073	520204	16	0
4	417fbcaf20e4:12	eee397a7bf7e:0	78e10891a932:11	2b25de3ee40c:1
180073	520204	17	0
6	a43605f9f123:11	8559551465d2:0	ca35534e4f25:8	64701d9ec026:3	13ae5b397c61:4	8184ca645deb:2
180073	520204	18	0
1	8559551465d2:0
180073	520204	19	0
1	8559551465d2:0
180073	520204	20	0
5	622b14c530f6:0	8ee726b771ea:2	7678cdb12f38:1	843687183d39:27	5bafad827a5e:48
180073	520204	21	0
4	4f5bd7469d77:2	acb14eef2d73:1	dfd114b082c8:28	5bafad827a5e:0
180073	520204	54	0
3	e362b7085285:1	313ca82fe335:0	89cc8dfb1b14:4
180073	520204	4	0
3	8559551465d2:0	c0fcccad02d1:12	4a1642c30e63:1
180073	520204	5	0
2	8559551465d2:0	c0fcccad02d1:1
180073	520204	6	0
2	8559551465d2:1	c0fcccad02d1:0
180073	520204	7	0
2	01c927aaf8b2:2	2b25de3ee40c:0
180073	520204	8	0
6	2cef8857d873:7	332c539581e1:0	8001beb426ce:12	7ab00d2ec62b:3	55358d9f848d:5	abdd15a33101:13
180073	520204	9	0
6	6b08cdf00d00:9	2a1a1fa8a8e5:19	8001beb426ce:2	aec97357ab4d:22	7ab00d2ec62b:0	abdd15a33101:1
180073	520204	10	0
5	6b08cdf00d00:3	55c780004473:4	c8b454bbb942:5	7ab00d2ec62b:1	9e8f9444e0f7:0
180073	520204	11	0
3	417fbcaf20e4:1	7ab00d2ec62b:2	9e8f9444e0f7:0
180073	520204	12	0
4	417fbcaf20e4:12	eee397a7bf7e:0	78e10891a932:11	2b25de3ee40c:1
180073	520204	13	0
6	a43605f9f123:11	8559551465d2:0	ca35534e4f25:8	64701d9ec026:3	13ae5b397c61:4	8184ca645deb:2
180073	520204	14	0
1	8559551465d2:0
180073	520204	15	0
1	8559551465d2:0
180073	520204	16	0
5	622b14c530f6:0	8ee726b771ea:2	7678cdb12f38:1	843687183d39:27	5bafad827a5e:48
180073	520204	17	0
4	4f5bd7469d77:2	acb14eef2d73:1	dfd114b082c8:28	5bafad827a5e:0
180073	520204	50	0
3	e362b7085285:1	313ca82fe335:0	89cc8dfb1b14:4
182573	513277	1	0
3	c327743ea64b:1	fbffc579e53e:0	d13076aa5736:3
182573	513277	2	0
6	c327743ea64b:1	8559551465d2:3	fbffc579e53e:4	d13076aa5736:0	f9e3344730c7:14	653632d7b1fe:19
182573	513277	3	0
3	a6b6e3cf36a4:0	7012373d248c:6	d31f25ca302d:12
182573	513277	4	0
6	c327743ea64b:1	8559551465d2:3	fbffc579e53e:4	d13076aa5736:0	f9e3344730c7:14	653632d7b1fe:19
182573	513277	5	0
2	7c64607b8faf:0	1da40f3757c4:1
182573	513277	6	0
4	8559551465d2:18	3622bc21acf4:2	ee5cd5612a9e:0	9d87a6a8d9bf:5
182573	513277	7	0
3	a6b6e3cf36a4:13	870bdb7ff9c8:0	95da06f756f9:2
182573	513277	8	0
7	a6b6e3cf36a4:0	4d36a0faa1b4:19	bbac3d3dec30:8	2bc794b05dce:1	f2258c95c059:22	4e3f11acd75b:9	8870deb3cd89:11
182573	513277	10	0
3	c327743ea64b:1	fbffc579e53e:0	d13076aa5736:3
182573	513277	11	0
6	c327743ea64b:1	8559551465d2:3	fbffc579e53e:4	d13076aa5736:0	f9e3344730c7:14	653632d7b1fe:19
182573	513277	12	0
3	a6b6e3cf36a4:0	7012373d248c:6	d31f25ca302d:12
182573	513277	13	0
6	c327743ea64b:1	8559551465d2:3	fbffc579e53e:4	d13076aa5736:0	f9e3344730c7:14	653632d7b1fe:19
182573	513277	14	0
2	7c64607b8faf:0	1da40f3757c4:1
182573	513277	15	0
4	8559551465d2:18	3622bc21acf4:2	ee5cd5612a9e:0	9d87a6a8d9bf:5
182573	513277	16	0
3	a6b6e3cf36a4:13	870bdb7ff9c8:0	95da06f756f9:2
182573	513277	17	0
7	a6b6e3cf36a4:0	4d36a0faa1b4:19	bbac3d3dec30:8	2bc794b05dce:1	f2258c95c059:22	4e3f11acd75b:9	8870deb3cd89:11
182573	513277	5	0
3	c327743ea64b:1	fbffc579e53e:0	d13076aa5736:3
182573	513277	6	0
6	c327743ea64b:1	8559551465d2:3	fbffc579e53e:4	d13076aa5736:0	f9e3344730c7:14	653632d7b1fe:19
182573	513277	7	0
3	a6b6e3cf36a4:0	7012373d248c:6	d31f25ca302d:12
182573	513277	8	0
6	c327743ea64b:1	8559551465d2:3	fbffc579e53e:4	d13076aa5736:0	f9e3344730c7:14	653632d7b1fe:19
182573	513277	9	0
2	7c64607b8faf:0	1da40f3757c4:1
182573	513277	10	0
4	8559551465d2:18	3622bc21acf4:2	ee5cd5612a9e:0	9d87a6a8d9bf:5
182573	513277	11	0
3	a6b6e3cf36a4:13	870bdb7ff9c8:0	95da06f756f9:2
182573	513277	12	0
7	a6b6e3cf36a4:0	4d36a0faa1b4:19	bbac3d3dec30:8	2bc794b05dce:1	f2258c95c059:22	4e3f11acd75b:9	8870deb3cd89:11
177069	504023	10	0
6	c327743ea64b:1	8559551465d2:13	fbffc579e53e:0	d13076aa5736:12	f7182cff6816:10	7d3394a9d5a9:8
177069	504023	11	0
7	c327743ea64b:1	8559551465d2:3	fbffc579e53e:11	d13076aa5736:0	f7182cff6816:23	7d3394a9d5a9:21	653632d7b1fe:38
177069	504023	12	0
3	a6b6e3cf36a4:0	7012373d248c:6	d31f25ca302d:12
177069	504023	13	0
7	c327743ea64b:1	8559551465d2:3	fbffc579e53e:11	d13076aa5736:0	f7182cff6816:23	7d3394a9d5a9:21	653632d7b1fe:38
177069	504023	14	0
1	c327743ea64b:0
177069	504023	15	0
1	34cf1bc19870:0
177069	504023	16	0
3	a6b6e3cf36a4:13	870bdb7ff9c8:0	95da06f756f9:2
177069	504023	17	0
7	a6b6e3cf36a4:0	4d36a0faa1b4:19	bbac3d3dec30:8	2bc794b05dce:1	f2258c95c059:22	4e3f11acd75b:9	8870deb3cd89:11
177069	504023	1	0
6	c327743ea64b:1	8559551465d2:13	fbffc579e53e:0	d13076aa5736:12	f7182cff6816:10	7d3394a9d5a9:8
177069	504023	2	0
7	c327743ea64b:1	8559551465d2:3	fbffc579e53e:11	d13076aa5736:0	f7182cff6816:23	7d3394a9d5a9:21	653632d7b1fe:38
177069	504023	3	0
3	a6b6e3cf36a4:0	7012373d248c:6	d31f25ca302d:12
177069	504023	4	0
7	c327743ea64b:1	8559551465d2:3	fbffc579e53e:11	d13076aa5736:0	f7182cff6816:23	7d3394a9d5a9:21	653632d7b1fe:38
177069	504023	5	0
1	c327743ea64b:0
177069	504023	6	0
1	34cf1bc19870:0
177069	504023	7	0
3	a6b6e3cf36a4:13	870bdb7ff9c8:0	95da06f756f9:2
177069	504023	8	0
7	a6b6e3cf36a4:0	4d36a0faa1b4:19	bbac3d3dec30:8	2bc794b05dce:1	f2258c95c059:22	4e3f11acd75b:9	8870deb3cd89:11
177069	504023	5	0
6	c327743ea64b:1	8559551465d2:13	fbffc579e53e:0	d13076aa5736:12	f7182cff6816:10	7d3394a9d5a9:8
177069	504023	6	0
7	c327743ea64b:1	8559551465d2:3	fbffc579e53e:11	d13076aa5736:0	f7182cff6816:23	7d3394a9d5a9:21	653632d7b1fe:38
177069	504023	7	0
3	a6b6e3cf36a4:0	7012373d248c:6	d31f25ca302d:12
177069	504023	8	0
7	c327743ea64b:1	8559551465d2:3	fbffc579e53e:11	d13076aa5736:0	f7182cff6816:23	7d3394a9d5a9:21	653632d7b1fe:38
177069	504023	9	0
1	c327743ea64b:0
177069	504023	10	0
1	34cf1bc19870:0
177069	504023	11	0
3	a6b6e3cf36a4:13	870bdb7ff9c8:0	95da06f756f9:2
177069	504023	12	0
7	a6b6e3cf36a4:0	4d36a0faa1b4:19	bbac3d3dec30:8	2bc794b05dce:1	f2258c95c059:22	4e3f11acd75b:9	8870deb3cd89:11
177069	506308	4	0
6	c327743ea64b:1	8559551465d2:13	fbffc579e53e:0	d13076aa5736:12	f7182cff6816:10	7d3394a9d5a9:8
177069	506308	5	0
7	c327743ea64b:1	8559551465d2:3	fbffc579e53e:11	d13076aa5736:0	f7182cff6816:23	7d3394a9d5a9:21	653632d7b1fe:38
177069	506308	6	0
3	a6b6e3cf36a4:0	7012373d248c:6	d31f25ca302d:12
177069	506308	7	0
7	c327743ea64b:1	8559551465d2:3	fbffc579e53e:11	d13076aa5736:0	f7182cff6816:23	7d3394a9d5a9:21	653632d7b1fe:38
177069	506308	8	0
1	c327743ea64b:0
177069	506308	9	0
1	34cf1bc19870:0
177069	506308	10	0
3	a6b6e3cf36a4:13	870bdb7ff9c8:0	95da06f756f9:2
177069	506308	11	0
7	a6b6e3cf36a4:0	4d36a0faa1b4:19	bbac3d3dec30:8	2bc794b05dce:1	f2258c95c059:22	4e3f11acd75b:9	8870deb3cd89:11
177069	506511	10	0
6	c327743ea64b:1	8559551465d2:13	fbffc579e53e:0	d13076aa5736:12	f7182cff6816:10	7d3394a9d5a9:8
177069	506511	11	0
7	c327743ea64b:1	8559551465d2:3	fbffc579e53e:11	d13076aa5736:0	f7182cff6816:23	7d3394a9d5a9:21	653632d7b1fe:38
177069	506511	12	0
3	a6b6e3cf36a4:0	7012373d248c:6	d31f25ca302d:12
177069	506511	13	0
7	c327743ea64b:1	8559551465d2:3	fbffc579e53e:11	d13076aa5736:0	f7182cff6816:23	7d3394a9d5a9:21	653632d7b1fe:38
177069	506511	14	0
1	c327743ea64b:0
177069	506511	15	0
5	61cdca0acbba:3	ee5cd5612a9e:5	7c5775a29447:0	d6dda529c4df:2	653632d7b1fe:1
177069	506511	16	0
3	a6b6e3cf36a4:13	870bdb7ff9c8:0	95da06f756f9:2
177069	506511	17	0
7	a6b6e3cf36a4:0	4d36a0faa1b4:19	bbac3d3dec30:8	2bc794b05dce:1	f2258c95c059:22	4e3f11acd75b:9	8870deb3cd89:11
177069	506511	5	0
6	c327743ea64b:1	8559551465d2:13	fbffc579e53e:0	d13076aa5736:12	f7182cff6816:10	7d3394a9d5a9:8
177069	506511	6	0
7	c327743ea64b:1	8559551465d2:3	fbffc579e53e:11	d13076aa5736:0	f7182cff6816:23	7d3394a9d5a9:21	653632d7b1fe:38
177069	506511	7	0
3	a6b6e3cf36a4:0	7012373d248c:6	d31f25ca302d:12
177069	506511	8	0
7	c327743ea64b:1	8559551465d2:3	fbffc579e53e:11	d13076aa5736:0	f7182cff6816:23	7d3394a9d5a9:21	653632d7b1fe:38
177069	506511	9	0
1	c327743ea64b:0
177069	506511	10	0
5	61cdca0acbba:3	ee5cd5612a9e:5	7c5775a29447:0	d6dda529c4df:2	653632d7b1fe:1
177069	506511	11	0
3	a6b6e3cf36a4:13	870bdb7ff9c8:0	95da06f756f9:2
177069	506511	12	0
7	a6b6e3cf36a4:0	4d36a0faa1b4:19	bbac3d3dec30:8	2bc794b05dce:1	f2258c95c059:22	4e3f11acd75b:9	8870deb3cd89:11
177069	506511	1	0
6	c327743ea64b:1	8559551465d2:13	fbffc579e53e:0	d13076aa5736:12	f7182cff6816:10	7d3394a9d5a9:8
177069	506511	2	0
7	c327743ea64b:1	8559551465d2:3	fbffc579e53e:11	d13076aa5736:0	f7182cff6816:23	7d3394a9d5a9:21	653632d7b1fe:38
177069	506511	3	0
3	a6b6e3cf36a4:0	7012373d248c:6	d31f25ca302d:12
177069	506511	4	0
7	c327743ea64b:1	8559551465d2:3	fbffc579e53e:11	d13076aa5736:0	f7182cff6816:23	7d3394a9d5a9:21	653632d7b1fe:38
177069	506511	5	0
1	c327743ea64b:0
177069	506511	6	0
5	61cdca0acbba:3	ee5cd5612a9e:5	7c5775a29447:0	d6dda529c4df:2	653632d7b1fe:1
177069	506511	7	0
3	a6b6e3cf36a4:13	870bdb7ff9c8:0	95da06f756f9:2
177069	506511	8	0
7	a6b6e3cf36a4:0	4d36a0faa1b4:19	bbac3d3dec30:8	2bc794b05dce:1	f2258c95c059:22	4e3f11acd75b:9	8870deb3cd89:11
177715	507007	0	0
4	519150d7d44d:5	dd9a79be3e48:4	253f46eaf676:0	158b6b4ca0fb:3
177715	507007	1	0
3	ef52d5eadad2:0	1afe02fd0e2f:2	dd9a79be3e48:3
177715	507007	2	0
3	dd9a79be3e48:4	1afe02fd0e2f:0	158b6b4ca0fb:1
177715	507007	3	0
1	dd9a79be3e48:0
177715	507007	4	0
2	a6b6e3cf36a4:0	15c64885d4b0:2
177715	507007	5	0
1	51100fc30fdf:0
177715	507007	7	0
6	fa07f7c7f370:7	33776c2214ee:0	de17e20a978c:4	943215654cf2:4	a75df41ce0b6:1	84fdd4925be2:11
177715	507007	8	0
6	33776c2214ee:0	8ac5126dc585:1	89bb91a205f8:12	6fbd0f4d4bc0:29	8d783c7d900c:27	0f7675863d81:3
177715	507007	9	0
2	da95a1b91da7:0	89bb91a205f8:4
177715	507007	10	0
3	da95a1b91da7:0	1801b4eb4bb3:41	301519a63d0a:43
177715	507007	11	0
2	3296fc6624df:0	e109df9be1af:1
177715	507007	12	0
1	e109df9be1af:0
177715	507007	13	0
2	e109df9be1af:14	ebd3b0ceb37a:0
177715	507007	14	0
1	e109df9be1af:0
177715	507007	15	0
5	3296fc6624df:1	9c3328176a7a:11	e109df9be1af:0	c06fe6e89701:8	a452fab284a5:7
177715	507007	16	0
1	89bb91a205f8:0
177715	507007	17	0
2	794e6afd9994:1	1c9438ecee00:0
177715	507007	26	0
3	e362b7085285:1	313ca82fe335:0	89cc8dfb1b14:4
178227	519200	2	0
2	944995cf3646:3	4b361b475588:0
178227	519200	3	0
1	4b361b475588:0
178227	519200	4	0
2	b2982a88f41f:2	4b361b475588:0
178227	519200	5	0
4	157b3680f06d:2	8bf899308b10:1	8434ada9d206:3	4b361b475588:0
178227	519200	6	0
3	157b3680f06d:0	d83f17cfc533:1	f3c31ad3f132:1
178227	519200	7	0
13	157b3680f06d:13	24aa5016f019:24	c6bac0dafb19:2	2196b0b99744:63	f6d25d29fc2b:2	a75f2a45660a:66	5767c4e94002:35	f52771c37c5c:1	dd1d0aec0638:26	36e3d320abde:37	7a1b3683b834:14	d7d94a7af738:24	d83f17cfc533:0
178227	519200	8	0
6	dd1d0aec0638:0	4c2898b78af5:3	24aa5016f019:1	6346862a21a8:7	dc4b9333f202:2	15ff2e7bbfe0:1
178227	519200	9	0
5	a4352177a723:7	b5f286bdebec:1	d45bee7247ab:5	195251261c65:3	dc4b9333f202:0
178227	519200	10	0
2	01c927aaf8b2:2	2b25de3ee40c:0
178227	519200	11	0
6	2cef8857d873:7	332c539581e1:0	8001beb426ce:12	7ab00d2ec62b:3	55358d9f848d:5	abdd15a33101:13
178227	519200	13	0
1	7ab00d2ec62b:0
178227	519200	17	0
1	7ab00d2ec62b:0
178227	519200	18	0
1	7ab00d2ec62b:0
178227	519200	19	0
2	01c927aaf8b2:2	7ab00d2ec62b:0
178227	519200	23	0
1	a6b6e3cf36a4:0
178227	519200	24	0
1	a6b6e3cf36a4:0
178227	519200	25	0
3	38e5ee5223ce:9	a6b6e3cf36a4:0	7012373d248c:4
178227	519200	26	0
2	a6b6e3cf36a4:0	fa6e1c5e2ec9:2
178227	519200	27	0
2	9eca54b3d126:2	9506818a964f:0
178227	519200	28	0
7	c6f3b6a7a339:6	8ccc842a4d51:18	a6b6e3cf36a4:1	dbfceea3e7ee:48	f8f783416d40:45	9eca54b3d126:0	9506818a964f:10
178227	519200	29	0
3	8ccc842a4d51:9	a6b6e3cf36a4:0	9eca54b3d126:8
178227	519200	30	0
3	38e5ee5223ce:8	a6b6e3cf36a4:0	7012373d248c:6
178227	519200	31	0
2	38e5ee5223ce:10	7012373d248c:0
178227	519200	32	0
2	38e5ee5223ce:7	7012373d248c:0
178227	519200	33	0
3	38e5ee5223ce:3	a6b6e3cf36a4:3	7012373d248c:0
178227	519200	34	0
3	8ccc842a4d51:16	a6b6e3cf36a4:0	9eca54b3d126:1
178227	519200	35	0
2	a6b6e3cf36a4:0	10de2eb0ab7f:2
178227	519200	36	0
1	a6b6e3cf36a4:0
178227	519200	37	0
4	8cc54be85825:4	a6b6e3cf36a4:1	f084174cf4ce:0	565be3214153:6
178227	519200	38	0
1	7012373d248c:0
178227	519200	39	0
2	ce650300429b:1	dabaacb8e0c2:0
178227	519200	40	0
3	38e5ee5223ce:10	a6b6e3cf36a4:4	7012373d248c:0
178227	519200	41	0
3	38e5ee5223ce:27	a6b6e3cf36a4:3	7012373d248c:0
178227	519200	42	0
2	a6b6e3cf36a4:1	7012373d248c:0
178227	519200	43	0
1	a6b6e3cf36a4:0
178227	519200	79	0
3	e362b7085285:1	313ca82fe335:0	89cc8dfb1b14:4
180080	520271	0	0
4	f23762fedb10:14	493703d05279:0	94f45bbfb018:19	f7b6c8832a63:13
180080	520271	1	0
3	73fa54fd2d7b:6	071a35429c2c:0	571a5268e1ec:2
180080	520271	2	0
5	0bf225a10fc1:12	8bc8d1cd23df:2	bb5436a892c1:3	03100a8bb339:14	071a35429c2c:0
180080	520271	3	0
6	2011122f1e63:23	8bc8d1cd23df:1	27e8fab2144e:4	bb5436a892c1:2	2ddbcd35497d:0	a704756df2a0:5
180080	520271	4	0
3	a6b6e3cf36a4:13	870bdb7ff9c8:0	95da06f756f9:2
180080	520271	5	0
7	a6b6e3cf36a4:0	4d36a0faa1b4:19	bbac3d3dec30:8	2bc794b05dce:1	f2258c95c059:22	4e3f11acd75b:9	8870deb3cd89:11
179185	512927	0	0
2	8559551465d2:0	daee530a122d:1
179185	512927	1	0
1	daee530a122d:0
179185	512927	2	0
3	d58c9315a741:0	6f4aa52e1944:6	9f2569049188:6
179185	512927	3	0
1	d58c9315a741:0
179185	512927	4	0
2	d58c9315a741:0	160e1727d7c0:1
179185	512927	5	0
5	089c4eae387a:12	d58c9315a741:0	86f8caa14a5f:6	af7860c80102:14	abb1af7936b3:2
179185	512927	6	0
1	86f8caa14a5f:0
179185	512927	7	0
3	a6b6e3cf36a4:13	870bdb7ff9c8:0	95da06f756f9:2
179185	512927	8	0
7	a6b6e3cf36a4:0	4d36a0faa1b4:19	bbac3d3dec30:8	2bc794b05dce:1	f2258c95c059:22	4e3f11acd75b:9	8870deb3cd89:11
176945	505108	3	0
4	9387b72807ce:3	76f9a849d2ad:0	8d0af11c52f9:25	ba9fd7dd4576:2
176945	505108	5	0
2	c9d127d11201:0	ba9fd7dd4576:1
176945	505108	7	0
1	612151d66b5f:0
176945	505108	10	0
4	b9c1b4a35b7e:16	e3fbfb3457cd:0	fa4d2ebdf3fd:4	a5fea4d45065:2
176945	505108	11	0
4	b9c1b4a35b7e:1	e3fbfb3457cd:16	fa4d2ebdf3fd:2	a5fea4d45065:0
176945	505108	12	0
3	a6b6e3cf36a4:0	7012373d248c:6	f15277be8b1c:15
176945	505108	13	0
4	b9c1b4a35b7e:1	e3fbfb3457cd:16	fa4d2ebdf3fd:2	a5fea4d45065:0
176945	505108	14	0
1	f33d1229f546:0
176945	505108	15	0
4	b9c1b4a35b7e:2	e3fbfb3457cd:0	a5fea4d45065:5	91b523d4bac2:2
176945	505108	16	0
5	b9c1b4a35b7e:1	e3fbfb3457cd:2	a5fea4d45065:0	91b523d4bac2:5	e4140940ec33:11
176945	505108	17	0
3	a6b6e3cf36a4:0	7012373d248c:6	f15277be8b1c:15
176945	505108	18	0
5	b9c1b4a35b7e:1	e3fbfb3457cd:2	a5fea4d45065:0	91b523d4bac2:5	e4140940ec33:11
176945	505108	19	0
2	b9c1b4a35b7e:5	e4140940ec33:0
176945	505108	20	0
6	6e0b6eec491d:17	80d50cf18862:0	78cd75aa86db:1	473a4244112c:3	4c8b2e081042:4	eab69c9fb2b5:6
176945	505108	21	0
4	7838e9cd0828:0	78cd75aa86db:1	7fd29de1b59a:1	ea0e788b35c8:2
176945	505108	22	0
1	78cd75aa86db:0
176945	505108	23	0
2	26847aebc78f:0	b4fcae09c311:1
176945	505108	24	0
2	26847aebc78f:1	91b523d4bac2:0
176945	505108	25	0
11	ee9744e6ecf9:118	c1466184ac0c:30	b9c1b4a35b7e:1	8ef29befd159:4	73d33b74fd87:73	26847aebc78f:0	c4005287acdf:4	b91bb5a5841c:19	987075c7de3b:16	e5fa705634a1:95	fafdca3be201:17
176945	505108	26	0
3	0106cbdb699b:2	73d33b74fd87:4	26847aebc78f:0
176945	505108	27	0
2	c5102d32455a:26	4f557c7f2c48:0
176945	505108	28	0
1	4f557c7f2c48:0
176945	505108	29	0
1	8c31110375c5:0
176945	505108	30	0
2	a8bcd0e69be4:0	284f2aed804c:4
176945	505108	31	0
1	8c31110375c5:0
176945	505108	32	0
8	0c30b6632f78:2	ead0217f1e03:14	1f74053488c5:2	e04b56dad3ce:0	313ca82fe335:3	8c31110375c5:13	60d57bf5df89:5	8e0f33f0ae33:3
176945	505108	34	0
12	180776201731:2	0c30b6632f78:34	b7b9418c5943:18	8f492e69aa21:22	11707f6c16f9:24	1f74053488c5:1	25901b86d2de:23	313ca82fe335:0	60d57bf5df89:33	b659692588df:47	2160fbaa2114:3	4bcbfd0e4386:4
176945	505108	35	0
6	180776201731:3	b7b9418c5943:0	464398f5e3f4:5	1f74053488c5:14	e79e3029b1e8:4	a91e68adf9db:9
176945	505108	36	0
3	a6b6e3cf36a4:13	870bdb7ff9c8:0	95da06f756f9:2
176945	505108	37	0
7	a6b6e3cf36a4:0	4d36a0faa1b4:19	bbac3d3dec30:8	2bc794b05dce:1	f2258c95c059:22	4e3f11acd75b:9	8870deb3cd89:11
179633	516707	0	0
1	51c538382270:0
179633	516707	1	0
2	3b386a9222ec:0	f9df73321192:1
179633	516707	2	0
1	14198c139d1b:0
179633	516707	3	0
2	ec7faf4f24b0:10	14198c139d1b:0
179633	516707	4	0
1	14198c139d1b:0
179633	516707	5	0
2	ec7faf4f24b0:1	14198c139d1b:0
179633	516707	6	0
3	f4e39a6af516:3	8f221e9db4df:0	ba0e4eef285b:4
179633	516707	7	0
3	8f221e9db4df:0	f933e943b791:2	77ab0771d6f8:1
179633	516707	8	0
2	8f221e9db4df:0	ba0e4eef285b:1
179633	516707	9	0
2	13d4ea2e1e24:1	f933e943b791:0
179633	516707	10	0
25	b18dd8a577f3:3	bac7bab2a877:24	4ae2da875db0:30	ec7faf4f24b0:38	c65f9bcedd8c:9	91057112a3bc:5	fd89e502ae0d:2	ea96c0412ee2:31	57075ba05b26:51	d6b85a285f87:10	f933e943b791:0	50eb9c498951:36	06e54131a7a3:20	ac8df84bb4a5:37	14198c139d1b:39	75307ed8aeda:10	fef09fd34e1c:46	438de8ee8a53:32	51cd17877049:34	8f221e9db4df:33	e85071f218e4:1	41701e6a48c6:1	77ab0771d6f8:2	bfeb4257325d:14	e7ef71788644:4
179633	516707	11	0
5	b18dd8a577f3:1	57075ba05b26:5	12162b35b254:0	13d4ea2e1e24:2	ac3384bcf231:3
179633	516707	12	0
4	12162b35b254:2	57075ba05b26:1	0387766ff9f4:0	91b847915784:1
179633	516707	13	0
3	f232adafd797:0	12162b35b254:6	7b3329e42c92:5
179633	516707	14	0
1	12162b35b254:0
179633	516707	15	0
1	12162b35b254:0
179633	516707	16	0
5	622b14c530f6:0	8ee726b771ea:2	7678cdb12f38:1	843687183d39:27	5bafad827a5e:48
179633	516707	17	0
4	4f5bd7469d77:2	acb14eef2d73:1	dfd114b082c8:28	5bafad827a5e:0
179633	516707	50	0
3	e362b7085285:1	313ca82fe335:0	89cc8dfb1b14:4
170231	520578	5	0
3	878f861ca7bb:0	a6b6e3cf36a4:2	c1c95a222375:12
170231	520578	7	0
3	a6b6e3cf36a4:0	3ac5c8119d58:9	7b77dac4a82d:3
170231	520578	8	0
2	a6b6e3cf36a4:0	7012373d248c:6
170231	520578	9	0
2	38e5ee5223ce:12	7012373d248c:0
170231	520578	10	0
2	ce650300429b:1	dabaacb8e0c2:0
170231	520578	11	0
2	38e5ee5223ce:9	7012373d248c:0
170231	520578	12	0
3	a6b6e3cf36a4:3	7012373d248c:0	f15277be8b1c:5
170231	520578	13	0
2	a6b6e3cf36a4:2	4780c4ff2851:0
170231	520578	14	0
2	aa3ed9307e49:0	a6b6e3cf36a4:1
170231	520578	33	0
3	e362b7085285:1	313ca82fe335:0	89cc8dfb1b14:4
170231	520578	41	0
2	3f40a1f5c949:1	afa073274618:0
170231	520578	42	0
1	afa073274618:0
170231	520578	43	0
2	a2f859f65852:1	afa073274618:0
170231	520578	45	0
4	38e5ee5223ce:13	a6b6e3cf36a4:0	d31f25ca302d:4	b516dee066b2:12
170231	520578	46	0
3	a6b6e3cf36a4:0	7012373d248c:3	f15277be8b1c:2
170231	520578	47	0
1	afa073274618:0
170231	520578	52	0
7	a99c4ed2fd16:27	ea6076fc3572:4	ed6ebb1f0b3b:0	a2f850ca3673:5	d76a348f57ff:30	906c114f6a37:13	a05271b6a34d:36
170231	520578	53	0
9	a99c4ed2fd16:43	ea6076fc3572:20	ed6ebb1f0b3b:0	a2f850ca3673:8	906c114f6a37:29	d76a348f57ff:46	afa073274618:78	a05271b6a34d:52	2e7f16b1a020:76
170231	520578	54	0
1	906c114f6a37:0
170231	520578	55	0
1	8559551465d2:0
170231	520578	88	0
3	e362b7085285:1	313ca82fe335:0	89cc8dfb1b14:4
178810	508885	0	0
3	d9e9ead25f38:28	8559551465d2:0	227528c6f76c:2
178810	508885	4	0
2	8559551465d2:0	db5695982144:1
178810	508885	6	0
1	8559551465d2:0
178810	508885	7	0
9	9e2dbaeae6dd:6	d3354600ed81:5	8559551465d2:1	1d2c3fca8353:1	f781f1c83214:2	d73f986cfd5c:4	daaac468f78b:13	f8c46025e279:15	30b89717bac5:0
178810	508885	8	0
1	8559551465d2:0
178810	508885	9	0
1	8559551465d2:0
178810	508885	10	0
1	8559551465d2:0
178810	508885	11	0
3	a6b6e3cf36a4:13	870bdb7ff9c8:0	95da06f756f9:2
178810	508885	12	0
7	a6b6e3cf36a4:0	4d36a0faa1b4:19	bbac3d3dec30:8	2bc794b05dce:1	f2258c95c059:22	4e3f11acd75b:9	8870deb3cd89:11
179641	516819	0	0
4	c15708afe584:4	4d14beda8112:0	343ab075f084:1	501d7f1be79f:15
179641	516819	1	0
3	37ae2ae416ae:1	384f68f9a331:9	642fc3b87d69:0
179641	516819	2	0
3	37ae2ae416ae:15	384f68f9a331:5	642fc3b87d69:0
179641	516819	3	0
3	11ad72e8d021:1	f0c413954535:0	c7885ebf562b:6
179641	516819	4	0
7	8c23756b7c1e:18	9953d672b34e:9	f523a1101c52:6	11ad72e8d021:5	f0c413954535:0	c7885ebf562b:16	bb5436a892c1:7
179641	516819	5	0
3	a4775e530f17:0	805e2dbf1d5a:9	9c1a07318794:4
179641	516819	6	0
1	7606620a81fa:0
179641	516819	8	0
1	894fe07157c0:0
179641	516819	9	0
10	f66af0ea18b8:1	219a0ffbcdf1:24	6b47a8a9071b:18	ca9f6a9aad09:7	894fe07157c0:0	ac8b09b99c40:14	63746fdf09ab:29	aeab4ec26a3c:9	9744ec677e72:2	7c5ab0d66ed8:16
179641	516819	10	0
1	894fe07157c0:0
179641	516819	11	0
1	894fe07157c0:0
179641	516819	12	0
1	894fe07157c0:0
179641	516819	13	0
10	f66af0ea18b8:1	219a0ffbcdf1:24	6b47a8a9071b:18	ca9f6a9aad09:7	894fe07157c0:0	ac8b09b99c40:14	63746fdf09ab:29	aeab4ec26a3c:9	9744ec677e72:2	7c5ab0d66ed8:16
179641	516819	14	0
5	e84b4b9c4e32:5	44300fded884:4	ca9f6a9aad09:7	7606620a81fa:0	943d4a809b1b:2
179641	516819	15	0
10	0a5c9092b3c6:7	a4775e530f17:1	bf87780d7374:1	a8fad3442db5:18	526fbc656da7:0	bb5436a892c1:2	8aac0154970d:24	a6ac76024ffb:5	7ba3d6c6a5ba:10	221055136cad:4
179641	516819	16	0
2	9953d672b34e:1	a8fad3442db5:0
179641	516819	17	0
7	8c23756b7c1e:4	9953d672b34e:31	f523a1101c52:28	11ad72e8d021:13	f0c413954535:0	c7885ebf562b:5	bb5436a892c1:3
179641	516819	18	0
3	37ae2ae416ae:15	384f68f9a331:5	642fc3b87d69:0
179641	516819	19	0
3	4d14beda8112:0	343ab075f084:1	642fc3b87d69:4
179641	516819	20	0
8	0c306d2ec85c:14	14edb50d00fc:44	4d14beda8112:0	280214ceb7dc:13	384f68f9a331:7	11a8870b01e2:9	343ab075f084:1	642fc3b87d69:1
179641	516819	21	0
1	642fc3b87d69:0
179641	516819	22	0
3	38a5de30e160:0	a7b857010814:1	372cee66a273:2
179641	516819	23	0
3	a6b6e3cf36a4:13	870bdb7ff9c8:0	95da06f756f9:2
179641	516819	24	0
7	a6b6e3cf36a4:0	4d36a0faa1b4:19	bbac3d3dec30:8	2bc794b05dce:1	f2258c95c059:22	4e3f11acd75b:9	8870deb3cd89:11
