184579	19
a6b6e3cf36a4	644711:4
bbac3d3dec30	644711:10
34cf1bc19870	644711:8
2bc794b05dce	644711:10
f7182cff6816	644711:1
476636b94405	644711:1
4e3f11acd75b	644711:10
8870deb3cd89	644711:10
da5d8af5ec5e	644711:9
c327743ea64b	644711:6
8559551465d2	644711:1
870bdb7ff9c8	644711:9
4d36a0faa1b4	644711:10
7012373d248c	644711:4
7fb5ef1cea79	644711:10
95da06f756f9	644711:9
f2258c95c059	644711:10
f15277be8b1c	644711:4
d31f25ca302d	644711:4
183808	87
7e22a9fd89f9	577896:33
f66af0ea18b8	577896:21
f17473843c6b	577896:8
925c6fe9a8f0	577896:8
38dec86d6046	577896:8
c7a1d495c2d6	577896:31
a8fad3442db5	577896:27
ac8b09b99c40	577896:21
943d4a809b1b	577896:26
0f7a77e57938	577896:37
7ab6472dd4a9	577896:0
2f12a69d0350	577896:12
580220052898	577896:18
82d0fd8fa772	577896:34
2011122f1e63	577896:37
0a5c9092b3c6	577896:27
057a8a65ce0e	577896:30
805e2dbf1d5a	577896:16
f1b99896fb8a	577896:31
11ad72e8d021	577896:14
c81e8715b5c3	577896:8
d033fca81ce7	577896:8
225f159e9860	577896:36
65f365228827	577896:8
67aa6e8fa086	577896:37
8c23756b7c1e	577896:15
3c67af2985d1	577896:18
6123abb716f3	577896:33
c5dd7af990ed	577896:12
6b47a8a9071b	577896:21
f0c413954535	577896:14
5768b6ed4f2c	577896:21
6e19c54c4a06	577896:12
4e3f11acd75b	577896:39
8fb26c2f57c9	577896:0
15e21aaf9c16	577896:18
44300fded884	577896:26
219a0ffbcdf1	577896:18
870bdb7ff9c8	577896:38
67fa86f2ed04	577896:34
f2823978830d	577896:0
1b8a3e40ee3b	577896:30
8aac0154970d	577896:27
7ba3d6c6a5ba	577896:27
5b2f5b265733	577896:17
e84b4b9c4e32	577896:26
a6b6e3cf36a4	577896:38
2bc794b05dce	577896:39
bb5436a892c1	577896:15
aaff1589b3b5	577896:33
aeab4ec26a3c	577896:21
9744ec677e72	577896:21
cee0ef87cf7d	577896:30
8870deb3cd89	577896:39
da5d8af5ec5e	577896:38
46696f0b051c	577896:8
a4775e530f17	577896:16
988ce607c302	577896:30
f523a1101c52	577896:15
a49c0bf29d29	577896:36
95da06f756f9	577896:38
894fe07157c0	577896:20
c7885ebf562b	577896:14
3624d33e24a3	577896:8
9666168f7c60	577896:8
0bf225a10fc1	577896:36
bbac3d3dec30	577896:39
9e8471cd2292	577896:34
4c46d881d7e8	577896:8
9c1a07318794	577896:16
1c89ae2b5294	577896:21
4c6dfd082e65	577896:34
7606620a81fa	577896:26
526fbc656da7	577896:27
09dc12b5d333	577896:18
a6ac76024ffb	577896:27
7c5ab0d66ed8	577896:21
9953d672b34e	577896:15
605859dcad83	577896:18
4d36a0faa1b4	577896:39
ca9f6a9aad09	577896:18
bf87780d7374	577896:27
7fb5ef1cea79	577896:39
0368c8f2510c	577896:33
f2258c95c059	577896:39
63746fdf09ab	577896:21
221055136cad	577896:27
150785	57
aca57a5188cb	558486:1
7806941e4a5b	558486:16
7e0b572d6827	558486:10
13722a58d0f3	558486:4
461391b66c92	558486:25
9d272134d2ec	558486:16
482ea75b5e4c	558486:16
75096cc58f16	558486:0
28ac6c2fe563	558486:13
bb842c35b9b2	558486:2
404e91b4fd8e	558486:4
0e8c2bb0935f	558486:1
4be33cc6a39d	558486:2
32f3e0522438	558486:13
4e3f11acd75b	558486:29
38e5ee5223ce	558486:21
1f70f13bd8f8	558486:27
870bdb7ff9c8	558486:28
80d50cf18862	558486:2
e8cc135aa452	558486:8
2950200d2578	558486:10
493703d05279	558486:0
75d78a90d621	558486:2
a6b6e3cf36a4	558486:12
63540ed8c724	558486:13
21c791bcf703	558486:0
2bc794b05dce	558486:29
f00cb5b08a6b	558486:15
25acba01ff82	558486:15
8870deb3cd89	558486:29
b84be1c4fb63	558486:8
9e319c1450ee	558486:10
a8e67ec3eec0	558486:12
da5d8af5ec5e	558486:28
a5ae494d2f87	558486:10
d0bc44447e65	558486:12
95da06f756f9	558486:28
0da6f771bfa5	558486:13
bbac3d3dec30	558486:29
ec46851dbf86	558486:27
34769b9e45f9	558486:13
250e7f9c03fb	558486:2
2c9472137fd4	558486:15
f7e9a6739560	558486:25
02537e8972a3	558486:2
6a4c8c42118d	558486:15
0053a2c402fe	558486:4
8559551465d2	558486:8
4d36a0faa1b4	558486:29
7012373d248c	558486:19
456e9caacb50	558486:16
7fb5ef1cea79	558486:29
ce650300429b	558486:20
f2258c95c059	558486:29
c69dce88c617	558486:13
dc7a82dd70ec	558486:15
dabaacb8e0c2	558486:20
184581	52
f66af0ea18b8	557374:8
cf195b61ff94	557374:17
a8fad3442db5	557374:14
ac8b09b99c40	557374:8
943d4a809b1b	557374:13
2011122f1e63	557374:17
0a5c9092b3c6	557374:14
805e2dbf1d5a	557374:3
fea0c60f1cf3	557374:1
6086ddd6a81b	557374:17
6b47a8a9071b	557374:8
5768b6ed4f2c	557374:8
4e3f11acd75b	557374:19
44300fded884	557374:13
219a0ffbcdf1	557374:8
870bdb7ff9c8	557374:18
8aac0154970d	557374:14
7ba3d6c6a5ba	557374:14
2ddbcd35497d	557374:17
f2a0a4315195	557374:17
5b2f5b265733	557374:4
e84b4b9c4e32	557374:13
a6b6e3cf36a4	557374:18
2bc794b05dce	557374:19
bb5436a892c1	557374:14
b98caee688c0	557374:2
aeab4ec26a3c	557374:8
9744ec677e72	557374:8
8870deb3cd89	557374:19
da5d8af5ec5e	557374:18
a4775e530f17	557374:3
95da06f756f9	557374:18
894fe07157c0	557374:7
8d590d6084b3	557374:2
bbac3d3dec30	557374:19
9c1a07318794	557374:3
7d7d8997d114	557374:1
1c89ae2b5294	557374:8
7606620a81fa	557374:5
526fbc656da7	557374:14
3a38b10866cc	557374:17
a6ac76024ffb	557374:14
7c5ab0d66ed8	557374:8
9953d672b34e	557374:15
4d36a0faa1b4	557374:19
ca9f6a9aad09	557374:8
bf87780d7374	557374:14
7fb5ef1cea79	557374:19
c0014dbb11c4	557374:17
f2258c95c059	557374:19
63746fdf09ab	557374:8
221055136cad	557374:14
183051	64
92eb61725564	562384:15
bfc92305b19c	562384:2
abafffb7abb6	562384:15
05bbc6538b65	562384:16
60d57bf5df89	562384:14
d04338435dfc	562384:0
a01817c3bcf1	562384:1
d3c10b87b374	562384:6
c06f19d020e6	562384:6
ead0217f1e03	562384:14
cd1c20933a2c	562384:16
0085a5c5f382	562384:16
d31f25ca302d	562384:9
1a2675ebc8be	562384:16
efe0d828766c	562384:16
2f9556adf482	562384:15
ebfe0a15cf37	562384:14
59539dbe627a	562384:16
c8023491c14a	562384:1
8e0f33f0ae33	562384:14
2160fbaa2114	562384:15
4e3f11acd75b	562384:20
180776201731	562384:16
870bdb7ff9c8	562384:19
334514863909	562384:15
efad8bd05876	562384:16
07de5a904de1	562384:16
acef0e51c611	562384:16
bc09d5a2d071	562384:16
a1e1ee18d049	562384:12
a6b6e3cf36a4	562384:9
e04b56dad3ce	562384:14
49521873de65	562384:10
2bc794b05dce	562384:20
647ad6056049	562384:1
7a6fa0f8e860	562384:16
8870deb3cd89	562384:20
da5d8af5ec5e	562384:19
a8bcd0e69be4	562384:12
abbb05b3369e	562384:3
a50cdaf71385	562384:15
e79e3029b1e8	562384:15
bc857e7522a0	562384:16
95da06f756f9	562384:19
57637df59335	562384:15
f15277be8b1c	562384:9
e2e4200ae253	562384:10
ed7e9cb68f1a	562384:5
1f74053488c5	562384:14
bbac3d3dec30	562384:20
313ca82fe335	562384:14
949724cb4301	562384:16
aefe9553c236	562384:6
d8724ee94f7c	562384:4
0c30b6632f78	562384:14
fc4a7af7418c	562384:6
4d36a0faa1b4	562384:20
7012373d248c	562384:9
324ace413314	562384:15
7fb5ef1cea79	562384:20
7916675c7ab2	562384:5
8c31110375c5	562384:11
f2258c95c059	562384:20
a436501eca32	562384:16
181899	43
a6b6e3cf36a4	559515:7	587340:8
b7b06b68b467	559515:5	587340:5
2bc794b05dce	559515:8
2724c39b5c2d	559515:7
d286c52c9e19	559515:7
f4480ab5bd5a	559515:7
0d0f2cff6ee4	559515:7
8870deb3cd89	559515:8
dd1ca6fb0374	587340:7
5258d82e59f6	559515:4
e1e6dbb60405	559515:7
da5d8af5ec5e	559515:7
241f4b226d13	559515:4
f67ba75f8e90	559515:7
95da06f756f9	559515:7
70f5b3ebcae3	559515:4
342c8dc0fb10	559515:7
96c9b0397978	587340:7
89cc8dfb1b14	587340:21
0e1dbde05ef1	559515:0	587340:0
222116f05050	559515:7
e362b7085285	587340:21
bf61162aa6d3	559515:4
a0dd506e5684	559515:6	587340:6
b18dcbf17740	559515:3	587340:3
bbac3d3dec30	559515:8
313ca82fe335	587340:21
541e026eab6a	559515:7
0ba3a2a6c3c3	587340:8
4e3f11acd75b	559515:8
9ebacdc7ab3f	559515:6	587340:6
adbfad55ed2e	559515:7
4017ce92980a	559515:7
870bdb7ff9c8	559515:7
4d36a0faa1b4	559515:8
48fa69be2cf7	587340:8
da9ae5b7a4e9	559515:5	587340:5
afb30d8941c1	559515:4
58aba1254249	559515:4
7fb5ef1cea79	559515:8
bb849ace4dc2	559515:7
f2258c95c059	559515:8
f0038a3df933	559515:7
185608	51
1e631be686a4	564153:5
18c67f102f36	564153:13
4dd4a82959b2	564153:2
a6413f2b1606	564153:2
57c4d29d5b13	564153:3
bffe51f90c52	564153:1
85a3e43952a0	564153:5
0da9e77846b8	564153:10
3915a9571923	564153:13
b8c63a046f4e	564153:10
efbeea4eae74	564153:7
4e3f11acd75b	564153:15
870bdb7ff9c8	564153:14
493703d05279	564153:6
54cd94b1ad3e	564153:3
2cf8af195faf	564153:5
4d8a4a572925	564153:5
a6b6e3cf36a4	564153:0
a63df0cc43aa	564153:2
2bc794b05dce	564153:15
b3dcb286377d	564153:7
8870deb3cd89	564153:13
bb276c9cffeb	564153:5
da5d8af5ec5e	564153:14
d0bc44447e65	564153:5
26b76d6dd17e	564153:10
4947ac1efe26	564153:0
4eb20f0e3a98	564153:5
032c630a740d	564153:5
95da06f756f9	564153:14
27001c91d56a	564153:2
1b71dee63500	564153:7
e482f2c5d40e	564153:13
9269a071cc27	564153:1
9beb46ebbe50	564153:1
fa691fec980b	564153:5
b4085d2e2003	564153:10
bbac3d3dec30	564153:15
3a9c53f3d00c	564153:4
9909a2f2e55d	564153:1
a9866c4533cd	564153:1
1a6494276897	564153:1
39aa41b4804d	564153:0
b8daf74e121a	564153:9
4d36a0faa1b4	564153:15
6b904670d0c2	564153:5
262f99e8fc54	564153:2
7fb5ef1cea79	564153:15
f2258c95c059	564153:15
c25e87f5bbbc	564153:0
c31b1a730e25	564153:13
190604	62
632200769be0	559885:7
ffee9e8ec7aa	559885:7
aa65a7eec3d1	559885:0
b23cb396394e	559885:1
c7cc8060994c	559885:1
c158f020bdcc	559885:8
ecf4de06fa4a	559885:10
d34039eb63c4	559885:10
38e92efa42e8	559885:0
9af065c33f01	559885:1
0634897c24a0	559885:4
ed567ee31586	559885:8
77d416723829	559885:1
81ca0404f948	559885:10
efd7db4d1952	559885:0
544dfabf06f6	559885:1
2331c61a4711	559885:4
ae99f50d4ca6	559885:3
8cf91fc3daef	559885:7
4e3f11acd75b	559885:15
870bdb7ff9c8	559885:14
7982ce273e65	559885:1
bbc033cb2f59	559885:8
75396df19965	559885:7
844f4b4a98d0	559885:1
fcc67ef6a9e7	559885:7
6bd4ad064b67	559885:5
a6b6e3cf36a4	559885:14
d427a392e266	559885:1
5365f819f133	559885:1
2bc794b05dce	559885:15
1e673a7d44de	559885:8
650aba95109b	559885:10
568b633f82b7	559885:1
d5cf289f9e98	559885:11
8870deb3cd89	559885:15
da5d8af5ec5e	559885:14
a3dead8c1dae	559885:1
d745f9e69376	559885:1
8c8d75f8f87a	559885:13
95da06f756f9	559885:14
8da0e11209da	559885:1
d934251f0a1e	559885:1
bbac3d3dec30	559885:15
797a8d623afb	559885:7
e821c80466f3	559885:6
736230f314d6	559885:1
96c97f4383ba	559885:8
483649c03df2	559885:1
896cfeff65a7	559885:7
e19b74a608dc	559885:7
f9be6c21ce86	559885:3
4d9dae33789c	559885:1
fa5f8d5873d8	559885:4
102d908c58a7	559885:7
4d36a0faa1b4	559885:15
c22a35f7b7a4	559885:8
da689672f3e6	559885:12
7fb5ef1cea79	559885:15
d5ee5a48f197	559885:3
f2258c95c059	559885:15
f79a11deb86f	559885:1
185810	92
139f75ec7e19	611929:42	565559:7
f66af0ea18b8	611929:70	565559:27
e73242a9f5c3	611929:0	565559:0
71a0876945c1	611929:42	565559:7
c7a1d495c2d6	611929:80	565559:37
a8fad3442db5	611929:76	565559:33
ac8b09b99c40	611929:70	565559:27
943d4a809b1b	611929:75	565559:32
d599b8494329	611929:0	565559:0
0f7a77e57938	611929:86	565559:43
2f12a69d0350	611929:61	565559:18
580220052898	611929:67	565559:24
82d0fd8fa772	611929:83	565559:40
de54cf4ff2bc	611929:0	565559:0
2011122f1e63	611929:86	565559:43
0a5c9092b3c6	611929:76	565559:33
057a8a65ce0e	611929:79	565559:36
805e2dbf1d5a	611929:65	565559:22
f1b99896fb8a	611929:80	565559:37
a126071ee22f	611929:50	565559:7
b1a591367815	611929:50	565559:7
11ad72e8d021	611929:63	565559:20
225f159e9860	611929:85	565559:42
67aa6e8fa086	611929:86	565559:43
8c23756b7c1e	611929:64	565559:21
3c67af2985d1	611929:67	565559:24
323cf8a2d6f7	611929:50	565559:7
c5dd7af990ed	611929:61	565559:18
6b47a8a9071b	611929:70	565559:27
997aa5dbac7c	611929:50	565559:7
f0c413954535	611929:63	565559:20
5768b6ed4f2c	611929:70	565559:27
6e19c54c4a06	611929:61	565559:18
4e3f11acd75b	611929:88	565559:45
15e21aaf9c16	611929:67	565559:24
44300fded884	611929:75	565559:32
219a0ffbcdf1	611929:67	565559:24
870bdb7ff9c8	611929:87	565559:44
67fa86f2ed04	611929:83	565559:40
a540df4bb3e3	611929:0	565559:0
1b8a3e40ee3b	611929:79	565559:36
8aac0154970d	611929:76	565559:33
7ba3d6c6a5ba	611929:76	565559:33
a8a66403ea84	611929:0	565559:0
5b2f5b265733	611929:66	565559:23
31107994ad38	611929:50	565559:7
e84b4b9c4e32	611929:75	565559:32
a6b6e3cf36a4	611929:87	565559:44
2bc794b05dce	611929:88	565559:45
bb5436a892c1	611929:64	565559:21
21f41771cec6	611929:0	565559:0
aeab4ec26a3c	611929:70	565559:27
9744ec677e72	611929:70	565559:27
cee0ef87cf7d	611929:79	565559:36
8870deb3cd89	611929:88	565559:45
7a1032fcfb8a	611929:0	565559:0
cfd51c289e8b	611929:0	565559:0
da5d8af5ec5e	611929:87	565559:44
824d0eeb1da5	611929:50	565559:7
a4775e530f17	611929:65	565559:22
988ce607c302	611929:79	565559:36
f523a1101c52	611929:64	565559:21
a49c0bf29d29	611929:85	565559:42
95da06f756f9	611929:87	565559:44
894fe07157c0	611929:69	565559:26
c7885ebf562b	611929:63	565559:20
0bf225a10fc1	611929:85	565559:42
bbac3d3dec30	611929:88	565559:45
40986e32a690	611929:0	565559:0
9e8471cd2292	611929:83	565559:40
9c1a07318794	611929:65	565559:22
7d7d8997d114	611929:82	565559:39
1c89ae2b5294	611929:70	565559:27
4c6dfd082e65	611929:83	565559:40
1510c7555236	611929:50	565559:7
7606620a81fa	611929:75	565559:32
526fbc656da7	611929:76	565559:33
09dc12b5d333	611929:67	565559:24
7dc764968004	611929:50	565559:7
a6ac76024ffb	611929:76	565559:33
1071043fa3fc	611929:0	565559:0
7c5ab0d66ed8	611929:70	565559:27
9953d672b34e	611929:64	565559:21
605859dcad83	611929:67	565559:24
4d36a0faa1b4	611929:88	565559:45
ca9f6a9aad09	611929:67	565559:24
bf87780d7374	611929:76	565559:33
7fb5ef1cea79	611929:88	565559:45
f2258c95c059	611929:88	565559:45
55bd6e2bfbf8	611929:0	565559:0
63746fdf09ab	611929:70	565559:27
221055136cad	611929:76	565559:33
181520	81
1e631be686a4	561363:8
630b9a985435	561363:4
b88330c46dcd	561363:6
0f7f11ad9398	561363:4
1c9c2ac5b164	561363:6
1d72052042a9	561363:4
18c67f102f36	561363:16
23ac1ac5ac55	561363:6
a529d89606ff	561363:4
8df2095772c6	561363:6
f8f5038d91bf	561363:6
49c6987af861	561363:6
f50859b65b87	561363:6
38e92efa42e8	561363:4
dc310080176d	561363:6
22d8177b1e72	561363:6
85a3e43952a0	561363:8
f73433af6442	561363:6
0da9e77846b8	561363:13
d31f25ca302d	561363:2
3915a9571923	561363:16
efd7db4d1952	561363:0
eebcb92a89d7	561363:6
38c03180ea7d	561363:6
a7474aff2b1c	561363:6
b8c63a046f4e	561363:13
efbeea4eae74	561363:10
4e3f11acd75b	561363:18
17febb0e2749	561363:6
891462a09796	561363:6
870bdb7ff9c8	561363:17
ec60ce268777	561363:4
e7b3009367b6	561363:6
493703d05279	561363:9
3b377451f59d	561363:6
5b750ed706e8	561363:6
2cf8af195faf	561363:8
06a9890e5333	561363:6
4d8a4a572925	561363:8
a6a32867d70c	561363:6
a6b6e3cf36a4	561363:2
2bc794b05dce	561363:18
1ab2f887bd89	561363:6
7f2443119440	561363:0
b3dcb286377d	561363:10
c4b6ec43ff12	561363:6
8870deb3cd89	561363:16
bb276c9cffeb	561363:8
da5d8af5ec5e	561363:17
5ac82298eb75	561363:6
618e02e196df	561363:4
18fc6ebf3771	561363:6
d745f9e69376	561363:6
d0bc44447e65	561363:8
26b76d6dd17e	561363:13
4eb20f0e3a98	561363:8
fbb66f298d9a	561363:4
032c630a740d	561363:8
95da06f756f9	561363:17
8fd911c45edd	561363:6
8a2dbcbc4a63	561363:6
1b71dee63500	561363:10
e482f2c5d40e	561363:16
fa691fec980b	561363:8
b4085d2e2003	561363:13
bbac3d3dec30	561363:18
7241874fedb7	561363:6
aec76b6c4b0c	561363:7
b8daf74e121a	561363:12
e27e29d147e9	561363:6
64f1acc6bb2c	561363:7
4d36a0faa1b4	561363:18
9cd1db31f9a7	561363:6
12cae21ae132	561363:1
7012373d248c	561363:2
6b904670d0c2	561363:8
7fb5ef1cea79	561363:18
f2258c95c059	561363:18
580c729f1db3	561363:6
98eed37e3c2a	561363:6
c31b1a730e25	561363:16
184272	98
ce84e343c2b9	555497:12
5ab756c2fe76	555497:17
68aa1ab9bed8	555497:11
0b3c165f627e	555497:8
3bd528b8e6da	555497:17
dc7c438c0a96	555497:10
8c7bf23b9f1e	555497:12
355e1f63f5f7	555497:17
672e33693439	555497:12
fcd9e70bc63d	555497:12
44d678fbb97d	555497:17
39d8b343b9a9	555497:1
492eaf9098ca	555497:12
3ff6a751daeb	555497:12
84c0b0fe9d02	555497:7
9e4eeb2a39ec	555497:11
f29c936b9a17	555497:13
8cc7ccfcb942	555497:11
aa6fa309e0d3	555497:3
aed2605512e5	555497:12
28602c8a4b98	555497:12
b13335c86f36	555497:9
654a2b2bc59b	555497:11
69e07ff64fbd	555497:11
448d2099dc70	555497:7
11c29f6d84d7	555497:8
81b36e9b2544	555497:11
19a30ae735ea	555497:7
fe24cebec2fe	555497:12
ff195c275de6	555497:17
74fa02de5064	555497:0
6baaa91ff6f9	555497:10
073fc12604b7	555497:11
4f7bdc504f50	555497:11
e84b4b9c4e32	555497:17
5d4df555973f	555497:17
4b45cc09b774	555497:8
86a484a9a0cf	555497:12
fc9a0aeeae9f	555497:14
e92242fbb0cd	555497:12
465c92cb643c	555497:12
26d2a0f4d858	555497:11
0967bcf54ecf	555497:7
cd88edd941d4	555497:12
96f866ca79c4	555497:1
9600fa4ed20b	555497:12
2728c916dd81	555497:12
b344fd50d3a6	555497:11
c531f935e5d0	555497:3
cf04f68bdb8c	555497:7
126f763ff741	555497:8
d59a1df3507f	555497:7
d373566533a5	555497:3
05c1ac38a4a6	555497:6
279ac679e44d	555497:15
8559551465d2	555497:0
4696568536f4	555497:12
73fe42cec6fb	555497:2
a722ce587bfe	555497:16
fd8a0e6adeac	555497:10
91150cff1620	555497:12
c4f700f91f57	555497:12
2901c57213c1	555497:12
938ab87408c3	555497:6
26963a038d11	555497:11
834f7dce22ba	555497:17
e0c1835422e4	555497:17
d6415e5a4bbf	555497:17
5b4a78cade87	555497:17
3941e68ff26d	555497:17
b203bce68aee	555497:12
b1a16d1468e8	555497:14
219a0ffbcdf1	555497:17
3a58f853fb6d	555497:12
d93ebab1bd5e	555497:17
c37588a33bc0	555497:12
7b41ec0bc730	555497:9
cbd63cdc6e05	555497:10
5b2f5b265733	555497:16
528bfdd0e033	555497:0
9317379e8b5f	555497:11
9da102f75bcb	555497:17
b5ba4cc6b65f	555497:17
dc83f1e94703	555497:17
e8f93be3c8c6	555497:8
63187e3a759a	555497:14
665e5c3051c4	555497:3
3018afabdb9e	555497:12
27121224de29	555497:10
8a03f7d1ffa9	555497:1
7699c41aeffb	555497:12
79ae5e093b60	555497:10
8bc60afeb8e7	555497:11
a440c5cbbd19	555497:11
7c5ab0d66ed8	555497:17
944d18407310	555497:9
0a74a5df748e	555497:8
90e5b1f95acd	555497:1
184788	65
5ab756c2fe76	558654:12
ee9744e6ecf9	558654:2
bc2e814493f0	558654:8
c1466184ac0c	558654:2
066e38fde362	558654:7
3bd528b8e6da	558654:12
c3b14c00ac13	558654:4
1159e77fbd11	558654:7
355e1f63f5f7	558654:12
fafdca3be201	558654:2
92547139a8ae	558654:7
d1171e687187	558654:8
212a21c6eb2e	558654:11
ae4dd114186f	558654:8
44d678fbb97d	558654:12
6883f090400d	558654:7
834f7dce22ba	558654:12
e12cdf153f7a	558654:7
e0c1835422e4	558654:11
aed4cdeec86f	558654:9
a52559485c17	558654:7
a4d8f21e6731	558654:7
d6415e5a4bbf	558654:12
5b4a78cade87	558654:12
b91bb5a5841c	558654:2
3941e68ff26d	558654:11
219a0ffbcdf1	558654:12
ff195c275de6	558654:12
26847aebc78f	558654:2
54f02ea642a2	558654:7
345def86187c	558654:11
d93ebab1bd5e	558654:12
5b2f5b265733	558654:10
e84b4b9c4e32	558654:12
5d4df555973f	558654:12
21e1b916a4e7	558654:8
bb5436a892c1	558654:5
e9db5fb1fd21	558654:5
9da102f75bcb	558654:12
7620cf8ef36f	558654:4
b5ba4cc6b65f	558654:12
dc83f1e94703	558654:12
e5fa705634a1	558654:2
7a3ef736a43b	558654:8
6118e902327b	558654:11
d984c2c1a9aa	558654:7
73d33b74fd87	558654:2
0953ef594e72	558654:7
c4005287acdf	558654:2
e1d0affb7e4c	558654:8
14e965a42294	558654:11
7c5ab0d66ed8	558654:12
ff29dda08558	558654:8
077ef215e7e9	558654:8
b9c1b4a35b7e	558654:2
8ef29befd159	558654:0
a4847abc9bd8	558654:4
fb7d5a208637	558654:8
a722ce587bfe	558654:12
8c31110375c5	558654:4
0f355f91abee	558654:9
987075c7de3b	558654:2
7b680a4f4542	558654:8
63469068fcd5	558654:7
e4c589c3b55b	558654:3
184596	80
139f75ec7e19	557475:109
4fbebefc4621	557475:37
f66af0ea18b8	557475:118
a8fad3442db5	557475:124
ac8b09b99c40	557475:118
943d4a809b1b	557475:123
0f7a77e57938	557475:150
580220052898	557475:115
2f12a69d0350	557475:127
82d0fd8fa772	557475:147
ee7a6423b13b	557475:109
2011122f1e63	557475:150
0a5c9092b3c6	557475:124
057a8a65ce0e	557475:127
805e2dbf1d5a	557475:113
f1b99896fb8a	557475:130
11ad72e8d021	557475:111
225f159e9860	557475:149
67aa6e8fa086	557475:150
b9246aebc257	557475:109
8c23756b7c1e	557475:112
135e539202d2	557475:0
3c67af2985d1	557475:115
34edd0682d38	557475:131
6b47a8a9071b	557475:118
f0c413954535	557475:111
5768b6ed4f2c	557475:118
4e3f11acd75b	557475:152
6e19c54c4a06	557475:109
15e21aaf9c16	557475:115
44300fded884	557475:123
219a0ffbcdf1	557475:115
870bdb7ff9c8	557475:151
67fa86f2ed04	557475:147
1b8a3e40ee3b	557475:127
7ba3d6c6a5ba	557475:124
8aac0154970d	557475:124
5b2f5b265733	557475:114
e84b4b9c4e32	557475:123
a6b6e3cf36a4	557475:151
2bc794b05dce	557475:152
bb5436a892c1	557475:112
aeab4ec26a3c	557475:118
9744ec677e72	557475:118
cee0ef87cf7d	557475:127
8870deb3cd89	557475:152
da5d8af5ec5e	557475:151
a4775e530f17	557475:113
988ce607c302	557475:127
f523a1101c52	557475:112
a49c0bf29d29	557475:149
95da06f756f9	557475:151
894fe07157c0	557475:117
9cde05265d9e	557475:130
c7885ebf562b	557475:111
df4827c46a80	557475:58
bdcae2990937	557475:58
0bf225a10fc1	557475:149
bbac3d3dec30	557475:152
9e8471cd2292	557475:147
9c1a07318794	557475:113
1c89ae2b5294	557475:118
4c6dfd082e65	557475:147
7606620a81fa	557475:123
526fbc656da7	557475:124
09dc12b5d333	557475:115
a6ac76024ffb	557475:124
7c5ab0d66ed8	557475:118
605859dcad83	557475:115
9953d672b34e	557475:112
4d36a0faa1b4	557475:152
bf87780d7374	557475:124
7fb5ef1cea79	557475:152
ca9f6a9aad09	557475:115
f2258c95c059	557475:152
c6482cfb6089	557475:6
dcf14c61e432	557475:59
63746fdf09ab	557475:118
193c5ac09a81	557475:130
221055136cad	557475:124
184276	37
1e631be686a4	564613:2
2cf8af195faf	564613:2
54cd94b1ad3e	564613:1
4d8a4a572925	564613:2
a6b6e3cf36a4	564613:7
2bc794b05dce	564613:12
18c67f102f36	564613:10
b3dcb286377d	564613:4
8870deb3cd89	564613:10
bb276c9cffeb	564613:2
da5d8af5ec5e	564613:11
d0bc44447e65	564613:2
26b76d6dd17e	564613:7
4eb20f0e3a98	564613:2
032c630a740d	564613:2
95da06f756f9	564613:11
57c4d29d5b13	564613:1
85a3e43952a0	564613:2
0da9e77846b8	564613:7
e482f2c5d40e	564613:10
1b71dee63500	564613:4
3915a9571923	564613:10
fa691fec980b	564613:2
b4085d2e2003	564613:7
bbac3d3dec30	564613:12
3a9c53f3d00c	564613:0
b8c63a046f4e	564613:7
efbeea4eae74	564613:4
4e3f11acd75b	564613:12
b8daf74e121a	564613:6
870bdb7ff9c8	564613:11
4d36a0faa1b4	564613:12
6b904670d0c2	564613:2
7fb5ef1cea79	564613:12
493703d05279	564613:3
f2258c95c059	564613:12
c31b1a730e25	564613:10
175322	39
a2f859f65852	579363:83
417fbcaf20e4	579363:41
ca35534e4f25	579363:92
a6b6e3cf36a4	579363:11
3f40a1f5c949	579363:81
8ee726b771ea	579363:95
acb14eef2d73	579363:96
74877d4e1c6f	579363:6
dfd114b082c8	579363:96
b516dee066b2	579363:85
622b14c530f6	579363:95
cc5cb7204210	579363:6
544ed09870b0	579363:15
7ab00d2ec62b	579363:41
afa073274618	579363:81
843687183d39	579363:95
d010676c0380	579363:19
f15277be8b1c	579363:86
89cc8dfb1b14	579363:28
d31f25ca302d	579363:85
e362b7085285	579363:28
d8c49dd383ec	579363:10
a43605f9f123	579363:92
cd2ccb351024	579363:92
5d3509cbd634	579363:10
313ca82fe335	579363:28
4f5bd7469d77	579363:96
ac501262f4a1	579363:41
13ae5b397c61	579363:92
8bc4b51b13ee	579363:15
38e5ee5223ce	579363:85
8559551465d2	579363:3
64701d9ec026	579363:92
c371edaef3bc	579363:16
7012373d248c	579363:86
7678cdb12f38	579363:95
8184ca645deb	579363:19
fa73b32c4215	579363:6
5bafad827a5e	579363:95
199833	37
1ce73a3e0f7a	666590:2
5a670b0f2b2e	666590:3
a6b6e3cf36a4	666590:7
2f814986f88f	666590:2
2bc794b05dce	666590:8
d64838532f1c	666590:1
e8101a35039e	666590:4
6ec09f2c249c	666590:4
8870deb3cd89	666590:8
31bfcc7ff995	666590:4
da5d8af5ec5e	666590:7
d745f9e69376	666590:3
38e92efa42e8	666590:0
8d00a237a61b	666590:4
95da06f756f9	666590:7
aab3f637f4e6	666590:4
05ba7c3b6896	666590:4
232c593672db	666590:4
a6129bd42904	666590:2
09f00d0fe453	666590:4
bbac3d3dec30	666590:8
5dc2afdfafc4	666590:1
6e77d6d2812d	666590:4
a52a7451d495	666590:4
4e3f11acd75b	666590:8
4111246bfe25	666590:2
13f5b932f8ef	666590:4
34effc7f2228	666590:3
4d9dae33789c	666590:3
fa5f8d5873d8	666590:4
4ae76425cd8a	666590:3
870bdb7ff9c8	666590:7
4d36a0faa1b4	666590:8
7fb5ef1cea79	666590:8
f2258c95c059	666590:8
093c8ec024a9	666590:4
7160991507d8	666590:4
192478	91
1e631be686a4	562156:42	558983:45	562288:44
4bcceb38adf6	562156:18	558983:19	562288:19
b294bac27cbb	562156:36	558983:38	562288:38
44a4cf43ec91	562156:26	558983:28	562288:28
c7ff33bc5913	562156:41	558983:43	562288:43
f485e04961fe	562156:40	558983:42	562288:42
c287e495f29f	562156:22	558983:24	562288:24
be1f70b531e4	562156:27	558983:29	562288:29
18c67f102f36	562156:50	558983:53	562288:52
622a772c8f47	562156:4	558983:4	562288:4
57157b6e2100	562156:4	558983:4	562288:4
ba502b52fbfd	562156:0	558983:0	562288:0
e6b3c494955b	562156:12	558983:12	562288:12
5cf2b9c71921	562156:0	558983:0	562288:0
77d364292802	562156:22	558983:24	562288:24
85a3e43952a0	562156:42	558983:45	562288:44
0da9e77846b8	562156:47	558983:50	562288:49
d31f25ca302d	562156:3	558983:3	562288:3
0447c06db236	562156:40	558983:42	562288:42
3915a9571923	562156:50	558983:53	562288:52
178fa6c7734d	562156:22	558983:24	562288:24
a4f1b8f9b5a3	562156:4	558983:4	562288:4
9bf9ea30f520	562156:6	558983:6	562288:6
8ed8451a1ce5	562156:17	558983:18	562288:18
69a54bef1d54	562156:4	558983:4	562288:4
b8c63a046f4e	562156:47	558983:50	562288:49
e1dc9716e5c3	562156:5	558983:5	562288:5
efbeea4eae74	562156:44	558983:47	562288:46
207c90b59860	562156:9	558983:9	562288:9
613e74a06a11	562156:26	558983:28	562288:28
4e3f11acd75b	562156:52	558983:55	562288:54
6bc1d6a24f5a	562156:9	558983:9	562288:9
343a13523928	562156:40	558983:42	562288:42
870bdb7ff9c8	562156:51	558983:54	562288:53
f30dd140c551	562156:4	558983:4	562288:4
cdd84d647c31	562156:4	558983:4	562288:4
493703d05279	562156:43	558983:46	562288:45
8fcd37001b8b	562156:12	558983:12	562288:12
3e3a94b944ec	562156:30	558983:32	562288:32
c2acfc81ca00	562156:7	558983:7	562288:7
c069957da7d0	562156:2	558983:2	562288:2
2cf8af195faf	562156:42	558983:45	562288:44
4d8a4a572925	562156:42	558983:45	562288:44
a6b6e3cf36a4	562156:0	558983:0	562288:0
2bc794b05dce	562156:52	558983:55	562288:54
b3dcb286377d	562156:44	558983:47	562288:46
dbba4c07441e	562156:4	558983:4	562288:4
93690409b747	562156:40	558983:42	562288:42
8870deb3cd89	562156:50	558983:53	562288:52
bb276c9cffeb	562156:42	558983:45	562288:44
247164ffe1a0	562156:12	558983:12	562288:12
da5d8af5ec5e	562156:51	558983:54	562288:53
2f67696be3ea	562156:11	558983:11	562288:11
d0bc44447e65	562156:42	558983:45	562288:44
26b76d6dd17e	562156:47	558983:50	562288:49
4eb20f0e3a98	562156:42	558983:45	562288:44
032c630a740d	562156:42	558983:45	562288:44
1fd2956891c1	562156:13	558983:13	562288:13
95da06f756f9	562156:51	558983:54	562288:53
2813f1091c45	562156:24	558983:26	562288:26
58783ba01bdf	562156:24	558983:26	562288:26
f15277be8b1c	562156:28	558983:30	562288:30
e482f2c5d40e	562156:50	558983:53	562288:52
1b71dee63500	562156:44	558983:47	562288:46
89674fda72f3	562156:41	558983:43	562288:43
163a7bedfc33	562156:41	558983:43	562288:43
30580395cd29	562156:5	558983:5	562288:5
28cd9c7a5fae	562156:41	558983:43	562288:43
eaf43055f658	562156:0	558983:0	562288:0
fa691fec980b	562156:42	558983:45	562288:44
b4085d2e2003	562156:47	558983:50	562288:49
bbac3d3dec30	562156:52	558983:55	562288:54
a8c1ae3cd394	562156:1	558983:1	562288:1
313ca82fe335	562156:41	558983:43	562288:43
b9924e84dced	562156:36	558983:38	562288:38
0c32760951f5	562156:4	558983:4	562288:4
b24896172a9b	562156:6	558983:6	562288:6
b8daf74e121a	562156:46	558983:49	562288:48
77eb4a376b4e	562156:9	558983:9	562288:9
699d16592612	562156:9	558983:9	562288:9
4d36a0faa1b4	562156:52	558983:55	562288:54
7012373d248c	562156:3	558983:3	562288:3
6b904670d0c2	562156:42	558983:45	562288:44
7fb5ef1cea79	562156:52	558983:55	562288:54
8c31110375c5	562156:4	558983:4	562288:4
146fc2bcd9d1	562156:18	558983:19	562288:19
f2258c95c059	562156:52	558983:55	562288:54
7a1b3683b834	562156:41	558983:43	562288:43
0c63f9e1047d	562156:41	558983:43	562288:43
e0a7b28e0d7c	558983:44
c31b1a730e25	562156:50	558983:53	562288:52
182429	5
e362b7085285	557712:33
24615832f74b	557712:0
313ca82fe335	557712:33
2ca091568b10	557712:0
89cc8dfb1b14	557712:33
186211	47
56bec749e36f	568481:11
52dae4e20ee6	568481:15
a6b6e3cf36a4	568481:18
a435859b5764	568481:11
2bc794b05dce	568481:19
ca7e8c7d0b23	568481:9
21982ffd50a9	568481:9
169e7b3bb374	568481:14
898e2f6cfa3d	568481:17
517c93a6d24f	568481:9
7f71a708d272	568481:14
8870deb3cd89	568481:19
da5d8af5ec5e	568481:18
26d2a0f4d858	568481:14
8da828b2d656	568481:14
c43371ba2559	568481:11
95da06f756f9	568481:18
104dad9236b2	568481:15
76d117c2457e	568481:14
aaceea816985	568481:8
8229bd330ced	568481:9
e53db7824cde	568481:9
8ba5a2a9905b	568481:9
2e31831b0630	568481:17
843eb014e939	568481:17
7093edc4235d	568481:17
46dade38862a	568481:16
d00b1505c606	568481:8
6e6f9671d137	568481:9
bbac3d3dec30	568481:19
313ca82fe335	568481:12
f10533829c90	568481:11
96f5c992fe4c	568481:16
4e3f11acd75b	568481:19
5da4a19ee7ac	568481:17
4c1b4661175f	568481:14
870bdb7ff9c8	568481:18
4d36a0faa1b4	568481:19
29a6ac2322ef	568481:14
7fb5ef1cea79	568481:19
61666eaab532	568481:14
9b34cfe59b58	568481:11
8c31110375c5	568481:11
f2258c95c059	568481:19
a1ed9377d15e	568481:9
a1d247bad1ea	568481:14
460d7785656e	568481:13
183264	72
1e631be686a4	574684:19
18c67f102f36	574684:27
5c3718022bbe	574684:36
ed0a3d5aef76	574684:17
c04c9ba92cad	574684:8
4dd4a82959b2	574684:4
2ccd83e5265e	574684:29
16e64fe9be73	574684:17
66cb4688e5d5	574684:29
a6413f2b1606	574684:4
85a3e43952a0	574684:19
b129335fd32d	574684:18
0da9e77846b8	574684:24
fb1e440f7c9a	574684:2
99724203ed9d	574684:17
e362b7085285	574684:68
3915a9571923	574684:27
cda6af679d60	574684:29
82ca1524edff	574684:0
0a78798ba148	574684:18
b8c63a046f4e	574684:24
efbeea4eae74	574684:21
2ed0e816a9a9	574684:0
d2ac505725f8	574684:29
493703d05279	574684:20
6f58043831e3	574684:18
2cf8af195faf	574684:19
a2f859f65852	574684:79
4d8a4a572925	574684:19
a6b6e3cf36a4	574684:24
27c5384bea49	574684:29
3f40a1f5c949	574684:77
a63df0cc43aa	574684:4
39458ddc741e	574684:17
b3dcb286377d	574684:21
25ebfb5c61ea	574684:17
b516dee066b2	574684:81
8870deb3cd89	574684:27
bb276c9cffeb	574684:19
98215e88bcc1	574684:2
d0bc44447e65	574684:19
26b76d6dd17e	574684:24
f1871c539a47	574684:28
4eb20f0e3a98	574684:19
032c630a740d	574684:19
afa073274618	574684:77
c68289aa2a47	574684:29
6ed53e0157e8	574684:17
89cc8dfb1b14	574684:68
27001c91d56a	574684:4
e482f2c5d40e	574684:27
1b71dee63500	574684:21
a3e692308d4f	574684:17
9beb46ebbe50	574684:4
eaf43055f658	574684:31
ed7e9cb68f1a	574684:16
fa691fec980b	574684:19
b4085d2e2003	574684:24
bbac3d3dec30	574684:31
313ca82fe335	574684:68
1e0c0e5af740	574684:0
d8724ee94f7c	574684:7
645392432a7d	574684:18
b8daf74e121a	574684:23
865293fac46c	574684:18
8559551465d2	574684:0
c6a14c9ace54	574684:17
6b904670d0c2	574684:19
262f99e8fc54	574684:4
7916675c7ab2	574684:16
b2078f104a4f	574684:17
c31b1a730e25	574684:27
186854	95
5ab756c2fe76	572409:36
ee9744e6ecf9	572409:24
bc2e814493f0	572409:32
c1466184ac0c	572409:24
fddd5cfa97d2	572409:19
066e38fde362	572409:31
3bd528b8e6da	572409:36
b0680f140fa9	572409:29
c3b14c00ac13	572409:26
7fd29de1b59a	572409:20
1159e77fbd11	572409:31
355e1f63f5f7	572409:36
fafdca3be201	572409:24
ba9fd7dd4576	572409:0
91b523d4bac2	572409:14
92547139a8ae	572409:31
d1171e687187	572409:32
212a21c6eb2e	572409:35
ae4dd114186f	572409:32
44d678fbb97d	572409:36
6883f090400d	572409:31
834f7dce22ba	572409:36
26107de9f0af	572409:10
e12cdf153f7a	572409:31
e4140940ec33	572409:15
e0c1835422e4	572409:35
4c8b2e081042	572409:0
aed4cdeec86f	572409:33
6e0b6eec491d	572409:19
a52559485c17	572409:31
a4d8f21e6731	572409:31
d6415e5a4bbf	572409:36
5b4a78cade87	572409:36
913fde42e02e	572409:30
78cd75aa86db	572409:19
b91bb5a5841c	572409:24
3941e68ff26d	572409:35
219a0ffbcdf1	572409:36
80d50cf18862	572409:19
ff195c275de6	572409:36
e3fbfb3457cd	572409:9
26847aebc78f	572409:22
54f02ea642a2	572409:31
345def86187c	572409:35
d93ebab1bd5e	572409:36
8d0af11c52f9	572409:0
f33d1229f546	572409:13
5b2f5b265733	572409:34
e84b4b9c4e32	572409:36
a6b6e3cf36a4	572409:11
5d4df555973f	572409:36
7838e9cd0828	572409:20
21e1b916a4e7	572409:32
bb5436a892c1	572409:27
a5fea4d45065	572409:9
473a4244112c	572409:19
e9db5fb1fd21	572409:27
9da102f75bcb	572409:36
9387b72807ce	572409:0
7620cf8ef36f	572409:26
b5ba4cc6b65f	572409:36
dc83f1e94703	572409:36
f15277be8b1c	572409:11
e5fa705634a1	572409:24
b4fcae09c311	572409:22
7a3ef736a43b	572409:32
6118e902327b	572409:35
d984c2c1a9aa	572409:31
73d33b74fd87	572409:24
0953ef594e72	572409:31
c4005287acdf	572409:24
e1d0affb7e4c	572409:32
14e965a42294	572409:35
43f6dee0cd49	572409:0
eab69c9fb2b5	572409:19
7c5ab0d66ed8	572409:36
c9d127d11201	572409:2
612151d66b5f	572409:5
9953d672b34e	572409:29
ff29dda08558	572409:32
077ef215e7e9	572409:32
b9c1b4a35b7e	572409:9
7012373d248c	572409:11
8ef29befd159	572409:24
a4847abc9bd8	572409:26
fb7d5a208637	572409:32
a722ce587bfe	572409:36
8c31110375c5	572409:26
0f355f91abee	572409:33
fa4d2ebdf3fd	572409:9
987075c7de3b	572409:24
7b680a4f4542	572409:32
63469068fcd5	572409:31
ea0e788b35c8	572409:20
e4c589c3b55b	572409:25
184548	23
e362b7085285	563533:39	557151:38	566418:28	600661:28
0bbe9634100d	563533:1	557151:1	566418:1	600661:1
23a32c3576cd	563533:8	557151:7	566418:8	600661:8
a4c388b547e7	563533:2	557151:2	566418:2	600661:2
e8bafa0486f1	563533:5	557151:4	566418:5	600661:5
e51b7dfa0f83	563533:8	557151:7	566418:8	600661:8
313ca82fe335	563533:39	557151:38	566418:28	600661:28
0cabe6589eb5	563533:4	557151:3	566418:4	600661:4
f7e9ce28320e	563533:8	557151:7	566418:8	600661:8
1f00369d1504	563533:1	557151:1	566418:1	600661:1
468b91c6d538	563533:3	557151:4	566418:3	600661:3
479e8e84888c	563533:8	557151:7	566418:8	600661:8
85aeef9e43eb	563533:8	557151:7	566418:8	600661:8
24615832f74b	563533:2	557151:2	566418:2	600661:2
2638ad37e8c5	563533:2	557151:2	566418:2	600661:2
33fb4550f8fc	563533:8	557151:7	566418:8	600661:8
ad32a02d5e08	563533:1	557151:1	566418:1	600661:1
72c230829c7f	563533:8	557151:7	566418:8	600661:8
77938f6715c3	563533:7	557151:6	566418:7	600661:7
afa073274618	563533:8	557151:7	566418:8	600661:8
51c538382270	563533:0	557151:0	566418:0	600661:0
89cc8dfb1b14	563533:39	557151:38	566418:28	600661:28
d5ffd3552fdc	563533:8	557151:7	566418:8	600661:8
183525	26
d3354600ed81	639424:3
a6b6e3cf36a4	639424:7
053eb3bddfb9	639424:2
2bc794b05dce	639424:8
d73f986cfd5c	639424:3
8870deb3cd89	639424:8
da5d8af5ec5e	639424:7
1d2c3fca8353	639424:3
95da06f756f9	639424:7
daaac468f78b	639424:3
90ebee7f1fb3	639424:0
3d7198ee62eb	639424:3
a0187e1d3b20	639424:2
bbac3d3dec30	639424:8
4e3f11acd75b	639424:8
30b89717bac5	639424:3
5ebab4c6d07a	639424:2
a6f54e6093a8	639424:2
8559551465d2	639424:2
870bdb7ff9c8	639424:7
4d36a0faa1b4	639424:8
f781f1c83214	639424:3
3601a8c7c910	639424:0
7fb5ef1cea79	639424:8
f2258c95c059	639424:8
f8c46025e279	639424:3
173157	95
529866eee277	561399:3
e44841c3f166	561399:13
e367f3a5eb62	561399:3
ec7faf4f24b0	561399:35
9083cfc6780c	561399:3
91b847915784	561399:36
0d89c4273338	561399:35
468b91c6d538	561399:13
57157b6e2100	561399:19
ea96c0412ee2	561399:35
b8944f27d752	561399:35
227205c65fd1	561399:5
1dbb78c0aa2c	561399:3
bd17d3eaee58	561399:4
26107de9f0af	561399:15
8dbd5a219900	561399:18
e4140940ec33	561399:18
d31f25ca302d	561399:27
e362b7085285	561399:75
5f9b5696a013	561399:13
13d4ea2e1e24	561399:35
1846b4d9255a	561399:3
5c88eb3a6e0b	561399:35
ac501262f4a1	561399:42
d4d5dd1f437c	561399:30
f390253677ba	561399:25
fef09fd34e1c	561399:35
f3c715801cbb	561399:3
b410b4fd3d48	561399:7
918279c7ac2a	561399:29
8f221e9db4df	561399:34
e3fbfb3457cd	561399:3
26847aebc78f	561399:2
e3a38d45ca8f	561399:34
1f9ae8d91561	561399:19
48daf0ed07bb	561399:35
366a607ab789	561399:3
1b4a7852abcb	561399:35
20eb538115b6	561399:30
ca4a91803060	561399:20
dd9e7eab46f5	561399:26
417fbcaf20e4	561399:44
a6b6e3cf36a4	561399:10
f5aca42c4766	561399:23
fc830652e6f6	561399:25
80c4991debda	561399:3
a75bdfdc0a61	561399:5
d0319c333791	561399:35
a5fea4d45065	561399:14
c13ac6cf500a	561399:3
09ada8b37202	561399:34
5f81d736a6c5	561399:35
19cf188ef913	561399:13
7031c15ed966	561399:2
c9b6d7e9f84c	561399:13
423080123a29	561399:37
44728f9b507e	561399:0
ba0e4eef285b	561399:1
1c3bf15ee8c9	561399:35
7ab00d2ec62b	561399:44
57782ce81c2c	561399:6
8c856433e8d5	561399:6
f15277be8b1c	561399:16
89cc8dfb1b14	561399:75
95952499093d	561399:2
b4fcae09c311	561399:13
711aaf7b9fb1	561399:35
12162b35b254	561399:36
dc9200269ed1	561399:13
f5b07218be06	561399:13
aff22514a74e	561399:34
14198c139d1b	561399:35
313ca82fe335	561399:75
9e8233853cc4	561399:35
7216190d5436	561399:3
438de8ee8a53	561399:35
9f567c5efbfe	561399:1
1fb9feb82244	561399:34
cbb2af304b26	561399:35
444d4d2ad459	561399:37
b5337f74c057	561399:37
a5ae0697c8ea	561399:13
d209fa094722	561399:30
7012373d248c	561399:10
b9c1b4a35b7e	561399:14
41701e6a48c6	561399:35
8c31110375c5	561399:19
1018c00d5c73	561399:1
fa4d2ebdf3fd	561399:14
c640a3c74f27	561399:8
0b135cec4ec6	561399:1
ce101a690ce8	561399:13
d1712202c11e	561399:3
f5a425608e8f	561399:3
154703571f22	561399:19
184997	54
096700ac49a5	559797:18
a271a43d1877	559797:15
34d8b88a9e94	559797:18
288de7efc0f0	559797:6
e6ba2deb884f	559797:14
4bc6cde0d5c5	559797:18
258ab9b1bfc3	559797:11
2692c13beefb	559797:12
f90a1b127955	559797:18
f9a99696d84a	559797:0
d11578148a21	559797:18
4e3f11acd75b	559797:23
6be802b54ee7	559797:0
870bdb7ff9c8	559797:22
3861a294108d	559797:0
58f50a82f054	559797:0
80d50cf18862	559797:0
08715c2fc9e1	559797:0
75d78a90d621	559797:0
3621f91d6f88	559797:14
6bf44a7e16f5	559797:18
d52a797c85ad	559797:0
a6b6e3cf36a4	559797:8
e4d6f94c8cfb	559797:21
2bc794b05dce	559797:23
57c4057d38a7	559797:18
364a03ebf2a5	559797:6
8870deb3cd89	559797:23
da5d8af5ec5e	559797:22
20a5f4a81fbf	559797:11
ed3c847c8d85	559797:21
95da06f756f9	559797:22
2813f1091c45	559797:9
db30fb2b4228	559797:0
383ed3d1d9b9	559797:18
58783ba01bdf	559797:9
25a5bb27bb42	559797:0
456d248b44b4	559797:17
d39c7fc7ebed	559797:21
1e774cf8ea31	559797:5
3529cd0b4c2f	559797:0
bbac3d3dec30	559797:23
d1f6d0b5d02a	559797:19
aa5cace4d784	559797:7
8aba47cac335	559797:21
a5b5ff38bb1e	559797:18
f66afd6bc28b	559797:21
4d36a0faa1b4	559797:23
ecde1efa4ec5	559797:18
0362c6d10a08	559797:18
7fb5ef1cea79	559797:23
8c31110375c5	559797:6
f2258c95c059	559797:23
3af9fd61fba2	559797:17
183274	75
2c012b7f3154	559102:0	559103:0
d3354600ed81	559103:5
92eb61725564	559102:11
abafffb7abb6	559102:11
05bbc6538b65	559102:12
60d57bf5df89	559102:10
1cae752ae9e0	559102:6
ead0217f1e03	559102:10
1d2c3fca8353	559103:5
cd1c20933a2c	559102:12
4e1d045b9059	559102:0	559103:0
0085a5c5f382	559102:12
740c1251d729	559102:0	559103:0
daaac468f78b	559103:5
faa1f9e9bb4a	559102:6
3d7198ee62eb	559102:3	559103:3
3990c03cdc65	559102:6
1a2675ebc8be	559102:12
dab74895e41f	559102:4	559103:4
efe0d828766c	559102:12
2f9556adf482	559102:11
ebfe0a15cf37	559102:10
59539dbe627a	559102:12
8e0f33f0ae33	559102:10
2160fbaa2114	559102:11
c400281fe50c	559102:6
4e3f11acd75b	559102:16	559103:8
dcbe23a00e62	559102:0	559103:0
180776201731	559102:12
5ebab4c6d07a	559103:6
870bdb7ff9c8	559102:15	559103:7
334514863909	559102:11
52c0bc149cd4	559102:0	559103:0
efad8bd05876	559102:12
a2be67539dc6	559102:6
07de5a904de1	559102:12
acef0e51c611	559102:12
bc09d5a2d071	559102:12
460d7785656e	559102:0	559103:0
a1e1ee18d049	559102:8
a6b6e3cf36a4	559102:15	559103:7
e04b56dad3ce	559102:10
19fe6b3f1520	559102:4	559103:4
053eb3bddfb9	559102:5
2bc794b05dce	559102:16	559103:8
7a6fa0f8e860	559102:12
d73f986cfd5c	559103:5
8870deb3cd89	559102:16	559103:8
5367b9b5f16e	559102:6
da5d8af5ec5e	559102:15	559103:7
a8bcd0e69be4	559102:8
a50cdaf71385	559102:11
e79e3029b1e8	559102:11
bc857e7522a0	559102:12
95da06f756f9	559102:15	559103:7
57637df59335	559102:11
c531f935e5d0	559102:6
1f74053488c5	559102:10
bbac3d3dec30	559102:16	559103:8
313ca82fe335	559102:2	559103:2
949724cb4301	559102:12
6cf4ee58ea02	559102:6
30b89717bac5	559103:5
0c30b6632f78	559102:10
8559551465d2	559102:3	559103:3
4d36a0faa1b4	559102:16	559103:8
4781d928e047	559102:6
324ace413314	559102:11
f781f1c83214	559103:5
7fb5ef1cea79	559102:16	559103:8
8c31110375c5	559102:7
f2258c95c059	559102:16	559103:8
a436501eca32	559102:12
f8c46025e279	559103:5
8adcb69831ae	559102:6
184362	116
857c78648afc	565679:42	561077:43
770e86416de3	565679:50
5a46ea8b057c	576405:48
4b8d81912431	565679:15	560257:15	576405:15	561077:15
d40e9820b090	576405:47
f52024229b91	576405:45
a01817c3bcf1	565679:44
b004e50d6f30	561077:46
ab7da8a6e357	561077:45
96904a358f15	576405:47
c9d80d429528	576405:47
accf68f0c4e4	561077:45
74636406b3ea	565679:3	560257:3	576405:3	561077:3
d185d2b6792a	565679:6	560257:6	576405:6	561077:6
e362b7085285	565679:84
a8bfe6b0f2be	565679:6	560257:6	576405:6	561077:6
90ffa8de5e0f	576405:47
f8f6a08506d6	565679:10	560257:10	576405:10	561077:10
f390253677ba	565679:35	560257:36	576405:36	561077:36
43033f26453d	565679:50
2160fbaa2114	576405:47
4e3f11acd75b	560257:51	576405:51	561077:51
38e5ee5223ce	560257:48	561077:47
918279c7ac2a	565679:39	561077:40
5f2e839e0833	576405:47
e4f79b21f0c7	565679:41	561077:42
1f9ae8d91561	565679:29	560257:30	576405:30	561077:30
209b7d629f0a	560257:45
1fd4d0cd328f	560257:47
98a0b9fabb38	565679:42	561077:43
a6b6e3cf36a4	565679:11	560257:11	576405:11	561077:11
9ce0e4739d54	565679:9	560257:9	576405:9	561077:9
f5aca42c4766	565679:33	560257:34	576405:34	561077:34
fc9a0aeeae9f	565679:1	560257:1	576405:1	561077:1
ad5c89e07b85	565679:21	560257:21	576405:21	561077:21
8675622c3643	561077:49
bd48a021fb9e	565679:42	561077:43
f8c741363c7b	565679:21	560257:21	576405:21	561077:21
26d2a0f4d858	565679:4	560257:4	576405:4	561077:4
95da06f756f9	560257:50	576405:50	561077:50
bc857e7522a0	576405:47
6de4c7fa2d4d	576405:45
bc8faac76681	565679:4	560257:4	576405:4	561077:4
71c2eec7a0d6	565679:22	560257:22	576405:22	561077:22
768e0c8e4b3d	576405:47
89cc8dfb1b14	565679:84
47d10df7fc31	576405:47
bb936de3ef52	565679:42	561077:43
8e4cd3e3970d	565679:22	560257:22	576405:22	561077:22
909805c2e1b0	565679:10	560257:10	576405:10	561077:10
67096b484868	565679:49
252daf14f7e3	565679:50
26d4133648cb	565679:22	560257:22	576405:22	561077:22
d1876b72a32b	576405:46
4d36a0faa1b4	560257:51	576405:51	561077:51
7012373d248c	565679:31	560257:32	576405:32	561077:32
7fb5ef1cea79	560257:51	576405:51	561077:51
c8dba40d8480	565679:10	560257:10	576405:10	561077:10
4bcceb38adf6	565679:22	560257:22	576405:22	561077:22
bfc92305b19c	565679:48	561077:45
a5ea3f893b29	565679:22	560257:22	576405:22	561077:22
5c3718022bbe	565679:27	560257:28	576405:28	561077:28
d04338435dfc	565679:44
ed438ede6902	565679:10	560257:10	576405:10	561077:10
57157b6e2100	565679:29	560257:30	576405:30	561077:30
f9df73321192	560257:41	576405:41
42651596988d	561077:49
7f80bf59b43d	565679:42	561077:43
622b14c530f6	576405:48
e8ef5707b0f9	565679:22	560257:22	576405:22	561077:22
730087737c66	565679:51
9f7b78f36beb	565679:21	560257:21	576405:21	561077:21
1e5396c80b64	561077:45
47c0ebae455e	561077:49
76d117c2457e	565679:4	560257:4	576405:4	561077:4
f81d2e8c493d	565679:10	560257:10	576405:10	561077:10
d31f25ca302d	565679:37	560257:38	576405:38	561077:38
3d3a0cfcea6e	565679:40	561077:41
c8023491c14a	565679:44
0c4835025c91	565679:4	560257:4	576405:4	561077:4
5aabbca49789	565679:42	561077:43
514bf698853f	576405:45
870bdb7ff9c8	560257:50	576405:50	561077:50
61666eaab532	565679:4	560257:4	576405:4	561077:4
75d78a90d621	565679:10	560257:10	576405:10	561077:10
ae5fc94d872f	560257:40	576405:40
ca4a91803060	565679:30	560257:31	576405:31	561077:31
dd9e7eab46f5	565679:36	560257:37	576405:37	561077:37
0441f185a7c8	565679:22	560257:22	576405:22	561077:22
2bc794b05dce	560257:51	576405:51	561077:51
fc830652e6f6	565679:35	560257:36	576405:36	561077:36
d0ade33ca2cb	565679:40	561077:41
d7c61d9dad3c	565679:50
8870deb3cd89	560257:51	576405:51	561077:51
da5d8af5ec5e	560257:50	576405:50	561077:50
e2ebb3b53130	565679:48
44728f9b507e	565679:35	560257:36	576405:36	561077:36
abbb05b3369e	565679:49
a81f706cef4e	565679:20	560257:20	576405:20	561077:20
81eabf6b8425	576405:46
f15277be8b1c	565679:31	560257:32	576405:32	561077:32
7a08e810f2a9	565679:22	560257:22	576405:22	561077:22
bd73a440b8d9	565679:22	560257:22	576405:22	561077:22
295f31f8af75	565679:22	560257:22	576405:22	561077:22
bbac3d3dec30	560257:51	576405:51	561077:51
313ca82fe335	565679:84
109162342271	560257:45
ec92845df482	565679:42	561077:43
4c1b4661175f	565679:4	560257:4	576405:4	561077:4
aeec03e12bcb	576405:46
42f072648bc3	576405:47
8c31110375c5	565679:10	560257:10	576405:10	561077:10
f2258c95c059	560257:51	576405:51	561077:51
8f3db25e76af	576405:48
154703571f22	565679:29	560257:30	576405:30	561077:30
336171c4b0d9	561077:46
183208	33
ee9744e6ecf9	561102:0
c1466184ac0c	561102:0
a6b6e3cf36a4	561102:4
2bc794b05dce	561102:5
c3b14c00ac13	561102:2
898e2f6cfa3d	561102:3
fafdca3be201	561102:0
8870deb3cd89	561102:5
da5d8af5ec5e	561102:4
95da06f756f9	561102:4
7620cf8ef36f	561102:2
e5fa705634a1	561102:0
2e31831b0630	561102:3
843eb014e939	561102:3
7093edc4235d	561102:3
bbac3d3dec30	561102:5
73d33b74fd87	561102:0
c4005287acdf	561102:0
b91bb5a5841c	561102:0
96f5c992fe4c	561102:3
4e3f11acd75b	561102:5
5da4a19ee7ac	561102:3
870bdb7ff9c8	561102:4
4d36a0faa1b4	561102:5
b9c1b4a35b7e	561102:0
8ef29befd159	561102:0
a4847abc9bd8	561102:2
7fb5ef1cea79	561102:5
8c31110375c5	561102:2
26847aebc78f	561102:0
f2258c95c059	561102:5
987075c7de3b	561102:0
e4c589c3b55b	561102:1
180712	48
eda226cf25f8	569358:1
26398920070a	569358:1
89ef0fb628d9	569358:0
a6b6e3cf36a4	569358:3	558848:11	557570:13	559705:10	583162:16	607508:13
96d939ad827a	569358:0
2bc794b05dce	569358:4
133f43f39712	569358:0
4f5433c85e8c	558848:9	557570:11	559705:8	583162:14	607508:11
bc43787578a7	558848:9	557570:11	559705:8	583162:14	607508:11
bbcddf9b41ba	569358:1
8870deb3cd89	569358:4
da5d8af5ec5e	569358:3
cd49567ec577	558848:9	557570:11	559705:8	583162:14	607508:11
7c2c70892ef1	569358:1
c469fadb6f3b	569358:1
2e24f7bb2761	569358:0
95da06f756f9	569358:3
894fe07157c0	569358:0
e8f93be3c8c6	569358:5
d56187a67c2b	558848:17	557570:19	559705:16	583162:22	607508:19
ea7c1d50372a	569358:1
289c823f8900	558848:14	557570:16	559705:13	583162:19	607508:16
b0eb35fa13ce	569358:1
d31f25ca302d	558848:11	557570:13	559705:10	583162:16	607508:13
ee609bc2180e	558848:17	557570:19	559705:16	583162:22	607508:19
2038c0eac11a	569358:0
9601bd2b931c	569358:1
1a25fe4b5f00	558848:15	557570:17	559705:14	583162:20	607508:17
bbac3d3dec30	569358:4
d13076aa5736	558848:9	557570:11	559705:8	583162:14	607508:11
37135c9d66c9	569358:1
2da115040bbc	558848:17	557570:19	559705:16	583162:22	607508:19
f7182cff6816	558848:9	557570:11	559705:8	583162:14	607508:11
091737e81a59	569358:1
4e3f11acd75b	569358:4
e9facfe91dd2	569358:1
dc062219b1ed	569358:1
8559551465d2	558848:9	557570:11	559705:8	583162:14	607508:11
870bdb7ff9c8	569358:3
9a59d1812167	569358:1
4d36a0faa1b4	569358:4
7012373d248c	558848:11	557570:13	559705:10	583162:16	607508:13
78bed227c67a	569358:5
7fb5ef1cea79	569358:4
d82d1f4e494d	558848:17	557570:19	559705:16	583162:22	607508:19
beb1d07a19d6	558848:16	557570:18	559705:15	583162:21	607508:18
f2258c95c059	569358:4
e738fc48268c	558848:14	557570:16	559705:13	583162:19	607508:16
182824	31
1f0989c072e2	667071:9	571909:9
a6b6e3cf36a4	667071:5	571909:5
2bc794b05dce	667071:15	571909:15
476636b94405	667071:1	571909:1
bb5436a892c1	667071:10	571909:10
0f7a77e57938	667071:13	571909:13
82d0fd8fa772	667071:10	571909:10
8870deb3cd89	667071:15	571909:15
2011122f1e63	667071:13	571909:13
da5d8af5ec5e	667071:14	571909:14
057a8a65ce0e	667071:10	571909:10
a49c0bf29d29	667071:12	571909:12
95da06f756f9	667071:14	571909:14
f15277be8b1c	667071:5	571909:5
225f159e9860	667071:12	571909:12
d31f25ca302d	667071:5	571909:5
67aa6e8fa086	667071:13	571909:13
906cf147a360	667071:2	571909:7
0bf225a10fc1	667071:12	571909:12
bbac3d3dec30	667071:15	571909:15
2cedbf51c495	667071:8	571909:8
9e8471cd2292	667071:10	571909:10
4c6dfd082e65	667071:10	571909:10
4e3f11acd75b	667071:15	571909:15
a01457aece1e	667071:1	571909:1
870bdb7ff9c8	667071:14	571909:14
4d36a0faa1b4	667071:15	571909:15
67fa86f2ed04	667071:10	571909:10
7012373d248c	667071:5	571909:5
7fb5ef1cea79	667071:15	571909:15
f2258c95c059	667071:15	571909:15
188393	61
f66af0ea18b8	605417:11
c56e5a9a9728	605417:2
a8fad3442db5	605417:17
ac8b09b99c40	605417:11
943d4a809b1b	605417:16
0a5c9092b3c6	605417:17
805e2dbf1d5a	605417:6
2c797f78ccd9	605417:22
4093cade2552	605417:4
17e17ba53c42	605417:1
e362b7085285	605417:57
5c46ac8790a5	605417:21
6b47a8a9071b	605417:11
6f69f996e423	605417:1
439e09d216d9	605417:4
54825f112483	605417:20
5768b6ed4f2c	605417:11
44300fded884	605417:16
219a0ffbcdf1	605417:11
5546c0cee96b	605417:1
331688c7b104	605417:4
cfbafddddede	605417:1
7ba3d6c6a5ba	605417:17
8aac0154970d	605417:17
37b047d7ffa2	605417:21
f2a0a4315195	605417:22
5b2f5b265733	605417:7
e84b4b9c4e32	605417:16
bb5436a892c1	605417:17
b262d0f7fcdd	605417:1
aeab4ec26a3c	605417:11
9744ec677e72	605417:11
6cf3c9e90961	605417:1
a4775e530f17	605417:6
584f0f36117f	605417:3
894fe07157c0	605417:10
512c70ac8e6f	605417:21
89cc8dfb1b14	605417:57
1c86ef6a70b3	605417:1
7d703eb5ba0d	605417:4
e647bd7cee1b	605417:3
74b341a936df	605417:22
313ca82fe335	605417:57
9c1a07318794	605417:6
396b6f95c6ee	605417:2
1c89ae2b5294	605417:11
f1d579860625	605417:20
7606620a81fa	605417:8
526fbc656da7	605417:17
7dc951d9b531	605417:2
a6ac76024ffb	605417:17
967be6917cb8	605417:20
7c5ab0d66ed8	605417:11
9953d672b34e	605417:18
d5dc607f61dc	605417:19
bf87780d7374	605417:17
b2b77f3945b2	605417:19
ca9f6a9aad09	605417:11
51c538382270	605417:0
63746fdf09ab	605417:11
221055136cad	605417:17
180073	33
417fbcaf20e4	604721:8
2cef8857d873	604721:5
ca35534e4f25	604721:10
6b08cdf00d00	604721:6
2a1a1fa8a8e5	604721:6
01c927aaf8b2	604721:4
807700cec8b3	604721:6
c8b454bbb942	604721:7
7ab00d2ec62b	604721:5
9e8f9444e0f7	604721:7
ca3c16c17e0b	604721:13
89cc8dfb1b14	604721:35
e362b7085285	604721:35
a43605f9f123	604721:10
cd2ccb351024	604721:10
5049dd8cd339	604721:6
55c780004473	604721:7
313ca82fe335	604721:35
8001beb426ce	604721:5
13ae5b397c61	604721:10
66d104bcb094	604721:13
abdd15a33101	604721:5
8559551465d2	604721:1
64701d9ec026	604721:10
eee397a7bf7e	604721:9
c0fcccad02d1	604721:1
22c31058ea9b	604721:12
4a1642c30e63	604721:1
332c539581e1	604721:5
aec97357ab4d	604721:6
78e10891a932	604721:9
2b25de3ee40c	604721:4
55358d9f848d	604721:5
185647	29
56bec749e36f	564361:3
a6b6e3cf36a4	564361:8
2bc794b05dce	564361:9
5eabeb402da7	564361:1
01c927aaf8b2	564361:4
8870deb3cd89	564361:9
da5d8af5ec5e	564361:8
00b2b938e7dd	564361:7
95da06f756f9	564361:8
89dace4eb5e3	564361:1
9f0c7eb4175a	564361:4
83c32e15b1b6	564361:1
04a9b3cafcd7	564361:7
7d0f50c09bd2	564361:4
0ea7dc7ca300	564361:6
bbac3d3dec30	564361:9
4e3f11acd75b	564361:9
925a40b1a03a	564361:4
870bdb7ff9c8	564361:8
e13bf7041e37	564361:0
4d36a0faa1b4	564361:9
d598bd794dfa	564361:0
7fb5ef1cea79	564361:9
c69f4c950bc2	564361:1
47a21a8cd2f0	564361:3
ac7ff7c9b8c8	564361:0
f2258c95c059	564361:9
0d2e5f452d03	564361:6
9430758358d4	564361:0
178227	71
a4352177a723	560344:9
8d1574ecf86f	560344:2	607541:2
2cef8857d873	560344:11
5c7728ec39e9	607541:6
9224404ce904	607541:10
dbfceea3e7ee	560344:28
01c927aaf8b2	560344:10
acb14eef2d73	607541:11
565be3214153	560344:37
dc4b9333f202	560344:8
4b361b475588	560344:2	607541:2
f52771c37c5c	560344:7
622b14c530f6	607541:10
dd1d0aec0638	560344:7
4c2898b78af5	560344:8
6346862a21a8	560344:8
f8d5939286bd	560344:5	607541:5
d83f17cfc533	560344:6
f3c31ad3f132	560344:6
e362b7085285	560344:79	607541:33
b5f286bdebec	560344:9
8cc54be85825	560344:37
4f5bd7469d77	607541:11
195251261c65	560344:9
cdaabc6064f9	607541:9
f8f783416d40	560344:28
abdd15a33101	560344:11
38e5ee5223ce	560344:25
c6f3b6a7a339	560344:28
332c539581e1	560344:11
2b25de3ee40c	560344:10
55358d9f848d	560344:11
6693b8d08a23	607541:9
a6b6e3cf36a4	560344:23
f084174cf4ce	560344:37
dcbd64e32a97	560344:2	607541:2
5ce45211b6f9	607541:8
dfd114b082c8	607541:11
925e1deec0a8	607541:10
15ff2e7bbfe0	560344:8
596c7f7d38d8	607541:9
8bf899308b10	560344:5	607541:5
c699035f92b4	607541:10
7ab00d2ec62b	560344:11
5150ba1ade8a	607541:8
9eca54b3d126	560344:27
89cc8dfb1b14	560344:79	607541:33
fa6e1c5e2ec9	560344:26
157b3680f06d	560344:5	607541:5
dc96b968471d	560344:2	607541:2
24aa5016f019	560344:7
d45bee7247ab	560344:9
1f630f395867	607541:9
c6bac0dafb19	560344:7
313ca82fe335	560344:79	607541:33
f6d25d29fc2b	560344:7
8001beb426ce	560344:11
d4159cb8e65b	560344:7
7e8b6d8afbd6	560344:4	607541:4
e0a7e74466fb	607541:7
96cecf60c242	607541:9
8ccc842a4d51	560344:28
7012373d248c	560344:25
ce650300429b	560344:39
023917873c1a	607541:8
7a1b3683b834	607541:9
9506818a964f	560344:27
8434ada9d206	560344:5	607541:5
10de2eb0ab7f	560344:35
5bafad827a5e	607541:11
dabaacb8e0c2	560344:39
176945	63
ee9744e6ecf9	558678:25
05f3b92d376d	558678:28
c1466184ac0c	558678:25
fddd5cfa97d2	558678:20
c3b14c00ac13	558678:27
7fd29de1b59a	558678:21
fafdca3be201	558678:25
ba9fd7dd4576	558678:3
91b523d4bac2	558678:15
b323a5837e78	558678:29
7e4a130eaeb8	558678:33
26107de9f0af	558678:11
e4140940ec33	558678:16
4c8b2e081042	558678:20
6e0b6eec491d	558678:20
78cd75aa86db	558678:20
b91bb5a5841c	558678:25
96b103416a0e	558678:33
4e3f11acd75b	558678:35
870bdb7ff9c8	558678:34
80d50cf18862	558678:20
e3fbfb3457cd	558678:10
26847aebc78f	558678:23
8d0af11c52f9	558678:3
f33d1229f546	558678:14
a6b6e3cf36a4	558678:12
7838e9cd0828	558678:21
aaf60d045017	558678:31
2bc794b05dce	558678:35
a5fea4d45065	558678:10
473a4244112c	558678:20
8870deb3cd89	558678:35
da5d8af5ec5e	558678:34
9387b72807ce	558678:3
95da06f756f9	558678:34
7620cf8ef36f	558678:27
f15277be8b1c	558678:12
e5fa705634a1	558678:25
b4fcae09c311	558678:23
8f64d0d2e9d5	558678:29
5f6fc17af727	558678:31
bbac3d3dec30	558678:35
73d33b74fd87	558678:25
c4005287acdf	558678:25
eab69c9fb2b5	558678:20
c9d127d11201	558678:5
033e269f5d46	558678:33
612151d66b5f	558678:7
4d36a0faa1b4	558678:35
b9c1b4a35b7e	558678:10
7012373d248c	558678:12
8ef29befd159	558678:25
a4847abc9bd8	558678:27
7fb5ef1cea79	558678:35
8c31110375c5	558678:27
9177521fcc4a	558678:32
fa4d2ebdf3fd	558678:10
f2258c95c059	558678:35
76f9a849d2ad	558678:3
987075c7de3b	558678:25
ea0e788b35c8	558678:21
e4c589c3b55b	558678:26
ade6c9a744a5	558678:32
194225	90
7e22a9fd89f9	557760:35
f66af0ea18b8	557760:23
f17473843c6b	557760:10
925c6fe9a8f0	557760:10
38dec86d6046	557760:1
c7a1d495c2d6	557760:33
a8fad3442db5	557760:29
ac8b09b99c40	557760:23
943d4a809b1b	557760:28
0f7a77e57938	557760:39
7ab6472dd4a9	557760:10
580220052898	557760:20
2f12a69d0350	557760:14
82d0fd8fa772	557760:36
2011122f1e63	557760:39
0a5c9092b3c6	557760:29
057a8a65ce0e	557760:32
805e2dbf1d5a	557760:18
f1b99896fb8a	557760:33
11ad72e8d021	557760:16
c81e8715b5c3	557760:1
d033fca81ce7	557760:1
225f159e9860	557760:38
65f365228827	557760:1
67aa6e8fa086	557760:39
8c23756b7c1e	557760:17
3c67af2985d1	557760:20
6123abb716f3	557760:35
c5dd7af990ed	557760:14
6b47a8a9071b	557760:23
b98f10133fd8	557760:1
f0c413954535	557760:16
5768b6ed4f2c	557760:23
4e3f11acd75b	557760:41
6e19c54c4a06	557760:14
15e21aaf9c16	557760:20
44300fded884	557760:28
219a0ffbcdf1	557760:20
870bdb7ff9c8	557760:40
67fa86f2ed04	557760:36
1b8a3e40ee3b	557760:32
7ba3d6c6a5ba	557760:29
8aac0154970d	557760:29
5b2f5b265733	557760:19
e84b4b9c4e32	557760:28
a6b6e3cf36a4	557760:40
9489c3ffcac8	557760:1
2bc794b05dce	557760:41
6a16f70c3092	557760:1
bb5436a892c1	557760:17
aaff1589b3b5	557760:35
aeab4ec26a3c	557760:23
9744ec677e72	557760:23
cee0ef87cf7d	557760:32
8870deb3cd89	557760:41
da5d8af5ec5e	557760:40
46696f0b051c	557760:1
a4775e530f17	557760:18
988ce607c302	557760:32
f523a1101c52	557760:17
a49c0bf29d29	557760:38
95da06f756f9	557760:40
894fe07157c0	557760:22
c7885ebf562b	557760:16
3624d33e24a3	557760:10
9666168f7c60	557760:1
2ce472287895	557760:1
0bf225a10fc1	557760:38
bbac3d3dec30	557760:41
9e8471cd2292	557760:36
313ca82fe335	557760:1
4c46d881d7e8	557760:10
9c1a07318794	557760:18
1c89ae2b5294	557760:23
4c6dfd082e65	557760:36
7606620a81fa	557760:28
526fbc656da7	557760:29
09dc12b5d333	557760:20
a6ac76024ffb	557760:29
7c5ab0d66ed8	557760:23
605859dcad83	557760:20
9953d672b34e	557760:17
4d36a0faa1b4	557760:41
bf87780d7374	557760:29
7fb5ef1cea79	557760:41
ca9f6a9aad09	557760:20
0368c8f2510c	557760:1
f2258c95c059	557760:41
63746fdf09ab	557760:23
221055136cad	557760:29
180726	60
f23762fedb10	593042:0
7806941e4a5b	593042:8
d0c1daec18ef	593042:2
d28fc08e6364	593042:1
461391b66c92	593042:17
9d272134d2ec	593042:8
1cc82195a73e	593042:0
58e5d5d7520a	593042:20
482ea75b5e4c	593042:8
790e43fe9d91	593042:1
75096cc58f16	593042:0
28ac6c2fe563	593042:5
94f45bbfb018	593042:0
993cb73f9c03	593042:2
f3341317eeed	593042:20
f7b6c8832a63	593042:0
32f3e0522438	593042:5
564e4b332f03	593042:18
d0d56c95bf44	593042:3
4e3f11acd75b	593042:22
38e5ee5223ce	593042:13
870bdb7ff9c8	593042:21
493703d05279	593042:0
d3cf65212a44	593042:0
a6b6e3cf36a4	593042:4
63540ed8c724	593042:5
21c791bcf703	593042:0
ea523606754e	593042:1
2bc794b05dce	593042:22
97df83c52bdf	593042:0
e03ce2304afc	593042:3
f00cb5b08a6b	593042:7
25acba01ff82	593042:7
8870deb3cd89	593042:22
a8e67ec3eec0	593042:4
da5d8af5ec5e	593042:21
d0bc44447e65	593042:4
4f7e74b1693c	593042:2
95da06f756f9	593042:21
6f4734086352	593042:2
0da6f771bfa5	593042:5
7060b9ea8bd5	593042:2
bbac3d3dec30	593042:22
a54fc27169a2	593042:4
34769b9e45f9	593042:5
f7e9a6739560	593042:17
2c9472137fd4	593042:7
6a4c8c42118d	593042:7
13f4e42c7a6a	593042:1
e7483251f0a8	593042:1
4d36a0faa1b4	593042:22
7012373d248c	593042:11
456e9caacb50	593042:8
7fb5ef1cea79	593042:22
e0f3d3f3fea5	593042:0
ce650300429b	593042:12
f2258c95c059	593042:22
c69dce88c617	593042:5
dc7a82dd70ec	593042:7
dabaacb8e0c2	593042:12
183543	18
1a25fe4b5f00	569470:18
a6b6e3cf36a4	569470:14
d13076aa5736	569470:12
2da115040bbc	569470:20
4f5433c85e8c	569470:12
f7182cff6816	569470:12
bc43787578a7	569470:12
a01457aece1e	569470:7
cd49567ec577	569470:12
8559551465d2	569470:12
7012373d248c	569470:14
d82d1f4e494d	569470:20
beb1d07a19d6	569470:19
d56187a67c2b	569470:20
e738fc48268c	569470:17
289c823f8900	569470:17
d31f25ca302d	569470:14
ee609bc2180e	569470:20
180599	20
e362b7085285	562054:43
6693b8d08a23	562054:8
737052fdf35b	562054:9
7cd4089d57c6	562054:4
6b8885a0f8c0	562054:3
1f630f395867	562054:8
313ca82fe335	562054:43
4f5bd7469d77	562054:10
f6d25d29fc2b	562054:1
cdaabc6064f9	562054:8
acb14eef2d73	562054:10
dfd114b082c8	562054:10
96cecf60c242	562054:8
596c7f7d38d8	562054:7
859a60b14f32	562054:7
34e71894ee10	562054:9
7a1b3683b834	562054:8
284ea5c5c999	562054:2
89cc8dfb1b14	562054:43
5bafad827a5e	562054:9
200181	64
f66af0ea18b8	668658:7
c7a1d495c2d6	668658:1
a8fad3442db5	668658:13
ac8b09b99c40	668658:7
943d4a809b1b	668658:12
0f7a77e57938	668658:19
82d0fd8fa772	668658:16
2011122f1e63	668658:19
0a5c9092b3c6	668658:13
057a8a65ce0e	668658:16
805e2dbf1d5a	668658:2
225f159e9860	668658:18
67aa6e8fa086	668658:19
99d4504209fc	668658:0
09bb4e261eb3	668658:1
6b47a8a9071b	668658:7
5768b6ed4f2c	668658:7
4e3f11acd75b	668658:21
44300fded884	668658:12
fecdb683abe5	668658:1
219a0ffbcdf1	668658:7
870bdb7ff9c8	668658:20
67fa86f2ed04	668658:16
1b8a3e40ee3b	668658:1
c2ab1a4aea52	668658:0
7ba3d6c6a5ba	668658:13
8aac0154970d	668658:13
f2a0a4315195	668658:1
5b2f5b265733	668658:3
e84b4b9c4e32	668658:12
a6b6e3cf36a4	668658:20
2bc794b05dce	668658:21
bb5436a892c1	668658:1
aeab4ec26a3c	668658:7
9744ec677e72	668658:7
8870deb3cd89	668658:21
da5d8af5ec5e	668658:20
a4775e530f17	668658:2
988ce607c302	668658:1
a49c0bf29d29	668658:18
b4ebdbd96447	668658:1
95da06f756f9	668658:20
894fe07157c0	668658:6
0bf225a10fc1	668658:18
bbac3d3dec30	668658:21
9e8471cd2292	668658:16
9c1a07318794	668658:2
1c89ae2b5294	668658:7
4c6dfd082e65	668658:16
7606620a81fa	668658:4
526fbc656da7	668658:13
a6ac76024ffb	668658:13
7c5ab0d66ed8	668658:7
9953d672b34e	668658:14
4d36a0faa1b4	668658:21
20582b29f5b1	668658:1
ca34de6656a1	668658:1
bf87780d7374	668658:13
7fb5ef1cea79	668658:21
ca9f6a9aad09	668658:7
f2258c95c059	668658:21
63746fdf09ab	668658:7
eac3045b4fdd	668658:1
221055136cad	668658:13
190009	120
7847c6163ff8	577660:7	563905:7
b88330c46dcd	577660:8	563905:8
4410b5743ec8	577660:8	563905:8
aa65a7eec3d1	577660:12	563905:12
f2ffc8c91026	577660:10	563905:10
b23cb396394e	577660:12	563905:12
c7cc8060994c	577660:10	563905:10
60975468a30f	577660:3	563905:3
57d856f1d98d	577660:8	563905:8
c158f020bdcc	577660:19	563905:19
d34039eb63c4	577660:21	563905:21
bb2415252f10	577660:8	563905:8
5cf9073dd3fe	577660:7	563905:7
9af065c33f01	577660:12	563905:12
0634897c24a0	577660:15	563905:15
ed567ee31586	577660:19	563905:19
77d416723829	577660:12	563905:12
b9663c58bf32	577660:10	563905:10
c231bb393e7d	577660:8	563905:8
075f8d86f3e0	577660:7	563905:7
b4b572998d16	577660:10	563905:10
2331c61a4711	577660:15	563905:15
8cf91fc3daef	577660:18	563905:18
4e3f11acd75b	577660:26	563905:26
1a488d31bb80	577660:8	563905:8
57e10948011a	577660:8	563905:8
7982ce273e65	577660:12	563905:12
bbc033cb2f59	577660:19	563905:19
084bc933ced0	577660:8	563905:8
844f4b4a98d0	577660:12	563905:12
7ef76daae2b1	577660:8	563905:8
fcc67ef6a9e7	577660:8	563905:8
a6b6e3cf36a4	577660:25	563905:25
5365f819f133	577660:12	563905:12
1e673a7d44de	577660:19	563905:19
7f2443119440	577660:10	563905:10
568b633f82b7	577660:12	563905:12
95da06f756f9	577660:25	563905:25
8da0e11209da	577660:12	563905:12
d934251f0a1e	577660:12	563905:12
96daf0c83a78	577660:8	563905:8
e821c80466f3	577660:17	563905:17
1c4721f1e793	577660:8	563905:8
aacc2e7e22bb	577660:10	563905:10
736230f314d6	577660:12	563905:12
7add94b2e963	577660:2	563905:2
2aec0850cb61	577660:3	563905:3
96c97f4383ba	577660:19	563905:19
f9be6c21ce86	577660:14	563905:14
9113225dc102	577660:2	563905:2
39fa151608b1	577660:8	563905:8
74de3e5cb6d2	577660:8	563905:8
102d908c58a7	577660:18	563905:18
846420f24b48	577660:8	563905:8
4d36a0faa1b4	577660:26	563905:26
da689672f3e6	577660:23	563905:23
7fb5ef1cea79	577660:26	563905:26
2f455c0f3f09	577660:8	563905:8
f3de086e861b	577660:8	563905:8
d5ee5a48f197	577660:14	563905:14
9cb18103bb24	577660:8	563905:8
dcf96998bf8d	577660:8	563905:8
632200769be0	577660:18	563905:18
ce941ae97c5d	577660:8	563905:8
ffee9e8ec7aa	577660:18	563905:18
52e4a2c778d7	577660:8	563905:8
1d72052042a9	577660:11	563905:11
8421d64ceed2	577660:8	563905:8
3114ab1180a9	577660:11	563905:11
61a7d53ce199	577660:0	563905:0
ecf4de06fa4a	577660:21	563905:21
38e92efa42e8	577660:10	563905:10
3dbf6952f712	577660:8	563905:8
81ca0404f948	577660:21	563905:21
544dfabf06f6	577660:12	563905:12
69fde7ba0320	577660:11	563905:11
ae99f50d4ca6	577660:14	563905:14
870bdb7ff9c8	577660:25	563905:25
75396df19965	577660:18	563905:18
b8d56f7eded5	577660:8	563905:8
2f814986f88f	577660:8	563905:8
6bd4ad064b67	577660:16	563905:16
d427a392e266	577660:12	563905:12
28b979e4b2ed	577660:8	563905:8
2bc794b05dce	577660:26	563905:26
f8054826d14b	577660:11	563905:11
d17846761e9a	577660:11	563905:11
650aba95109b	577660:21	563905:21
ff3112fa20e1	577660:8	563905:8
d5cf289f9e98	577660:22	563905:22
8870deb3cd89	577660:26	563905:26
622679bd3dfd	577660:10	563905:10
da5d8af5ec5e	577660:25	563905:25
a3dead8c1dae	577660:12	563905:12
933416f490bc	577660:8	563905:8
d745f9e69376	577660:1	563905:1
8c8d75f8f87a	577660:24	563905:24
f868ca1a7bc3	577660:8	563905:8
ac5fda6b89a2	577660:8	563905:8
e47461e9d867	577660:7	563905:7
bbac3d3dec30	577660:26	563905:26
797a8d623afb	577660:18	563905:18
c9fe78b68b4d	577660:4	563905:4
483649c03df2	577660:2	563905:2
53f53102afa4	577660:7	563905:7
93bc0840ed84	577660:8	563905:8
52b841c75824	577660:10	563905:10
896cfeff65a7	577660:18	563905:18
e19b74a608dc	577660:18	563905:18
6e796f8c300c	577660:9	563905:9
62c5b38abd42	577660:7	563905:7
4d9dae33789c	577660:12	563905:12
fa5f8d5873d8	577660:15	563905:15
c22a35f7b7a4	577660:19	563905:19
23e6f6e0e49d	577660:10	563905:10
99b156744a40	577660:8	563905:8
f2258c95c059	577660:26	563905:26
968b1ad5510b	577660:0	563905:0
d138d8e79f14	577660:10	563905:10
f79a11deb86f	577660:12	563905:12
