166848	8
8559551465d2	413547:12
a6b6e3cf36a4	413547:13
870bdb7ff9c8	413547:13
4604f2663587	413547:12
2bc794b05dce	413547:14
6cf4ee58ea02	413547:12
0d2b887e7ad1	413547:12
f05231a07d01	413547:12
167489	40
835bcb04ab2b	450097:1
f2a0a4315195	450097:17
f66af0ea18b8	450097:8
e84b4b9c4e32	450097:13
a6b6e3cf36a4	450097:18
2bc794b05dce	450097:19
a8fad3442db5	450097:14
b262d0f7fcdd	450097:0
ac8b09b99c40	450097:8
bb5436a892c1	450097:14
943d4a809b1b	450097:13
aeab4ec26a3c	450097:8
9744ec677e72	450097:8
0a5c9092b3c6	450097:14
a4775e530f17	450097:4
cd25567cede7	450097:8
894fe07157c0	450097:7
862eadc2c83e	450097:1
f4b7c9046468	450097:0
8d590d6084b3	450097:3
6b47a8a9071b	450097:8
7d7d8997d114	450097:2
df50a94f159f	450097:0
7606620a81fa	450097:5
526fbc656da7	450097:14
a6ac76024ffb	450097:14
44300fded884	450097:13
219a0ffbcdf1	450097:8
9953d672b34e	450097:15
870bdb7ff9c8	450097:18
f8523c99d464	450097:2
22f1d1dd42a4	450097:2
ca9f6a9aad09	450097:8
bf87780d7374	450097:14
63746fdf09ab	450097:8
8aac0154970d	450097:14
7ba3d6c6a5ba	450097:14
2ddbcd35497d	450097:17
221055136cad	450097:14
52ede9312cc1	450097:0
173061	14
a6b6e3cf36a4	428668:16
ff4dcd4e7cbf	428668:8
1f74053488c5	428668:13
e04b56dad3ce	428668:11
313ca82fe335	428668:13
2bc794b05dce	428668:16
b7b9418c5943	428668:14
9de8383ec493	428668:8
8559551465d2	428668:2
870bdb7ff9c8	428668:15
6d1de89ec39b	428668:8
d44c9e03817a	428668:5
0bfbad79b7bd	428668:8
8c31110375c5	428668:10
171461	35
5c7728ec39e9	410918:6
9224404ce904	410918:10
a6b6e3cf36a4	414205:46	414202:21	410921:23
f084174cf4ce	414202:35	410921:37
01c927aaf8b2	414202:10	410921:10
99483a77658b	414205:8
b3dcb286377d	414205:53
dc4b9333f202	414202:9	410921:9
4b361b475588	410918:4	414205:4	414202:4	410921:4
499f688cc11a	410918:2	414205:2	414202:2	410921:2
dd1d0aec0638	414202:8	410921:8
afa073274618	414205:14
85a3e43952a0	414205:53
7ab00d2ec62b	414202:13	410921:13
9eca54b3d126	414202:26	410921:28
d83f17cfc533	414202:7	410921:7
157b3680f06d	414202:6	410921:6
b5f286bdebec	414202:9	410921:9
eaf43055f658	414205:53
b4085d2e2003	414205:12
1f630f395867	410918:9
313ca82fe335	410918:33	414205:34	414202:66	410921:68
cdaabc6064f9	410918:9
8c82958ed72c	414205:12
03112f82b9e4	414205:6
e0a7e74466fb	410918:7
801601ae75cc	414205:55
7012373d248c	414202:29	410921:31
332c539581e1	414202:11	410921:11
493703d05279	414205:54
2b25de3ee40c	414202:10	410921:10
b13c3c93d6ed	414205:53
9506818a964f	414202:25	410921:27
5bafad827a5e	410918:11
dabaacb8e0c2	414202:37	410921:39
170762	4
21c791bcf703	402945:1
313ca82fe335	402945:22
493703d05279	402945:0
bb5436a892c1	402945:2
160138	91
33e01910f0e5	404934:18	414724:2	414734:2	416399:2	415951:19	419144:2	413911:2	406293:18	427666:30	430097:18	416282:19	402669:2	416375:19	416372:2	415922:19	413170:18	418225:2	414449:2	403134:2	429180:2	414072:2
da95a1b91da7	418225:19
2ac68f59b417	429180:11
a239f9ec0c0e	404934:13	414724:14	414734:14	415951:14	413911:14	406293:13	427666:25	430097:13	416282:14	413170:13	418225:14	414449:14	403134:14	429180:14	414072:14
acb14eef2d73	429180:34
9519a4901110	406293:53
479e8e84888c	416399:35
40f4a43d0a51	406293:62
a5aa40c05edd	429180:60
197b8d811943	429180:17
b7b9418c5943	414724:14	419144:14	430097:34	415922:31	403134:14	414072:18
9de8383ec493	404934:23	414724:7	414734:7	416399:7	415951:24	419144:7	413911:7	416375:24	416372:7	415922:24	414449:7
2c51582762ea	403134:8
19bcb5a6573d	429180:64
1d2c3fca8353	414734:20	427666:42	416375:37
5b47d761d33c	404934:19	414724:3	414734:3	416399:3	415951:20	419144:3	413911:3	406293:19	427666:31	430097:19	416282:20	402669:3	416375:20	416372:3	415922:20	413170:19	414449:3	403134:3	414072:3
3bede0725dfe	404934:18	414724:2	414734:2	416399:2	415951:19	419144:2	413911:2	406293:18	427666:30	430097:18	416282:19	402669:2	416375:19	416372:2	415922:19	413170:18	418225:2	414449:2	403134:2	429180:2	414072:2
f1fdee5a67f3	418225:20
6740d85a98b3	404934:20	414724:4	414734:4	416399:4	415951:21	419144:4	413911:4	406293:20	427666:32	430097:20	416282:21	402669:4	416375:21	416372:4	415922:21	413170:20	418225:5	414449:4	403134:4	429180:5	414072:4
5628706a2c7e	416399:32
525251d47bfd	415951:48	416372:31
fbb4d5aa821d	404934:19	414724:3	414734:3	416399:3	415951:20	419144:3	413911:3	406293:19	427666:31	430097:19	416282:20	402669:3	416375:20	416372:3	415922:20	413170:19	414449:3	403134:3	414072:3
cdba21b47239	406293:51
48cdcb685705	404934:22	414724:6	414734:6	416399:6	415951:23	419144:6	413911:6	406293:22	427666:34	430097:22	416282:23	402669:6	416375:23	416372:6	415922:23	413170:22	418225:6	414449:6	403134:6	429180:6	414072:6
efe0d828766c	404934:29	413911:13	414449:13
6f40e478320f	429180:19
74a7ac1e7541	418225:7
bb2cae300f3b	415951:49	406293:60	416372:32
87e7cad3b187	404934:18	414724:2	414734:2	416399:2	415951:19	419144:2	413911:2	406293:18	427666:30	430097:18	416282:19	402669:2	416375:19	416372:2	415922:19	413170:18	418225:2	414449:2	403134:2	429180:2	414072:2
d14e12f80210	415951:50	416372:33
870bdb7ff9c8	404934:32	414724:15	414734:21	416399:39	415951:53	419144:15	413911:21	406293:63	427666:43	430097:35	416282:32	402669:15	416375:38	416372:36	415922:32	413170:31	414449:16	403134:15	414072:19
f64ab851da28	429180:9
63e25a9ed0fb	429180:12
d6ea0db8559d	418225:14
493703d05279	429180:44
07de5a904de1	404934:31	413911:14	414449:15
76fa796a79cb	406293:59
c8e6d9debe86	406293:23	430097:23	414072:7
82baad1f07c0	406293:55
a6b6e3cf36a4	404934:33	414724:16	414734:10	416399:10	415951:27	419144:16	413911:22	406293:30	427666:44	430097:36	416282:25	402669:8	416375:27	416372:10	415922:33	413170:24	418225:12	414449:17	403134:16	429180:13	414072:20
85c760ec6331	416282:28	402669:11	413170:27
e04b56dad3ce	404934:27	414724:11	419144:11	413911:11	430097:31	415922:28	414449:11	403134:11	414072:15
a89f90129c0d	429180:23
2bc794b05dce	404934:33	414724:16	414734:22	416399:40	415951:54	419144:16	413911:22	406293:64	427666:44	430097:36	416282:33	402669:16	416375:39	416372:37	415922:33	413170:32	414449:17	403134:16	414072:20
a3bcc6676c47	429180:31
8d3383935a74	416399:23	415951:40	406293:43	416372:23
d5b9c38679c2	429180:43
f9e8471002d7	403134:8
1c3b774c2681	413911:18
2728bff12ca2	416399:23	415951:40	406293:43	416372:23
ba21ebdb445a	429180:38
3bba4cd96313	406293:24	430097:24	414072:8
a50cdaf71385	404934:28	413911:12	414449:12
afa073274618	429180:39
a90ae029cad6	404934:19	414724:3	414734:3	416399:3	415951:20	419144:3	413911:3	406293:19	427666:31	430097:19	416282:20	402669:3	416375:20	416372:3	415922:20	413170:19	414449:3	403134:3	414072:3
1635bfd3831c	429180:16
a55a6e022b57	416399:37
29313eb2c393	429180:18
a99f19922716	418225:30
ff4dcd4e7cbf	414724:8	419144:8	413911:8	415922:25	414449:8	403134:7	429180:7
1f74053488c5	414724:13	419144:13	430097:33	415922:30	403134:13	414072:17
f7d5709ee3bd	406293:25	430097:25	414072:9
317ac07da1e6	406293:58
313ca82fe335	414724:13	419144:13	430097:33	415922:30	418225:37	403134:13	429180:17	414072:17
e40326dfa9b6	416399:33
3d8c257c8ac6	429180:50
0890318f266f	416282:30	402669:11	413170:29
6825565854d6	404934:18	414724:2	414734:2	416399:2	415951:19	419144:2	413911:2	406293:18	427666:30	430097:18	416282:19	402669:2	416375:19	416372:2	415922:19	413170:18	418225:3	414449:2	403134:2	429180:3	414072:2
32b89f63cf8e	416399:24	415951:41	406293:44	416372:24
227528c6f76c	402669:7
92915ddbc36f	404934:19	414724:3	414734:3	416399:3	415951:20	419144:3	413911:3	406293:19	427666:31	430097:19	416282:20	402669:3	416375:20	416372:3	415922:20	413170:19	414449:3	403134:3	414072:3
30b89717bac5	414734:19	416399:19	415951:36	406293:39	427666:41	416375:36	416372:19
25bd88d965e8	415951:49	406293:54	416372:32
05e86ba380c9	415951:52	416372:35
6ff62eb1cb80	416282:31	402669:14	413170:30
fc2f87a798bb	413911:15
1c6ed0c751b3	404934:19	414724:3	414734:3	416399:3	415951:20	419144:3	413911:3	406293:19	427666:31	430097:19	416282:20	402669:3	416375:20	416372:3	415922:20	413170:19	414449:3	403134:3	414072:3
a9037c382b1f	418225:17
e8451ed3f7b0	413911:16
0efab465dc69	402669:13
04b13382be1d	429180:67
8559551465d2	414724:8	414734:16	416399:16	415951:33	419144:8	413911:8	406293:25	427666:35	430097:25	416282:24	402669:7	416375:33	416372:16	415922:25	413170:23	414449:8	414072:9
6d1de89ec39b	414724:8	419144:8	413911:8	415922:25	414449:8
7012373d248c	414734:11	416399:11	415951:28	406293:31	416375:28	416372:11
78494d510c1b	429180:68
0bfbad79b7bd	404934:25	414724:8	414734:9	416399:9	415951:26	419144:8	413911:8	406293:29	430097:29	416375:26	416372:9	415922:25	414449:8	414072:13
8c31110375c5	404934:26	414724:10	419144:10	413911:10	430097:30	415922:27	414449:10	403134:10	414072:14
ec9db3d2acf6	416399:38
35b7b196ea28	413911:18
d5e354ff2378	418225:10
be3686c05545	429180:8
146440	14
7e22a9fd89f9	412942:0
a6b6e3cf36a4	412942:2
0bf225a10fc1	412942:6
8bc8d1cd23df	412942:6
2bc794b05dce	412942:9
457df168bc3b	412942:0
bb5436a892c1	412942:6
03100a8bb339	412942:6
870bdb7ff9c8	412942:8
2cb65d89407e	412942:1
27e8fab2144e	412942:7
2ddbcd35497d	412942:7
071a35429c2c	412942:6
3e758070129d	412942:7
165513	28
d27247ca89db	422412:16	405013:16
f9500015840d	422412:1	405013:1
625c869b74a9	422412:9	405013:9
49da49bc091f	422412:20	405013:20
bff1974ad0e4	422412:27
da95a1b91da7	422412:23	405013:23
a6b6e3cf36a4	422412:0	405013:0
f98e92e0624e	405013:28
750e96c85a8c	422412:13	405013:13
2116299eb6e2	422412:12	405013:12
c3fc2787261f	422412:27
2250f3fb4c63	422412:5	405013:5
fa5b6f07e455	422412:16	405013:16
95aa66170e65	422412:22	405013:22
b18dcbf17740	422412:6	405013:6
edd178bf1cad	422412:14	405013:14
313ca82fe335	422412:32	405013:31
9909a2f2e55d	422412:3	405013:3
caa05fa5dc09	422412:26	405013:26
3d2aa66ee175	422412:15	405013:15
124c91156e9f	422412:19	405013:19
f6270854deb7	422412:2	405013:2
458fb6978cd2	422412:25	405013:25
6ee79a32740f	422412:24	405013:24
09e4b2c32858	422412:10	405013:10
3d4cfe5940f5	422412:29
c1f9f8c1e64d	422412:12	405013:12
8579c9f6f704	422412:22	405013:22
171918	26
9daf949d30d1	416230:2
50f9bf178643	416230:2
2901c57213c1	416230:9
6fa63ead1e0d	416230:0
bc63c6bcadbe	416230:0
9317379e8b5f	416230:8
c3b14c00ac13	416230:4
541cf4e37da6	416230:0
c1d546c6f26e	416230:5
7620cf8ef36f	416230:4
7e3d71910fb3	416230:7
e0c1835422e4	416230:13
2e1b34f71648	416230:0
654a2b2bc59b	416230:12
a32daa7ddc1e	416230:0
0e47e3a7683a	416230:4
a440c5cbbd19	416230:10
68d798b04913	416230:0
44b34eeb3225	416230:0
b1a16d1468e8	416230:11
ff195c275de6	416230:13
16449c8e4b82	416230:2
8c31110375c5	416230:4
901a8b637462	416230:0
0f355f91abee	416230:13
e4c589c3b55b	416230:3
162705	60
9daf949d30d1	420676:1
a805b6aeb667	420676:0
6cea063fb6a3	420676:1
5300d23b7bea	420676:0
abafffb7abb6	420676:4
05bbc6538b65	420676:5
60d57bf5df89	420676:3
fd6fa9a3ede7	420676:0
3b2a735848bb	420676:1
cd1c20933a2c	420676:4
06445b80d189	420676:1
0085a5c5f382	420676:5
14773fd1a5bb	420676:1
d0ea49889625	420676:1
1a2675ebc8be	420676:5
efe0d828766c	420676:5
cdaabc6064f9	420676:1
2f9556adf482	420676:4
59539dbe627a	420676:5
a8429e8af33b	420676:1
8e0f33f0ae33	420676:3
180776201731	420676:5
870bdb7ff9c8	420676:8
334514863909	420676:4
efad8bd05876	420676:5
07de5a904de1	420676:5
acef0e51c611	420676:5
dfd884378fc8	420676:1
a6b6e3cf36a4	420676:8
e04b56dad3ce	420676:3
2bc794b05dce	420676:9
7a6fa0f8e860	420676:5
93690409b747	420676:1
824194a010bc	420676:1
a8450048278f	420676:1
061c6264c16d	420676:3
a50cdaf71385	420676:4
e79e3029b1e8	420676:4
bc857e7522a0	420676:5
c8196ea006dc	420676:7
5938d826b292	420676:0
a6b285db0902	420676:1
6473db3bcb13	420676:1
28cd9c7a5fae	420676:1
70e72c3e6d1c	420676:1
1f74053488c5	420676:3
313ca82fe335	420676:3
05402600636e	420676:1
973950846d6a	420676:1
315136e13a9f	420676:7
50aec4be6437	420676:4
0c30b6632f78	420676:3
fc2f87a798bb	420676:7
bfa8f8e40960	420676:1
324ace413314	420676:4
e1df49afab12	420676:1
8c31110375c5	420676:2
7a1b3683b834	420676:1
a436501eca32	420676:5
0b6520765cf5	420676:1
151702	11
622b14c530f6	411330:12
a6b6e3cf36a4	411330:3	402906:3
5ee1dff77954	411330:5	402906:5
313ca82fe335	411330:35	402906:33
98443a04525a	411330:7	402906:7
62afda940ec6	411330:8	402906:8
62dc55d88e04	402906:10
be1f70b531e4	411330:0	402906:0
af9ec0b1a918	411330:1	402906:1
5bafad827a5e	411330:13
f8fcb4dfec52	411330:10
170455	12
56bec749e36f	408579:0
6852bd4326f6	408579:0
4eefc2085839	408579:1
870bdb7ff9c8	408579:2
a6b6e3cf36a4	408579:2
8559551465d2	408579:1
2bc794b05dce	408579:3
f10533829c90	408579:0
277d1339424e	408579:1
8454013b967c	408579:0
8c31110375c5	408579:0
9b34cfe59b58	408579:0
169812	20
ca35534e4f25	414501:87	414367:87
a6b6e3cf36a4	414501:23	414367:23
f084174cf4ce	414501:37	414367:37
313ca82fe335	414501:68	414367:68
01c927aaf8b2	414501:12	414367:12
43e221fa9f2d	414501:10	414367:10
a539ee79e29a	414501:9	414367:9
622b14c530f6	414501:90	414367:90
aa7139cc0c6f	414501:2	414367:2
8559551465d2	414501:87	414367:87
7012373d248c	414501:31	414367:31
332c539581e1	414501:13	414367:13
2b25de3ee40c	414501:12	414367:12
7ab00d2ec62b	414501:15	414367:15
afa073274618	414501:76	414367:76
d3234b52cda9	414501:3	414367:3
9eca54b3d126	414501:28	414367:28
9506818a964f	414501:27	414367:27
5bafad827a5e	414501:91	414367:91
dabaacb8e0c2	414501:39	414367:39
195797	27
a6b6e3cf36a4	411799:3	462592:3	462591:3	412666:3
8ee726b771ea	462591:23
e04b56dad3ce	411799:30
2bc794b05dce	411799:36
57157b6e2100	411799:2	462592:2	462591:2	412666:2
f9df73321192	411799:6	412666:6
b516dee066b2	412666:13
622b14c530f6	412666:29
76bcf372d6c4	462592:17	462591:17
a8bcd0e69be4	411799:28
cd1c20933a2c	412666:12
44728f9b507e	411799:0	462592:0	462591:0	412666:0
a50cdaf71385	411799:31	412666:11
6de4c7fa2d4d	412666:10
eca730dbac88	462592:7	462591:7
b618ed379f55	462592:12	462591:12
4c60665da485	411799:26
efe0d828766c	411799:32
313ca82fe335	462592:45	462591:46	412666:16
66d104bcb094	462592:23
870bdb7ff9c8	411799:35
a73bda53b112	411799:11
334514863909	412666:28
8c31110375c5	411799:5	462592:5	462591:5	412666:5
07de5a904de1	411799:34
e6af3b069eac	462592:6	462591:6
730bce4598f8	411799:10
171221	7
24615832f74b	407867:3
a6b6e3cf36a4	407867:7
313ca82fe335	407867:31
77938f6715c3	407867:5
afa073274618	407867:11
8d80ce701c8a	407867:4
d23f89b65cb6	407867:1
164762	3
1ba1794f9f32	402352:5
8559551465d2	402352:0
313ca82fe335	402352:8
171674	27
4f31df7b30bb	413580:1
a6b6e3cf36a4	413580:1
6f410e8d6966	413580:3
b842cee25ea9	413580:3
c65f9bcedd8c	413580:2
5ec6e78565f4	413580:3
2bc794b05dce	413580:6
008664979a4d	413580:3
ea96c0412ee2	413580:4
f5dff1ca79d8	413580:1
f75661154c7f	413580:3
2c1519a2be07	413580:3
57f73b705615	413580:1
ba0e4eef285b	413580:3
11667ee3f6e3	413580:1
50eb9c498951	413580:2
5f9b5696a013	413580:3
13d4ea2e1e24	413580:3
d2a4c5d841c5	413580:4
f810b165fd08	413580:1
d14e12f80210	413580:1
8f221e9db4df	413580:3
870bdb7ff9c8	413580:5
7734e6fd2453	413580:1
3da73b782769	413580:4
51c538382270	413580:0
77ab0771d6f8	413580:3
171675	7
a6b6e3cf36a4	413591:3
15c64885d4b0	413591:3
324afef9e5bd	413591:6
313ca82fe335	413591:27
dd9a79be3e48	413591:0
1afe02fd0e2f	413591:1
158b6b4ca0fb	413591:1
168472	54
4f31df7b30bb	402261:3	415041:3
44a4cf43ec91	402261:5	415233:5	415041:5
5a272432b638	415233:3
fd5345e5622e	415041:16
9d23f4c45f93	415041:12
b1ddc9cae116	415041:12
ba9fd7dd4576	402261:6	415233:6	415041:6
7fd6ba9bcb96	415041:8
c1b97f227c17	415041:8
89f71cf3d34d	402261:8	415233:8	415041:8
1a6007bf36d3	415233:3
6e1cdc178209	402261:7	415233:7	415041:7
c9f7c16a0b71	402261:13	415233:13
80468262d502	415041:8
20e740a2b4f2	402261:4	415233:4	415041:4
e2064d75c608	415233:3
f7b1baf0f797	415233:3
6354c32197a1	415041:13
a140d038b478	415041:9
eaf0e76adf73	415041:17
baf63f6cd06c	402261:6	415233:6	415041:6
219a0ffbcdf1	402261:23	415233:23
870bdb7ff9c8	402261:27	415233:27
45ab295fbbcd	415041:13
2e2856bbae1b	415041:8
fe5d08b521b6	415041:8
1610e23ca92b	402261:6	415233:6	415041:6
460d7785656e	402261:7	415233:7	415041:7
93ecb234ad40	402261:26	415233:26
a6b6e3cf36a4	402261:3	415233:3	415041:3
794bb4ee379b	402261:14	415233:14
4b38c4442186	415041:8
2bc794b05dce	402261:28	415233:28
9c3c8a505d57	415041:9
6c563c769572	415041:17
745dbf28ecc1	415041:8
7620cf8ef36f	402261:7	415233:7	415041:7
894fe07157c0	402261:17	415233:17
08351eaddc86	415041:14
5f4434682020	402261:9	415233:9
c48142fbb8bd	402261:12	415233:12
eaf43055f658	402261:3	415041:3
1521cdc53e31	402261:9	415233:9
017a876778bd	415041:13
7606620a81fa	402261:15	415233:15
b612a6628984	402261:7	415233:7	415041:7
5fc35794c2d4	415233:3
9280ba0cf471	402261:6	415233:6	415041:6
791a7b76cbe5	415041:8
ddd0c6956a1d	415233:3
63323195bc5c	402261:6	415233:6	415041:6
8c31110375c5	402261:6	415233:6	415041:6
0f355f91abee	415041:18
2dc507e6288b	415041:13
116703	51
139f75ec7e19	415955:79
f66af0ea18b8	415955:85
7ee2469bbf78	415955:81
a8fad3442db5	415955:108
ac8b09b99c40	415955:85
943d4a809b1b	415955:90
2f12a69d0350	415955:92
82d0fd8fa772	415955:113
ee7a6423b13b	415955:79
0a5c9092b3c6	415955:81
cd25567cede7	415955:85
90e7fafc040b	415955:81
8c23756b7c1e	415955:91
14230dc08955	415955:81
6b47a8a9071b	415955:85
6e19c54c4a06	415955:79
eaf0e76adf73	415955:81
44300fded884	415955:90
219a0ffbcdf1	415955:85
870bdb7ff9c8	415955:115
8aac0154970d	415955:81
2ddbcd35497d	415955:114
e84b4b9c4e32	415955:90
a6b6e3cf36a4	415955:116
95ef737376d2	415955:91
2bc794b05dce	415955:116
bb5436a892c1	415955:91
aeab4ec26a3c	415955:85
9744ec677e72	415955:85
cee0ef87cf7d	415955:93
6c563c769572	415955:81
a4775e530f17	415955:97
988ce607c302	415955:92
41a87b97f29c	415955:8
f523a1101c52	415955:81
f618785f3f4a	415955:8
894fe07157c0	415955:84
72b9554c41af	415955:91
df4827c46a80	415955:8
bdcae2990937	415955:79
0bf225a10fc1	415955:113
9e8471cd2292	415955:112
0b631ffea320	415955:0
4c6dfd082e65	415955:111
7606620a81fa	415955:82
526fbc656da7	415955:107
9953d672b34e	415955:91
bf87780d7374	415955:81
ca9f6a9aad09	415955:85
63746fdf09ab	415955:85
193c5ac09a81	415955:95
169820	5
870bdb7ff9c8	412816:4
a6b6e3cf36a4	412816:4
2bc794b05dce	412816:5
c18b88c49108	412816:2
ad7f78f6574b	412816:3
172194	16
6c08609a8a8b	418949:0
9133807c4acb	418949:17
a6b6e3cf36a4	418949:14
b4085d2e2003	418949:25
2bc794b05dce	418949:29
26eb0ac12e3c	418949:18
7ee2469bbf78	418949:12
b8c63a046f4e	418949:27
7606620a81fa	418949:3
b3dcb286377d	418949:21
eaf0e76adf73	418949:2
bb276c9cffeb	418949:19
870bdb7ff9c8	418949:28
f523a1101c52	418949:2
493703d05279	418949:20
894fe07157c0	418949:5
163040	15
f2a0a4315195	423820:10
da95a1b91da7	423820:15
0407b59ac47a	423820:9
8bc8d1cd23df	423820:5
313ca82fe335	423820:35
6be29dd971af	423820:12
f1d579860625	423820:7
b59ed1dad51e	423820:9
bb5436a892c1	423820:1
ea9d34413f1b	423820:6
d5dc607f61dc	423820:11
c098498f5ad2	423820:2
bb695df58d0a	423820:13
512c70ac8e6f	423820:8
e6a8f0bfef87	423820:0
145505	20
a6b6e3cf36a4	404808:3	402360:10
f9a99696d84a	404808:0	402360:0
fd445a451bf8	404808:2
bff2c106def1	404808:0	402360:0
2bc794b05dce	404808:4	402360:10
28e7b99fe2fc	404808:2
f09a57440fd7	404808:2	402360:2
039f629a06a2	404808:2
63608ddca04e	404808:1
78199517f170	402360:1
870bdb7ff9c8	404808:3	402360:9
bdd743ffee4b	404808:0	402360:0
7012373d248c	402360:3
93a01020bf5a	404808:2
992c804d18c6	404808:2	402360:8
0305de87b24b	404808:0	402360:0
3e5149d247e5	404808:1
d0fd193b04a6	402360:1
75d78a90d621	404808:0	402360:0
dabaacb8e0c2	402360:4
132903	77
d097bbf224ec	414915:0	410611:0	409171:0	406736:0	413017:0
9e464ec455df	414915:7	410611:7	409171:7	406736:7	413017:7
ebd3b0ceb37a	414915:46	409171:46
3ae59f888cd5	416912:13
479e8e84888c	414915:42	409171:42
691741b825d7	412953:17
ca389cecc6e1	414915:0	410611:0	409171:0	416912:0	406736:0	413017:0	412953:0
b7b9418c5943	413017:21
8475b20f280d	414915:1	410611:1	409171:1	406736:1	413017:1
9de8383ec493	414915:14	409171:14
2c51582762ea	413017:16
1d2c3fca8353	410611:31
0d16742315f5	414915:47	409171:47
bc646136f4d9	414915:1	410611:1	409171:1	406736:1	413017:1
57f73b705615	412953:15
5b47d761d33c	414915:10	410611:10	409171:10	406736:10	413017:10
93de7d3d0ec5	416912:10
6740d85a98b3	414915:11	410611:11	409171:11	406736:11	413017:11
da9f032a4037	416912:10
5628706a2c7e	414915:39	409171:39
87070923a1ec	412953:19
525251d47bfd	414915:1	410611:1	409171:1	416912:2	406736:1	413017:1	412953:2
de2af481dc41	416912:20
fbb4d5aa821d	414915:10	410611:10	409171:10	406736:10	413017:10
cdba21b47239	409171:38
48cdcb685705	414915:13	410611:13	409171:13	406736:13	413017:13
e3593bb995f4	412953:18
f8558605dddb	416912:10
22e0033985af	412953:16
87e7cad3b187	414915:10	410611:10	409171:10	406736:10	413017:10
dbe505926331	416912:12
e88ab0dea2d0	414915:0	410611:0	409171:0	416912:1	406736:0	413017:0	412953:1
870bdb7ff9c8	414915:51	410611:32	409171:51	406736:34	413017:22
138bfa21f3a6	416912:11
4d5f202d5e23	412953:17
e109df9be1af	414915:45	409171:45
493703d05279	416912:10
d8a48cf04822	414915:1	410611:1	409171:1	406736:1	413017:1
ef4c23fd35a9	414915:7	410611:7	409171:7	406736:7	413017:7
c8e6d9debe86	410611:14	406736:14
417fbcaf20e4	416912:39
a6b6e3cf36a4	414915:6	410611:6	409171:6	416912:6	406736:6	413017:6	412953:6
e04b56dad3ce	413017:18
2bc794b05dce	414915:52	410611:33	409171:52	406736:35	413017:23
8d3383935a74	414915:30	409171:30
f9e8471002d7	413017:15
771232b89f38	414915:0	410611:0	409171:0	406736:0	413017:0
2728bff12ca2	414915:30	409171:30
1fe7e086684b	412953:16
5be5523c8c96	414915:7	410611:7	409171:7	406736:7	413017:7
84a1d576b4ec	416912:17
e3b5eb90906b	416912:24
3bba4cd96313	410611:15	406736:15
d1864e8d273a	414915:9	410611:9	409171:9	406736:9	413017:9
a90ae029cad6	414915:10	410611:10	409171:10	406736:10	413017:10
2e51dc92f442	416912:23
317ac07da1e6	414915:1	410611:1	409171:1	416912:4	406736:1	413017:1	412953:4
f7d5709ee3bd	410611:16	406736:16
ff4dcd4e7cbf	413017:14
1f74053488c5	413017:20
5147c17e9683	414915:1	410611:1	409171:1	406736:1	413017:1
313ca82fe335	416912:27	413017:20	412953:22
e40326dfa9b6	414915:40	409171:40
13374d0158f9	414915:43	409171:43
6825565854d6	414915:9	410611:9	409171:9	406736:9	413017:9
32b89f63cf8e	414915:31	409171:31
b0af6b72f007	414915:1	410611:1	409171:1	406736:1	413017:1
92915ddbc36f	414915:10	410611:10	409171:10	406736:10	413017:10
30b89717bac5	414915:26	410611:30	409171:26	406736:30
21e5630a726a	414915:0	410611:0	409171:0	416912:0	406736:0	413017:0	412953:0
1c6ed0c751b3	414915:10	410611:10	409171:10	406736:10	413017:10
8559551465d2	414915:23	410611:16	409171:23	406736:16
124b4010279f	414915:0	410611:0	409171:0	406736:0	413017:0
7012373d248c	414915:18	410611:22	409171:18	406736:22
0bfbad79b7bd	414915:16	410611:20	409171:16	406736:20
8c31110375c5	413017:17
78e10891a932	412953:12
171812	5
38d5e584e950	415020:5
313ca82fe335	415020:25
310e028e557a	415020:2
7b81fd928536	415020:1
f3c715801cbb	415020:0
171237	5
7eb68bd6787e	440409:5
c00f72b87f98	440409:0
a6b6e3cf36a4	440409:1
313ca82fe335	440409:8
6a9b285f28d0	440409:4
171877	20
b5ec6cfa9cd3	418775:7
a6b6e3cf36a4	418775:0
eaf43055f658	418775:52
b4085d2e2003	418775:11
313ca82fe335	418775:33
8c82958ed72c	418775:11
c3021f7564d2	418775:54
92348e568b47	418775:1
b3dcb286377d	418775:52
19367b9aaf23	418775:3
622b14c530f6	418775:54
79b0e7ac31e9	418775:4
4947ac1efe26	418775:0
85a3e43952a0	418775:52
493703d05279	418775:53
afa073274618	418775:13
b13c3c93d6ed	418775:52
2eac6295e41f	418775:9
a6a26677c18d	418775:56
c16878c8f4f0	418775:6
151402	27
a6b6e3cf36a4	417259:4
63540ed8c724	417259:5
1681e9bf49ea	417259:9
2bc794b05dce	417259:19
2724c39b5c2d	417259:3
0d0f2cff6ee4	417259:1
b856c5fb3b05	417259:7
da4080f9a31b	417259:11
a8e67ec3eec0	417259:4
d0bc44447e65	417259:4
70f5b3ebcae3	417259:3
342c8dc0fb10	417259:2
485491d6ca80	417259:3
28ac6c2fe563	417259:5
0da6f771bfa5	417259:5
222116f05050	417259:3
a0dd506e5684	417259:0
32f3e0522438	417259:5
34769b9e45f9	417259:5
2c9472137fd4	417259:7
541e026eab6a	417259:1
9ebacdc7ab3f	417259:0
870bdb7ff9c8	417259:18
afb30d8941c1	417259:3
58aba1254249	417259:3
c69dce88c617	417259:5
3d4cfe5940f5	417259:15
171690	10
12162b35b254	413777:10
244baae7bf74	413777:5
a6b6e3cf36a4	413777:1
423080123a29	413777:12
313ca82fe335	413777:38
ac501262f4a1	413777:16
91b847915784	413777:10
56dd8866d868	413777:9
2f634f7006dd	413777:0
14e0bc830a00	413777:5
110377	21
56bec749e36f	414688:6
ca4a91803060	414688:0
417fbcaf20e4	414688:9
86acc6952cf9	414688:15
e585115fa3ce	414688:16
a6b6e3cf36a4	414688:7
a67e1b1b08dd	414688:1
e040c95e86ef	414688:0
1ebbaff6f1a6	414688:0
aab8beb8ae34	414688:5
2bc794b05dce	414688:15
87c764043ef0	414688:15
f390253677ba	414688:0
98cdcadbdef5	414688:0
3024c07c9bff	414688:0
870bdb7ff9c8	414688:14
2645ec389548	414688:0
f30dd140c551	414688:0
d021c0d5fc50	414688:0
8c31110375c5	414688:3
78e10891a932	414688:16
172265	24
222116f05050	442051:7
625c869b74a9	418865:3	414363:3
a0dd506e5684	442051:6
a6b6e3cf36a4	442051:16	418865:7	414363:20
b18dcbf17740	442051:3	418865:7	414363:7
b7b06b68b467	442051:5
2bc794b05dce	442051:16	418865:8	414363:20
2724c39b5c2d	442051:7
8c22fa3c19df	442051:12	418865:4	414363:16
541e026eab6a	442051:7
d286c52c9e19	442051:7	418865:11	414363:11
f4480ab5bd5a	442051:7
0d0f2cff6ee4	442051:7	418865:11	414363:11
9ebacdc7ab3f	442051:6	418865:10	414363:10
adbfad55ed2e	442051:7
870bdb7ff9c8	442051:15	418865:7	414363:19
da9ae5b7a4e9	442051:5	418865:9	414363:9
afb30d8941c1	418865:4
f67ba75f8e90	442051:7	418865:11	414363:11
58aba1254249	442051:7	418865:4
bb849ace4dc2	442051:7
70f5b3ebcae3	418865:4
342c8dc0fb10	442051:7
0e1dbde05ef1	442051:0	418865:0	414363:0
62573	33
4c9f1ec424c8	402760:13
b09cc7900c39	414603:16	409659:16
7806941e4a5b	402760:11
a6b6e3cf36a4	414603:3	409659:3	402760:3
63540ed8c724	414603:4	409659:4	402760:4
1681e9bf49ea	402760:8
2bc794b05dce	414603:20	409659:26
a7ad2044b480	414603:1	409659:1
da4080f9a31b	402760:10
a8e67ec3eec0	414603:3	409659:3
1d2c3fca8353	409659:24
d0bc44447e65	414603:3	409659:3	402760:4
28ac6c2fe563	414603:4	409659:4	402760:6
0da6f771bfa5	414603:4	409659:4
31c2625be723	414603:0	409659:0
32f3e0522438	414603:4	409659:4	402760:7
d0216ad21b66	402760:21
313ca82fe335	402760:59
34769b9e45f9	414603:4	409659:4
f7e9a6739560	414603:15	409659:15	402760:19
30b89717bac5	409659:23
ca5738f529bd	414603:0	409659:0
bd652bda3c49	414603:0	409659:0
0fcbe9b75b36	414603:1	409659:1
870bdb7ff9c8	414603:19	409659:25
8559551465d2	414603:0	409659:0	402760:0
8027842efbc0	402760:22
7012373d248c	414603:9	409659:9
456e9caacb50	414603:7	409659:7
c69dce88c617	414603:4	409659:4
0ec1dbdaddd6	402760:23
ad7f78f6574b	414603:18
dabaacb8e0c2	414603:10	409659:10
168108	13
0697a82ba4a2	409423:2
a6b6e3cf36a4	409423:8
a54bc24dcb81	409423:4
00bbf31ed9bc	409423:5
2bc794b05dce	409423:9
c18b88c49108	409423:5
a16ec2b36ebd	409423:7
870bdb7ff9c8	409423:8
8559551465d2	409423:0
ce5846a51077	409423:6
1d842d18557d	409423:7
6aa44774c762	409423:4
3199714b305f	409423:1
152176	33
82baad1f07c0	504359:25	411130:25
a6b6e3cf36a4	504359:8	411130:8
d097bbf224ec	504359:2	411130:2
2bc794b05dce	504359:34	411130:34
9519a4901110	504359:23	411130:23
8d3383935a74	504359:13	411130:13
af7860c80102	504359:12	411130:12
40f4a43d0a51	504359:32	411130:32
ca389cecc6e1	504359:2	411130:2
771232b89f38	504359:2	411130:2
2728bff12ca2	504359:13	411130:13
8475b20f280d	504359:3	411130:3
bc646136f4d9	504359:3	411130:3
d58c9315a741	504359:9	411130:9
160e1727d7c0	504359:10	411130:10
525251d47bfd	504359:3	411130:3
cdba21b47239	504359:22	411130:21
317ac07da1e6	504359:3	411130:3
5147c17e9683	504359:3	411130:3
f7b1baf0f797	504359:8	411130:8
32b89f63cf8e	504359:13	411130:13
86f8caa14a5f	504359:12	411130:12
b0af6b72f007	504359:3	411130:3
25bd88d965e8	504359:24	411130:24
bfa249f716ca	504359:29
bb2cae300f3b	504359:30	411130:30
21e5630a726a	504359:2	411130:2
089c4eae387a	504359:12	411130:12
e88ab0dea2d0	504359:2	411130:2
870bdb7ff9c8	504359:33	411130:33
124b4010279f	504359:2	411130:2
76fa796a79cb	411130:29
d8a48cf04822	504359:3	411130:3
171766	7
870bdb7ff9c8	414429:3
a6b6e3cf36a4	414429:3
afb30d8941c1	414429:0
58aba1254249	414429:0
2bc794b05dce	414429:4
8c22fa3c19df	414429:0
70f5b3ebcae3	414429:0
170231	11
878f861ca7bb	405842:5
aa3ed9307e49	405842:14
a6b6e3cf36a4	405842:7
8559551465d2	405842:48
ed6ebb1f0b3b	405842:45
313ca82fe335	405842:26
7012373d248c	405842:9
906c114f6a37	405842:47
4780c4ff2851	405842:13
afa073274618	405842:34
dabaacb8e0c2	405842:10
165431	23
a6b6e3cf36a4	413839:17	413050:17
eaf43055f658	413839:62	413050:62
ed7e9cb68f1a	413839:0	413050:0
b4085d2e2003	413839:10	413050:10
313ca82fe335	413839:43	413050:43
b5a7a86342cb	413839:65
c3021f7564d2	413839:64	413050:64
b8c63a046f4e	413839:12	413050:12
b3dcb286377d	413839:6	413050:6
622b14c530f6	413839:64	413050:64
bb276c9cffeb	413839:7	413050:7
d2ac505725f8	413839:14	413050:14
fc4a7af7418c	413839:2	413050:2
dda69faa1ac1	413839:4	413050:4
f1871c539a47	413839:15	413050:15
7916675c7ab2	413839:1	413050:1
85a3e43952a0	413839:62	413050:62
493703d05279	413839:5	413050:5
afa073274618	413839:51	413050:51
b13c3c93d6ed	413839:62	413050:62
ade0885b3126	413839:4	413050:4
5bafad827a5e	413839:66
a6a26677c18d	413050:66
170549	16
a6b6e3cf36a4	430611:11
0bf225a10fc1	430611:8
df63ce0e8f78	430611:3
9e8471cd2292	430611:7
2a6a30cf4780	430611:3
2bc794b05dce	430611:11
72a65fdda80d	430611:3
ab273df755dd	430611:5
4c6dfd082e65	430611:6
bb5436a892c1	430611:6
2ac97bdd46db	430611:2
82d0fd8fa772	430611:8
c5ee47761780	430611:3
870bdb7ff9c8	430611:10
51c538382270	430611:0
2ddbcd35497d	430611:9
149817	53
56bec749e36f	419815:6
544e2437c6de	419815:0
dbbb9923914f	419815:4
57157b6e2100	419815:5
3f658c78cf90	419815:8
57075ba05b26	419815:0
41b61008de5d	419815:5
23a442bff758	419815:0
e4140940ec33	419815:0
1634118ff3f2	419815:6
a4db24cedb32	419815:0
3b9949f4a948	419815:0
5cb40b30556f	419815:0
d2c448835bbb	419815:8
f10533829c90	419815:0
2e060aaa7e9e	419815:5
b91bb5a5841c	419815:0
e94ee0d684a0	419815:4
1b3679da739f	419815:5
870bdb7ff9c8	419815:20
c69f4c950bc2	419815:5
8b374e69ca73	419815:5
d19bfd6c52d4	419815:0
85d66db19f2f	419815:0
a6b6e3cf36a4	419815:10
2bc794b05dce	419815:21
bd42b2fe53ec	419815:5
2a6a3bb9a45e	419815:0
41cd4c9d07d1	419815:0
304c64df01bd	419815:5
fe715a1d4fb1	419815:8
f1de8ab5753a	419815:8
6aa4de4067e5	419815:5
44728f9b507e	419815:0
5f96ac861c1f	419815:0
1fa57a19bb5d	419815:8
f5b07218be06	419815:0
8647aaf569db	419815:0
231cc0f7eba5	419815:0
f4762ebf49c4	419815:9
0b71ead21826	419815:0
acd7b58e970f	419815:8
ac89fd6de323	419815:0
4babc24f2de4	419815:8
7012373d248c	419815:10
8c31110375c5	419815:5
20c2c8d3171e	419815:8
ebdc4529e0aa	419815:8
35b7b196ea28	419815:15
170251fcad2f	419815:12
80941feb330b	419815:6
fa3455cb6c9b	419815:0
175d6523ecaa	419815:8
