133522@c8a4967de00c	1.0	true
133522@8c31110375c5	1.0	false
133522@7e9138744004	1.0	false
133522@6705f0cf0f7d	1.0	false
133522@417fbcaf20e4	1.0	false
133522@31d9edd19d0e	0.9956308153758807	false
133522@f2258c95c059	3.4968691746531046E-20	false
133522@f15277be8b1c	2.2912820531506074E-21	false
133522@98443a04525a	9.55436167939803E-22	false
133522@870bdb7ff9c8	2.0793166929600792E-39	false
133522@a6b6e3cf36a4	5.520351065695166E-53	false
133522@8870deb3cd89	5.498996108902033E-57	false
133522@d31f25ca302d	2.5001988678161772E-65	false
133522@7012373d248c	7.68596247271757E-67	false
133522@bbac3d3dec30	4.126851710176237E-90	false
