148968@d97e525d1970	1.0	false
148968@c4e5e1910711	1.0	true
148968@580220052898	1.0	false
148968@3c8b2c98575f	1.0	false
148968@15e21aaf9c16	1.0	false
148968@1460cc49cf1c	1.0	false
148968@09dc12b5d333	1.0	false
148968@44300fded884	0.9999999999999973	false
148968@1cbaa32947ef	0.9999999999999023	false
148968@7606620a81fa	0.9999999999995544	false
148968@0bf225a10fc1	0.9999809928353589	false
148968@ca9f6a9aad09	0.27128464228003135	false
148968@4c6dfd082e65	1.242953283760376E-4	false
148968@7e35b3bcc6bf	6.418272288682284E-13	false
148968@63746fdf09ab	6.147045615900578E-15	false
148968@ac8b09b99c40	1.886942319982839E-15	false
148968@a49c0bf29d29	8.33725540583E-17	false
148968@aeab4ec26a3c	1.5819536688971016E-17	false
148968@e84b4b9c4e32	4.344226198926527E-22	false
148968@0f7a77e57938	2.9581473558663573E-30	false
148968@f66af0ea18b8	1.1790286556946316E-31	false
148968@057a8a65ce0e	3.823341139884544E-39	false
148968@219a0ffbcdf1	4.0855043086291413E-41	false
148968@f2258c95c059	6.193957239164491E-42	false
148968@82d0fd8fa772	6.530425906020259E-43	false
148968@225f159e9860	1.800593519041245E-45	false
148968@2ddbcd35497d	7.386569902219371E-46	false
148968@9744ec677e72	1.3783165089694635E-46	false
148968@870bdb7ff9c8	2.8743958952454466E-47	false
148968@67aa6e8fa086	1.7471285943490767E-58	false
148968@cd25567cede7	8.406627218863832E-59	false
148968@a6b6e3cf36a4	8.484499350073322E-60	false
148968@9e8471cd2292	6.111519751686071E-62	false
148968@605859dcad83	2.368802533231725E-69	false
148968@8870deb3cd89	5.229925167288953E-70	false
148968@bb5436a892c1	8.620741286562562E-73	false
148968@bbac3d3dec30	2.011019241356085E-96	false
