152117@fcc8d5c5b79a	1.0	false
152117@fc2a43593c27	1.0	false
152117@ec9db3d2acf6	1.0	false
152117@db2cc88283eb	1.0	false
152117@d96a62445802	1.0	false
152117@cbdbc0fb9c68	1.0	false
152117@be3686c05545	1.0	false
152117@bc5d75b27406	1.0	false
152117@ab1b0a11ace5	1.0	false
152117@a1df45a038cc	1.0	false
152117@9b689c0a90fe	1.0	false
152117@95d21f09c9a1	1.0	false
152117@8559551465d2	1.0	true
152117@793bd4f3fd62	1.0	false
152117@67453e5256ba	1.0	false
152117@40791a38c053	1.0	false
152117@18cadbb0f1e7	1.0	true
152117@09e3f3c15fa1	1.0	false
152117@074545842dfc	0.9999999999999427	false
152117@74877d4e1c6f	0.9999999999993827	false
152117@4f5433c85e8c	0.9999996109163973	false
152117@b6c862445c1f	0.9184800544045149	false
152117@384279af9228	0.025083773087195598	false
152117@a4e50d7c503a	1.5926238955475526E-14	false
152117@12d9f95ee0a9	1.840896696100254E-15	false
152117@8c31110375c5	4.371005195062516E-17	false
152117@72d7cecc2dfd	1.2655621923137039E-18	false
152117@19e4295655c1	1.284908891128637E-21	false
152117@7620cf8ef36f	9.182586979956353E-35	false
152117@79c904b96d41	1.8872291566901956E-45	false
152117@f2258c95c059	1.9076396954038676E-46	false
152117@694e30be7857	4.461468532356021E-50	false
152117@870bdb7ff9c8	9.284270183863079E-52	false
152117@a6b6e3cf36a4	8.784503506485163E-65	false
152117@8870deb3cd89	2.3417402416240294E-74	false
152117@bbac3d3dec30	7.27455452941032E-101	false
