160660@f7182cff6816	1.0	false
160660@e8677922298c	1.0	true
160660@8559551465d2	1.0	false
160660@0ba7f49e71c1	1.0	false
160660@f2258c95c059	3.3389037997969445E-29	false
160660@870bdb7ff9c8	7.931116120822636E-41	false
160660@a6b6e3cf36a4	2.7434471175777465E-42	false
160660@bc43787578a7	3.662796591618374E-43	false
160660@d31f25ca302d	3.3206248601726164E-60	false
160660@8870deb3cd89	7.447466372771289E-62	false
160660@7012373d248c	1.575417383731363E-68	false
160660@bbac3d3dec30	2.82448238608674E-91	false
